# Rhino

mtllib busstop.mtl
g Default
usemtl 
v 8.7038002014160156 1.3183870315551758 4.0007691383361816
v 8.7038002014160156 0 4.0007691383361816
v 7.9782118797302246 1.3183870315551758 5.2891502380371094
v 7.9782118797302246 0 5.2891502380371094
v 7.0687046051025391 1.3183870315551758 6.4549975395202637
v 7.0687046051025391 0 6.4549975395202637
v 5.9955949783325195 1.3183870315551758 7.4722685813903809
v 5.9955949783325195 0 7.4722685813903809
v 4.7828545570373535 1.3183870315551758 8.3182382583618164
v 4.7828545570373535 0 8.3182382583618164
v 3.4575746059417725 1.3183870315551758 8.9740104675292969
v 3.4575746059417725 0 8.9740104675292969
v 2.0493590831756592 1.3183870315551758 9.4249343872070313
v 2.0493590831756592 0 9.4249343872070313
v 0.58966517448425293 1.3183870315551758 9.6609392166137695
v 0.58966517448425293 0 9.6609392166137695
v -0.88889968395233154 1.3183870315551758 9.6767511367797852
v -0.88889968395233154 0 9.6767511367797852
v -2.353306770324707 1.3183870315551758 9.4720182418823242
v -2.353306770324707 0 9.4720182418823242
v -3.7708439826965332 1.3183870315551758 9.0513134002685547
v -3.7708439826965332 0 9.0513134002685547
v -5.1098456382751465 1.3183870315551758 8.4240350723266602
v -5.1098456382751465 0 8.4240350723266602
v -6.3404006958007813 1.3183870315551758 7.6041946411132813
v -6.3404006958007813 0 7.6041946411132813
v -7.4350204467773438 1.3183870315551758 6.6101064682006836
v -7.4350204467773438 0 6.6101064682006836
v -8.3692531585693359 1.3183870315551758 5.4639763832092285
v -8.3692531585693359 0 5.4639763832092285
v -9.1222295761108398 1.3183870315551758 4.1914081573486328
v -9.1222295761108398 0 4.1914081573486328
v -9.677128791809082 1.3183870315551758 2.8208277225494385
v -9.677128791809082 0 2.8208277225494385
v -10.021556854248047 1.3183870315551758 1.3828521966934204
v -10.021556854248047 0 1.3828521966934204
v -10.147818565368652 1.3183870315551758 -0.090396620333194733
v -10.147818565368652 0 -0.090396620333194733
v -10.053092956542969 1.3183870315551758 -1.5660088062286377
v -10.053092956542969 0 -1.5660088062286377
v -9.739497184753418 1.3183870315551758 -3.0110213756561279
v -9.739497184753418 0 -3.0110213756561279
v -9.2140359878540039 1.3183870315551758 -4.393155574798584
v -9.2140359878540039 0 -4.393155574798584
v -8.4884481430053711 1.3183870315551758 -5.6815366744995117
v -8.4884481430053711 0 -5.6815366744995117
v -7.5789403915405273 1.3183870315551758 -6.847383975982666
v -7.5789403915405273 0 -6.847383975982666
v -6.5058307647705078 1.3183870315551758 -7.864654541015625
v -6.5058307647705078 0 -7.864654541015625
v -5.2930903434753418 1.3183870315551758 -8.7106246948242188
v -5.2930903434753418 0 -8.7106246948242188
v -3.9678103923797607 1.3183870315551758 -9.3663959503173828
v -3.9678103923797607 0 -9.3663959503173828
v -2.5595946311950684 1.3183870315551758 -9.8173208236694336
v -2.5595946311950684 0 -9.8173208236694336
v -1.0999009609222412 1.3183870315551758 -10.053325653076172
v -1.0999009609222412 0 -10.053325653076172
v 0.37866386771202087 1.3183870315551758 -10.069137573242188
v 0.37866386771202087 0 -10.069137573242188
v 1.8430711030960083 1.3183870315551758 -9.8644046783447266
v 1.8430711030960083 0 -9.8644046783447266
v 3.2606081962585449 1.3183870315551758 -9.443699836730957
v 3.2606081962585449 0 -9.443699836730957
v 4.5996098518371582 1.3183870315551758 -8.8164215087890625
v 4.5996098518371582 0 -8.8164215087890625
v 5.830164909362793 1.3183870315551758 -7.9965806007385254
v 5.830164909362793 0 -7.9965806007385254
v 6.9247846603393555 1.3183870315551758 -7.0024924278259277
v 6.9247846603393555 0 -7.0024924278259277
v 7.8590173721313477 1.3183870315551758 -5.8563628196716309
v 7.8590173721313477 0 -5.8563628196716309
v 8.6119937896728516 1.3183870315551758 -4.583794116973877
v 8.6119937896728516 0 -4.583794116973877
v 9.1668930053710938 1.3183870315551758 -3.2132139205932617
v 9.1668930053710938 0 -3.2132139205932617
v 9.5113210678100586 1.3183870315551758 -1.7752383947372437
v 9.5113210678100586 0 -1.7752383947372437
v 9.6375827789306641 1.3183870315551758 -0.30198958516120911
v 9.6375827789306641 0 -0.30198958516120911
v 9.5428571701049805 1.3183870315551758 1.1736226081848145
v 9.5428571701049805 0 1.1736226081848145
v 9.2292613983154297 1.3183870315551758 2.6186351776123047
v 9.2292613983154297 0 2.6186351776123047
v 8.7038002014160156 1.3183870315551758 4.0007691383361816
v 8.7038002014160156 0 4.0007691383361816
v 6.8049440383911133 1.3183870315551758 3.1112167835235596
v 6.8049440383911133 0 3.1112167835235596
v 7.2190327644348145 1.3183870315551758 2.0220282077789307
v 7.2190327644348145 0 2.0220282077789307
v 7.4661612510681152 1.3183870315551758 0.88328802585601807
v 7.4661612510681152 0 0.88328802585601807
v 7.5408096313476563 1.3183870315551758 -0.27956584095954895
v 7.5408096313476563 0 -0.27956584095954895
v 7.4413094520568848 1.3183870315551758 -1.4405573606491089
v 7.4413094520568848 0 -1.4405573606491089
v 7.1698837280273438 1.3183870315551758 -2.57375168800354
v 7.1698837280273438 0 -2.57375168800354
v 6.7325959205627441 1.3183870315551758 -3.6538355350494385
v 6.7325959205627441 0 -3.6538355350494385
v 6.139214038848877 1.3183870315551758 -4.6566810607910156
v 6.139214038848877 0 -4.6566810607910156
v 5.4029932022094727 1.3183870315551758 -5.5598869323730469
v 5.4029932022094727 0 -5.5598869323730469
v 4.5403800010681152 1.3183870315551758 -6.3432765007019043
v 4.5403800010681152 0 -6.3432765007019043
v 3.5706429481506348 1.3183870315551758 -6.9893507957458496
v 3.5706429481506348 0 -6.9893507957458496
v 2.5154447555541992 1.3183870315551758 -7.4836769104003906
v 2.5154447555541992 0 -7.4836769104003906
v 1.3983566761016846 1.3183870315551758 -7.8152122497558594
v 1.3983566761016846 0 -7.8152122497558594
v 0.24433286488056183 1.3183870315551758 -7.9765520095825195
v 0.24433286488056183 0 -7.9765520095825195
v -0.92084789276123047 1.3183870315551758 -7.9640908241271973
v -0.92084789276123047 0 -7.9640908241271973
v -2.0711574554443359 1.3183870315551758 -7.7781081199645996
v -2.0711574554443359 0 -7.7781081199645996
v -3.1808993816375732 1.3183870315551758 -7.422757625579834
v -3.1808993816375732 0 -7.422757625579834
v -4.2252845764160156 1.3183870315551758 -6.905977725982666
v -4.2252845764160156 0 -6.905977725982666
v -5.1809825897216797 1.3183870315551758 -6.2393126487731934
v -5.1809825897216797 0 -6.2393126487731934
v -6.0266447067260742 1.3183870315551758 -5.4376540184020996
v -6.0266447067260742 0 -5.4376540184020996
v -6.7433810234069824 1.3183870315551758 -4.5189094543457031
v -6.7433810234069824 0 -4.5189094543457031
v -7.3151798248291016 1.3183870315551758 -3.5036029815673828
v -7.3151798248291016 0 -3.5036029815673828
v -7.7292685508728027 1.3183870315551758 -2.4144144058227539
v -7.7292685508728027 0 -2.4144144058227539
v -7.9763970375061035 1.3183870315551758 -1.2756742238998413
v -7.9763970375061035 0 -1.2756742238998413
v -8.0510454177856445 1.3183870315551758 -0.1128203421831131
v -8.0510454177856445 0 -0.1128203421831131
v -7.951545238494873 1.3183870315551758 1.0481711626052856
v -7.951545238494873 0 1.0481711626052856
v -7.680119514465332 1.3183870315551758 2.1813654899597168
v -7.680119514465332 0 2.1813654899597168
v -7.2428317070007324 1.3183870315551758 3.2614493370056152
v -7.2428317070007324 0 3.2614493370056152
v -6.6494498252868652 1.3183870315551758 4.2642951011657715
v -6.6494498252868652 0 4.2642951011657715
v -5.9132289886474609 1.3183870315551758 5.1675004959106445
v -5.9132289886474609 0 5.1675004959106445
v -5.0506157875061035 1.3183870315551758 5.9508905410766602
v -5.0506157875061035 0 5.9508905410766602
v -4.080878734588623 1.3183870315551758 6.5969643592834473
v -4.080878734588623 0 6.5969643592834473
v -3.0256805419921875 1.3183870315551758 7.0912904739379883
v -3.0256805419921875 0 7.0912904739379883
v -1.9085924625396729 1.3183870315551758 7.4228262901306152
v -1.9085924625396729 0 7.4228262901306152
v -0.75456863641738892 1.3183870315551758 7.5841655731201172
v -0.75456863641738892 0 7.5841655731201172
v 0.41061213612556458 1.3183870315551758 7.5717048645019531
v 0.41061213612556458 0 7.5717048645019531
v 1.5609215497970581 1.3183870315551758 7.3857216835021973
v 1.5609215497970581 0 7.3857216835021973
v 2.670663595199585 1.3183870315551758 7.0303716659545898
v 2.670663595199585 0 7.0303716659545898
v 3.7150487899780273 1.3183870315551758 6.5135917663574219
v 3.7150487899780273 0 6.5135917663574219
v 4.6707468032836914 1.3183870315551758 5.846926212310791
v 4.6707468032836914 0 5.846926212310791
v 5.5164089202880859 1.3183870315551758 5.0452675819396973
v 5.5164089202880859 0 5.0452675819396973
v 6.2331452369689941 1.3183870315551758 4.126523494720459
v 6.2331452369689941 0 4.126523494720459
v 6.8049440383911133 1.3183870315551758 3.1112167835235596
v 6.8049440383911133 0 3.1112167835235596
v 8.7038002014160156 1.3183870315551758 4.0007691383361816
v 7.9782118797302246 1.3183870315551758 5.2891502380371094
v 7.0687046051025391 1.3183870315551758 6.4549975395202637
v 5.9955949783325195 1.3183870315551758 7.4722685813903809
v 4.7828545570373535 1.3183870315551758 8.3182382583618164
v 3.4575746059417725 1.3183870315551758 8.9740104675292969
v 2.0493590831756592 1.3183870315551758 9.4249343872070313
v 0.58966517448425293 1.3183870315551758 9.6609392166137695
v -0.88889968395233154 1.3183870315551758 9.6767511367797852
v -2.353306770324707 1.3183870315551758 9.4720182418823242
v -3.7708439826965332 1.3183870315551758 9.0513134002685547
v -5.1098456382751465 1.3183870315551758 8.4240350723266602
v -6.3404006958007813 1.3183870315551758 7.6041946411132813
v -7.4350204467773438 1.3183870315551758 6.6101064682006836
v -8.3692531585693359 1.3183870315551758 5.4639763832092285
v -9.1222295761108398 1.3183870315551758 4.1914081573486328
v -9.677128791809082 1.3183870315551758 2.8208277225494385
v -10.021556854248047 1.3183870315551758 1.3828521966934204
v -10.147818565368652 1.3183870315551758 -0.090396620333194733
v -10.053092956542969 1.3183870315551758 -1.5660088062286377
v -9.739497184753418 1.3183870315551758 -3.0110213756561279
v -9.2140359878540039 1.3183870315551758 -4.393155574798584
v -8.4884481430053711 1.3183870315551758 -5.6815366744995117
v -7.5789403915405273 1.3183870315551758 -6.847383975982666
v -6.5058307647705078 1.3183870315551758 -7.864654541015625
v -5.2930903434753418 1.3183870315551758 -8.7106246948242188
v -3.9678103923797607 1.3183870315551758 -9.3663959503173828
v -2.5595946311950684 1.3183870315551758 -9.8173208236694336
v -1.0999009609222412 1.3183870315551758 -10.053325653076172
v 0.37866386771202087 1.3183870315551758 -10.069137573242188
v 1.8430711030960083 1.3183870315551758 -9.8644046783447266
v 3.2606081962585449 1.3183870315551758 -9.443699836730957
v 4.5996098518371582 1.3183870315551758 -8.8164215087890625
v 5.830164909362793 1.3183870315551758 -7.9965806007385254
v 6.9247846603393555 1.3183870315551758 -7.0024924278259277
v 7.8590173721313477 1.3183870315551758 -5.8563628196716309
v 8.6119937896728516 1.3183870315551758 -4.583794116973877
v 9.1668930053710938 1.3183870315551758 -3.2132139205932617
v 9.5113210678100586 1.3183870315551758 -1.7752383947372437
v 9.6375827789306641 1.3183870315551758 -0.30198958516120911
v 9.5428571701049805 1.3183870315551758 1.1736226081848145
v 9.2292613983154297 1.3183870315551758 2.6186351776123047
v 6.8049440383911133 1.3183870315551758 3.1112167835235596
v 7.2190327644348145 1.3183870315551758 2.0220282077789307
v 7.4661612510681152 1.3183870315551758 0.88328802585601807
v 7.5408096313476563 1.3183870315551758 -0.27956584095954895
v 7.4413094520568848 1.3183870315551758 -1.4405573606491089
v 7.1698837280273438 1.3183870315551758 -2.57375168800354
v 6.7325959205627441 1.3183870315551758 -3.6538355350494385
v 6.139214038848877 1.3183870315551758 -4.6566810607910156
v 5.4029932022094727 1.3183870315551758 -5.5598869323730469
v 4.5403800010681152 1.3183870315551758 -6.3432765007019043
v 3.5706429481506348 1.3183870315551758 -6.9893507957458496
v 2.5154447555541992 1.3183870315551758 -7.4836769104003906
v 1.3983566761016846 1.3183870315551758 -7.8152122497558594
v 0.24433286488056183 1.3183870315551758 -7.9765520095825195
v -0.92084789276123047 1.3183870315551758 -7.9640908241271973
v -2.0711574554443359 1.3183870315551758 -7.7781081199645996
v -3.1808993816375732 1.3183870315551758 -7.422757625579834
v -4.2252845764160156 1.3183870315551758 -6.905977725982666
v -5.1809825897216797 1.3183870315551758 -6.2393126487731934
v -6.0266447067260742 1.3183870315551758 -5.4376540184020996
v -6.7433810234069824 1.3183870315551758 -4.5189094543457031
v -7.3151798248291016 1.3183870315551758 -3.5036029815673828
v -7.7292685508728027 1.3183870315551758 -2.4144144058227539
v -7.9763970375061035 1.3183870315551758 -1.2756742238998413
v -8.0510454177856445 1.3183870315551758 -0.1128203421831131
v -7.951545238494873 1.3183870315551758 1.0481711626052856
v -7.680119514465332 1.3183870315551758 2.1813654899597168
v -7.2428317070007324 1.3183870315551758 3.2614493370056152
v -6.6494498252868652 1.3183870315551758 4.2642951011657715
v -5.9132289886474609 1.3183870315551758 5.1675004959106445
v -5.0506157875061035 1.3183870315551758 5.9508905410766602
v -4.080878734588623 1.3183870315551758 6.5969643592834473
v -3.0256805419921875 1.3183870315551758 7.0912904739379883
v -1.9085924625396729 1.3183870315551758 7.4228262901306152
v -0.75456863641738892 1.3183870315551758 7.5841655731201172
v 0.41061213612556458 1.3183870315551758 7.5717048645019531
v 1.5609215497970581 1.3183870315551758 7.3857216835021973
v 2.670663595199585 1.3183870315551758 7.0303716659545898
v 3.7150487899780273 1.3183870315551758 6.5135917663574219
v 4.6707468032836914 1.3183870315551758 5.846926212310791
v 5.5164089202880859 1.3183870315551758 5.0452675819396973
v 6.2331452369689941 1.3183870315551758 4.126523494720459
v 8.7038002014160156 0 4.0007691383361816
v 7.9782118797302246 0 5.2891502380371094
v 7.0687046051025391 0 6.4549975395202637
v 5.9955949783325195 0 7.4722685813903809
v 4.7828545570373535 0 8.3182382583618164
v 3.4575746059417725 0 8.9740104675292969
v 2.0493590831756592 0 9.4249343872070313
v 0.58966517448425293 0 9.6609392166137695
v -0.88889968395233154 0 9.6767511367797852
v -2.353306770324707 0 9.4720182418823242
v -3.7708439826965332 0 9.0513134002685547
v -5.1098456382751465 0 8.4240350723266602
v -6.3404006958007813 0 7.6041946411132813
v -7.4350204467773438 0 6.6101064682006836
v -8.3692531585693359 0 5.4639763832092285
v -9.1222295761108398 0 4.1914081573486328
v -9.677128791809082 0 2.8208277225494385
v -10.021556854248047 0 1.3828521966934204
v -10.147818565368652 0 -0.090396620333194733
v -10.053092956542969 0 -1.5660088062286377
v -9.739497184753418 0 -3.0110213756561279
v -9.2140359878540039 0 -4.393155574798584
v -8.4884481430053711 0 -5.6815366744995117
v -7.5789403915405273 0 -6.847383975982666
v -6.5058307647705078 0 -7.864654541015625
v -5.2930903434753418 0 -8.7106246948242188
v -3.9678103923797607 0 -9.3663959503173828
v -2.5595946311950684 0 -9.8173208236694336
v -1.0999009609222412 0 -10.053325653076172
v 0.37866386771202087 0 -10.069137573242188
v 1.8430711030960083 0 -9.8644046783447266
v 3.2606081962585449 0 -9.443699836730957
v 4.5996098518371582 0 -8.8164215087890625
v 5.830164909362793 0 -7.9965806007385254
v 6.9247846603393555 0 -7.0024924278259277
v 7.8590173721313477 0 -5.8563628196716309
v 8.6119937896728516 0 -4.583794116973877
v 9.1668930053710938 0 -3.2132139205932617
v 9.5113210678100586 0 -1.7752383947372437
v 9.6375827789306641 0 -0.30198958516120911
v 9.5428571701049805 0 1.1736226081848145
v 9.2292613983154297 0 2.6186351776123047
v 6.8049440383911133 0 3.1112167835235596
v 7.2190327644348145 0 2.0220282077789307
v 7.4661612510681152 0 0.88328802585601807
v 7.5408096313476563 0 -0.27956584095954895
v 7.4413094520568848 0 -1.4405573606491089
v 7.1698837280273438 0 -2.57375168800354
v 6.7325959205627441 0 -3.6538355350494385
v 6.139214038848877 0 -4.6566810607910156
v 5.4029932022094727 0 -5.5598869323730469
v 4.5403800010681152 0 -6.3432765007019043
v 3.5706429481506348 0 -6.9893507957458496
v 2.5154447555541992 0 -7.4836769104003906
v 1.3983566761016846 0 -7.8152122497558594
v 0.24433286488056183 0 -7.9765520095825195
v -0.92084789276123047 0 -7.9640908241271973
v -2.0711574554443359 0 -7.7781081199645996
v -3.1808993816375732 0 -7.422757625579834
v -4.2252845764160156 0 -6.905977725982666
v -5.1809825897216797 0 -6.2393126487731934
v -6.0266447067260742 0 -5.4376540184020996
v -6.7433810234069824 0 -4.5189094543457031
v -7.3151798248291016 0 -3.5036029815673828
v -7.7292685508728027 0 -2.4144144058227539
v -7.9763970375061035 0 -1.2756742238998413
v -8.0510454177856445 0 -0.1128203421831131
v -7.951545238494873 0 1.0481711626052856
v -7.680119514465332 0 2.1813654899597168
v -7.2428317070007324 0 3.2614493370056152
v -6.6494498252868652 0 4.2642951011657715
v -5.9132289886474609 0 5.1675004959106445
v -5.0506157875061035 0 5.9508905410766602
v -4.080878734588623 0 6.5969643592834473
v -3.0256805419921875 0 7.0912904739379883
v -1.9085924625396729 0 7.4228262901306152
v -0.75456863641738892 0 7.5841655731201172
v 0.41061213612556458 0 7.5717048645019531
v 1.5609215497970581 0 7.3857216835021973
v 2.670663595199585 0 7.0303716659545898
v 3.7150487899780273 0 6.5135917663574219
v 4.6707468032836914 0 5.846926212310791
v 5.5164089202880859 0 5.0452675819396973
v 6.2331452369689941 0 4.126523494720459
vt 0 0
vt 0 0.51616406440734863
vt 0.013315927237272263 0
vt 0.013315927237272263 0.51616406440734863
vt 0.026631854474544525 0
vt 0.026631854474544525 0.51616406440734863
vt 0.039947781711816788 0
vt 0.039947781711816788 0.51616406440734863
vt 0.05326370894908905 0
vt 0.05326370894908905 0.51616406440734863
vt 0.066579639911651611 0
vt 0.066579639911651611 0.51616406440734863
vt 0.079895563423633575 0
vt 0.079895563423633575 0.51616406440734863
vt 0.093211494386196136 0
vt 0.093211494386196136 0.51616406440734863
vt 0.1065274178981781 0
vt 0.1065274178981781 0.51616406440734863
vt 0.11984334886074066 0
vt 0.11984334886074066 0.51616406440734863
vt 0.13315927982330322 0
vt 0.13315927982330322 0.51616406440734863
vt 0.14647519588470459 0
vt 0.14647519588470459 0.51616406440734863
vt 0.15979112684726715 0
vt 0.15979112684726715 0.51616406440734863
vt 0.17310705780982971 0
vt 0.17310705780982971 0.51616406440734863
vt 0.18642298877239227 0
vt 0.18642298877239227 0.51616406440734863
vt 0.19973891973495483 0
vt 0.19973891973495483 0.51616406440734863
vt 0.2130548357963562 0
vt 0.2130548357963562 0.51616406440734863
vt 0.22637076675891876 0
vt 0.22637076675891876 0.51616406440734863
vt 0.23968669772148132 0
vt 0.23968669772148132 0.51616406440734863
vt 0.25300261378288269 0
vt 0.25300261378288269 0.51616406440734863
vt 0.26631855964660645 0
vt 0.26631855964660645 0.51616406440734863
vt 0.27963447570800781 0
vt 0.27963447570800781 0.51616406440734863
vt 0.29295039176940918 0
vt 0.29295039176940918 0.51616406440734863
vt 0.30626633763313293 0
vt 0.30626633763313293 0.51616406440734863
vt 0.3195822536945343 0
vt 0.3195822536945343 0.51616406440734863
vt 0.33289819955825806 0
vt 0.33289819955825806 0.51616406440734863
vt 0.34621411561965942 0
vt 0.34621411561965942 0.51616406440734863
vt 0.35953003168106079 0
vt 0.35953003168106079 0.51616406440734863
vt 0.37284597754478455 0
vt 0.37284597754478455 0.51616406440734863
vt 0.38616189360618591 0
vt 0.38616189360618591 0.51616406440734863
vt 0.39947783946990967 0
vt 0.39947783946990967 0.51616406440734863
vt 0.41279375553131104 0
vt 0.41279375553131104 0.51616406440734863
vt 0.4261096715927124 0
vt 0.4261096715927124 0.51616406440734863
vt 0.43942561745643616 0
vt 0.43942561745643616 0.51616406440734863
vt 0.45274153351783752 0
vt 0.45274153351783752 0.51616406440734863
vt 0.46605744957923889 0
vt 0.46605744957923889 0.51616406440734863
vt 0.47937339544296265 0
vt 0.47937339544296265 0.51616406440734863
vt 0.49268931150436401 0
vt 0.49268931150436401 0.51616406440734863
vt 0.50600522756576538 0
vt 0.50600522756576538 0.51616406440734863
vt 0.51932114362716675 0
vt 0.51932114362716675 0.51616406440734863
vt 0.53263711929321289 0
vt 0.53263711929321289 0.51616406440734863
vt 0.54595303535461426 0
vt 0.54595303535461426 0.51616406440734863
vt 0.55926895141601563 0
vt 0.55926895141601563 0.51616406440734863
vt 0.55926895141601563 0
vt 0.55926895141601563 0.51616406440734863
vt 0.56976252794265747 0
vt 0.56976252794265747 0.51616406440734863
vt 0.58025616407394409 0
vt 0.58025616407394409 0.51616406440734863
vt 0.59074974060058594 0
vt 0.59074974060058594 0.51616406440734863
vt 0.60124331712722778 0
vt 0.60124331712722778 0.51616406440734863
vt 0.6117369532585144 0
vt 0.6117369532585144 0.51616406440734863
vt 0.62223052978515625 0
vt 0.62223052978515625 0.51616406440734863
vt 0.6327241063117981 0
vt 0.6327241063117981 0.51616406440734863
vt 0.64321774244308472 0
vt 0.64321774244308472 0.51616406440734863
vt 0.65371131896972656 0
vt 0.65371131896972656 0.51616406440734863
vt 0.66420489549636841 0
vt 0.66420489549636841 0.51616406440734863
vt 0.67469853162765503 0
vt 0.67469853162765503 0.51616406440734863
vt 0.68519210815429688 0
vt 0.68519210815429688 0.51616406440734863
vt 0.69568568468093872 0
vt 0.69568568468093872 0.51616406440734863
vt 0.70617932081222534 0
vt 0.70617932081222534 0.51616406440734863
vt 0.71667289733886719 0
vt 0.71667289733886719 0.51616406440734863
vt 0.72716647386550903 0
vt 0.72716647386550903 0.51616406440734863
vt 0.73766010999679565 0
vt 0.73766010999679565 0.51616406440734863
vt 0.7481536865234375 0
vt 0.7481536865234375 0.51616406440734863
vt 0.75864726305007935 0
vt 0.75864726305007935 0.51616406440734863
vt 0.76914089918136597 0
vt 0.76914089918136597 0.51616406440734863
vt 0.77963447570800781 0
vt 0.77963447570800781 0.51616406440734863
vt 0.79012805223464966 0
vt 0.79012805223464966 0.51616406440734863
vt 0.80062168836593628 0
vt 0.80062168836593628 0.51616406440734863
vt 0.81111526489257813 0
vt 0.81111526489257813 0.51616406440734863
vt 0.82160884141921997 0
vt 0.82160884141921997 0.51616406440734863
vt 0.83210247755050659 0
vt 0.83210247755050659 0.51616406440734863
vt 0.84259605407714844 0
vt 0.84259605407714844 0.51616406440734863
vt 0.85308963060379028 0
vt 0.85308963060379028 0.51616406440734863
vt 0.8635832667350769 0
vt 0.8635832667350769 0.51616406440734863
vt 0.87407684326171875 0
vt 0.87407684326171875 0.51616406440734863
vt 0.8845704197883606 0
vt 0.8845704197883606 0.51616406440734863
vt 0.89506405591964722 0
vt 0.89506405591964722 0.51616406440734863
vt 0.90555763244628906 0
vt 0.90555763244628906 0.51616406440734863
vt 0.91605120897293091 0
vt 0.91605120897293091 0.51616406440734863
vt 0.92654484510421753 0
vt 0.92654484510421753 0.51616406440734863
vt 0.93703842163085938 0
vt 0.93703842163085938 0.51616406440734863
vt 0.94753199815750122 0
vt 0.94753199815750122 0.51616406440734863
vt 0.95802563428878784 0
vt 0.95802563428878784 0.51616406440734863
vt 0.96851921081542969 0
vt 0.96851921081542969 0.51616406440734863
vt 0.97901278734207153 0
vt 0.97901278734207153 0.51616406440734863
vt 0.98950642347335815 0
vt 0.98950642347335815 0.51616406440734863
vt 1 0
vt 1 0.51616406440734863
vt 0.17818695306777954 0.75808227062225342
vt 0.17719185352325439 0.72192519903182983
vt 0.17422877252101898 0.68657582998275757
vt 0.16936391592025757 0.652823805809021
vt 0.16270595788955688 0.62142306566238403
vt 0.15440361201763153 0.59307503700256348
vt 0.14464235305786133 0.56841301918029785
vt 0.13364021480083466 0.54798793792724609
vt 0.12164297699928284 0.53225594758987427
vt 0.10891863703727722 0.52156859636306763
vt 0.095751442015171051 0.51616454124450684
vt 0.08243551105260849 0.51616454124450684
vt 0.069268308579921722 0.52156859636306763
vt 0.056543972343206406 0.53225594758987427
vt 0.044546738266944885 0.54798793792724609
vt 0.033544603735208511 0.56841301918029785
vt 0.023783337324857712 0.59307503700256348
vt 0.015480991452932358 0.62142306566238403
vt 0.0088230278342962265 0.652823805809021
vt 0.0039581730961799622 0.68657582998275757
vt 0.0009951004758477211 0.72192519903182983
vt 0 0.75808227062225342
vt 0.0009951004758477211 0.794239342212677
vt 0.0039581730961799622 0.82958871126174927
vt 0.0088230278342962265 0.86334079504013062
vt 0.015480991452932358 0.89474153518676758
vt 0.023783337324857712 0.92308950424194336
vt 0.033544603735208511 0.94775152206420898
vt 0.044546738266944885 0.96817666292190552
vt 0.056543972343206406 0.98390859365463257
vt 0.069268308579921722 0.99459594488143921
vt 0.08243551105260849 1
vt 0.095751442015171051 1
vt 0.10891863703727722 0.99459594488143921
vt 0.12164297699928284 0.98390859365463257
vt 0.13364021480083466 0.96817666292190552
vt 0.14464235305786133 0.94775152206420898
vt 0.15440361201763153 0.92308950424194336
vt 0.16270595788955688 0.89474153518676758
vt 0.16936391592025757 0.86334079504013062
vt 0.17422877252101898 0.82958871126174927
vt 0.17719185352325439 0.794239342212677
vt 0.1593034565448761 0.75808227062225342
vt 0.15851926803588867 0.7865757942199707
vt 0.15618422627449036 0.81443279981613159
vt 0.15235048532485962 0.84103107452392578
vt 0.1471036821603775 0.86577636003494263
vt 0.14056102931499481 0.88811600208282471
vt 0.13286867737770081 0.90755081176757813
vt 0.12419846653938293 0.92364680767059326
vt 0.11474405974149704 0.93604433536529541
vt 0.10471666604280472 0.94446653127670288
vt 0.09434027224779129 0.94872516393661499
vt 0.083846680819988251 0.94872516393661499
vt 0.073470287024974823 0.94446653127670288
vt 0.063442893326282501 0.93604433536529541
vt 0.053988486528396606 0.92364680767059326
vt 0.045318271964788437 0.90755081176757813
vt 0.037625920027494431 0.88811600208282471
vt 0.031083269044756889 0.86577636003494263
vt 0.02583647146821022 0.84103107452392578
vt 0.022002730518579483 0.81443279981613159
vt 0.019667685031890869 0.7865757942199707
vt 0.018883498385548592 0.75808227062225342
vt 0.019667685031890869 0.72958874702453613
vt 0.022002730518579483 0.70173174142837524
vt 0.02583647146821022 0.67513346672058105
vt 0.031083269044756889 0.65038818120956421
vt 0.037625920027494431 0.6280485987663269
vt 0.045318271964788437 0.60861372947692871
vt 0.053988486528396606 0.59251773357391357
vt 0.063442893326282501 0.58012020587921143
vt 0.073470287024974823 0.57169800996780396
vt 0.083846680819988251 0.56743937730789185
vt 0.09434027224779129 0.56743937730789185
vt 0.10471666604280472 0.57169800996780396
vt 0.11474405974149704 0.58012020587921143
vt 0.12419846653938293 0.59251773357391357
vt 0.13286867737770081 0.60861372947692871
vt 0.14056102931499481 0.6280485987663269
vt 0.1471036821603775 0.65038818120956421
vt 0.15235048532485962 0.67513346672058105
vt 0.15618422627449036 0.70173174142837524
vt 0.15851926803588867 0.72958874702453613
vt 0.17818695306777954 0.75808227062225342
vt 0.17719185352325439 0.794239342212677
vt 0.17422877252101898 0.82958871126174927
vt 0.16936391592025757 0.86334079504013062
vt 0.16270595788955688 0.89474153518676758
vt 0.15440361201763153 0.92308950424194336
vt 0.14464235305786133 0.94775152206420898
vt 0.13364021480083466 0.96817666292190552
vt 0.12164297699928284 0.98390859365463257
vt 0.10891863703727722 0.99459594488143921
vt 0.095751442015171051 1
vt 0.08243551105260849 1
vt 0.069268308579921722 0.99459594488143921
vt 0.056543972343206406 0.98390859365463257
vt 0.044546738266944885 0.96817666292190552
vt 0.033544603735208511 0.94775152206420898
vt 0.023783337324857712 0.92308950424194336
vt 0.015480991452932358 0.89474153518676758
vt 0.0088230278342962265 0.86334079504013062
vt 0.0039581730961799622 0.82958871126174927
vt 0.0009951004758477211 0.794239342212677
vt 0 0.75808227062225342
vt 0.0009951004758477211 0.72192519903182983
vt 0.0039581730961799622 0.68657582998275757
vt 0.0088230278342962265 0.652823805809021
vt 0.015480991452932358 0.62142306566238403
vt 0.023783337324857712 0.59307503700256348
vt 0.033544603735208511 0.56841301918029785
vt 0.044546738266944885 0.54798793792724609
vt 0.056543972343206406 0.53225594758987427
vt 0.069268308579921722 0.52156859636306763
vt 0.08243551105260849 0.51616454124450684
vt 0.095751442015171051 0.51616454124450684
vt 0.10891863703727722 0.52156859636306763
vt 0.12164297699928284 0.53225594758987427
vt 0.13364021480083466 0.54798793792724609
vt 0.14464235305786133 0.56841301918029785
vt 0.15440361201763153 0.59307503700256348
vt 0.16270595788955688 0.62142306566238403
vt 0.16936391592025757 0.652823805809021
vt 0.17422877252101898 0.68657582998275757
vt 0.17719185352325439 0.72192519903182983
vt 0.1593034565448761 0.75808227062225342
vt 0.15851926803588867 0.72958874702453613
vt 0.15618422627449036 0.70173174142837524
vt 0.15235048532485962 0.67513346672058105
vt 0.1471036821603775 0.65038818120956421
vt 0.14056102931499481 0.6280485987663269
vt 0.13286867737770081 0.60861372947692871
vt 0.12419846653938293 0.59251773357391357
vt 0.11474405974149704 0.58012020587921143
vt 0.10471666604280472 0.57169800996780396
vt 0.09434027224779129 0.56743937730789185
vt 0.083846680819988251 0.56743937730789185
vt 0.073470287024974823 0.57169800996780396
vt 0.063442893326282501 0.58012020587921143
vt 0.053988486528396606 0.59251773357391357
vt 0.045318271964788437 0.60861372947692871
vt 0.037625920027494431 0.6280485987663269
vt 0.031083269044756889 0.65038818120956421
vt 0.02583647146821022 0.67513346672058105
vt 0.022002730518579483 0.70173174142837524
vt 0.019667685031890869 0.72958874702453613
vt 0.018883498385548592 0.75808227062225342
vt 0.019667685031890869 0.7865757942199707
vt 0.022002730518579483 0.81443279981613159
vt 0.02583647146821022 0.84103107452392578
vt 0.031083269044756889 0.86577636003494263
vt 0.037625920027494431 0.88811600208282471
vt 0.045318271964788437 0.90755081176757813
vt 0.053988486528396606 0.92364680767059326
vt 0.063442893326282501 0.93604433536529541
vt 0.073470287024974823 0.94446653127670288
vt 0.083846680819988251 0.94872516393661499
vt 0.09434027224779129 0.94872516393661499
vt 0.10471666604280472 0.94446653127670288
vt 0.11474405974149704 0.93604433536529541
vt 0.12419846653938293 0.92364680767059326
vt 0.13286867737770081 0.90755081176757813
vt 0.14056102931499481 0.88811600208282471
vt 0.1471036821603775 0.86577636003494263
vt 0.15235048532485962 0.84103107452392578
vt 0.15618422627449036 0.81443279981613159
vt 0.15851926803588867 0.7865757942199707
vn 0.90555721521377563 0 0.42422416806221008
vn 0.90555721521377563 0 0.42422416806221008
vn 0.83221554756164551 0 0.55445224046707153
vn 0.83221554756164551 0 0.55445224046707153
vn 0.7402835488319397 0 0.6722947359085083
vn 0.7402835488319397 0 0.6722947359085083
vn 0.63181489706039429 0 0.77511930465698242
vn 0.63181489706039429 0 0.77511930465698242
vn 0.50923252105712891 0 0.86062896251678467
vn 0.50923252105712891 0 0.86062896251678467
vn 0.37527468800544739 0 0.92691361904144287
vn 0.37527468800544739 0 0.92691361904144287
vn 0.23293387889862061 0 0.97249257564544678
vn 0.23293387889862061 0 0.97249257564544678
vn 0.085389703512191772 0 0.99634760618209839
vn 0.085389703512191772 0 0.99634760618209839
vn -0.064061932265758514 0 0.99794590473175049
vn -0.064061932265758514 0 0.99794590473175049
vn -0.21208253502845764 0 0.97725176811218262
vn -0.21208253502845764 0 0.97725176811218262
vn -0.3553655743598938 0 0.93472737073898315
vn -0.3553655743598938 0 0.93472737073898315
vn -0.49071031808853149 0 0.87132275104522705
vn -0.49071031808853149 0 0.87132275104522705
vn -0.6150934100151062 0 0.78845423460006714
vn -0.6150934100151062 0 0.78845423460006714
vn -0.72573632001876831 0 0.68797296285629272
vn -0.72573632001876831 0 0.68797296285629272
vn -0.82016748189926147 0 0.57212346792221069
vn -0.82016748189926147 0 0.57212346792221069
vn -0.89627748727798462 0 0.44349369406700134
vn -0.89627748727798462 0 0.44349369406700134
vn -0.95236611366271973 0 0.30495700240135193
vn -0.95236611366271973 0 0.30495700240135193
vn -0.98718047142028809 0 0.15960809588432312
vn -0.98718047142028809 0 0.15960809588432312
vn -0.9999428391456604 0 0.010693786665797234
vn -0.9999428391456604 0 0.010693786665797234
vn -0.99036812782287598 0 -0.13845939934253693
vn -0.99036812782287598 0 -0.13845939934253693
vn -0.95867019891738892 0 -0.28451964259147644
vn -0.95867019891738892 0 -0.28451964259147644
vn -0.90555721521377563 0 -0.42422416806221008
vn -0.90555721521377563 0 -0.42422416806221008
vn -0.83221554756164551 0 -0.55445224046707153
vn -0.83221554756164551 0 -0.55445224046707153
vn -0.7402835488319397 0 -0.6722947359085083
vn -0.7402835488319397 0 -0.6722947359085083
vn -0.63181489706039429 0 -0.77511930465698242
vn -0.63181489706039429 0 -0.77511930465698242
vn -0.50923252105712891 0 -0.86062896251678467
vn -0.50923252105712891 0 -0.86062896251678467
vn -0.37527468800544739 0 -0.92691361904144287
vn -0.37527468800544739 0 -0.92691361904144287
vn -0.23293387889862061 0 -0.97249257564544678
vn -0.23293387889862061 0 -0.97249257564544678
vn -0.085389703512191772 0 -0.99634760618209839
vn -0.085389703512191772 0 -0.99634760618209839
vn 0.064061932265758514 0 -0.99794590473175049
vn 0.064061932265758514 0 -0.99794590473175049
vn 0.21208253502845764 0 -0.97725176811218262
vn 0.21208253502845764 0 -0.97725176811218262
vn 0.3553655743598938 0 -0.93472737073898315
vn 0.3553655743598938 0 -0.93472737073898315
vn 0.49071031808853149 0 -0.87132275104522705
vn 0.49071031808853149 0 -0.87132275104522705
vn 0.6150934100151062 0 -0.78845423460006714
vn 0.6150934100151062 0 -0.78845423460006714
vn 0.72573632001876831 0 -0.68797296285629272
vn 0.72573632001876831 0 -0.68797296285629272
vn 0.82016748189926147 0 -0.57212346792221069
vn 0.82016748189926147 0 -0.57212346792221069
vn 0.89627748727798462 0 -0.44349369406700134
vn 0.89627748727798462 0 -0.44349369406700134
vn 0.95236611366271973 0 -0.30495700240135193
vn 0.95236611366271973 0 -0.30495700240135193
vn 0.98718047142028809 0 -0.15960809588432312
vn 0.98718047142028809 0 -0.15960809588432312
vn 0.9999428391456604 0 -0.010693786665797234
vn 0.9999428391456604 0 -0.010693786665797234
vn 0.99036812782287598 0 0.13845939934253693
vn 0.99036812782287598 0 0.13845939934253693
vn 0.95867019891738892 0 0.28451964259147644
vn 0.95867019891738892 0 0.28451964259147644
vn 0.90555721521377563 0 0.42422416806221008
vn 0.90555721521377563 0 0.42422416806221008
vn -0.90555721521377563 0 -0.42422416806221008
vn -0.90555721521377563 0 -0.42422416806221008
vn -0.95867019891738892 0 -0.28451964259147644
vn -0.95867019891738892 0 -0.28451964259147644
vn -0.99036812782287598 0 -0.13845939934253693
vn -0.99036812782287598 0 -0.13845939934253693
vn -0.9999428391456604 0 0.010693786665797234
vn -0.9999428391456604 0 0.010693786665797234
vn -0.98718047142028809 0 0.15960809588432312
vn -0.98718047142028809 0 0.15960809588432312
vn -0.95236611366271973 0 0.30495700240135193
vn -0.95236611366271973 0 0.30495700240135193
vn -0.89627748727798462 0 0.44349369406700134
vn -0.89627748727798462 0 0.44349369406700134
vn -0.82016748189926147 0 0.57212346792221069
vn -0.82016748189926147 0 0.57212346792221069
vn -0.72573632001876831 0 0.68797296285629272
vn -0.72573632001876831 0 0.68797296285629272
vn -0.6150934100151062 0 0.78845423460006714
vn -0.6150934100151062 0 0.78845423460006714
vn -0.49071031808853149 0 0.87132275104522705
vn -0.49071031808853149 0 0.87132275104522705
vn -0.3553655743598938 0 0.93472737073898315
vn -0.3553655743598938 0 0.93472737073898315
vn -0.21208253502845764 0 0.97725176811218262
vn -0.21208253502845764 0 0.97725176811218262
vn -0.064061932265758514 0 0.99794590473175049
vn -0.064061932265758514 0 0.99794590473175049
vn 0.085389703512191772 0 0.99634760618209839
vn 0.085389703512191772 0 0.99634760618209839
vn 0.23293387889862061 0 0.97249257564544678
vn 0.23293387889862061 0 0.97249257564544678
vn 0.37527468800544739 0 0.92691361904144287
vn 0.37527468800544739 0 0.92691361904144287
vn 0.50923252105712891 0 0.86062896251678467
vn 0.50923252105712891 0 0.86062896251678467
vn 0.63181489706039429 0 0.77511930465698242
vn 0.63181489706039429 0 0.77511930465698242
vn 0.7402835488319397 0 0.6722947359085083
vn 0.7402835488319397 0 0.6722947359085083
vn 0.83221554756164551 0 0.55445224046707153
vn 0.83221554756164551 0 0.55445224046707153
vn 0.90555721521377563 0 0.42422416806221008
vn 0.90555721521377563 0 0.42422416806221008
vn 0.95867019891738892 0 0.28451964259147644
vn 0.95867019891738892 0 0.28451964259147644
vn 0.99036812782287598 0 0.13845939934253693
vn 0.99036812782287598 0 0.13845939934253693
vn 0.9999428391456604 0 -0.010693786665797234
vn 0.9999428391456604 0 -0.010693786665797234
vn 0.98718047142028809 0 -0.15960809588432312
vn 0.98718047142028809 0 -0.15960809588432312
vn 0.95236611366271973 0 -0.30495700240135193
vn 0.95236611366271973 0 -0.30495700240135193
vn 0.89627748727798462 0 -0.44349369406700134
vn 0.89627748727798462 0 -0.44349369406700134
vn 0.82016748189926147 0 -0.57212346792221069
vn 0.82016748189926147 0 -0.57212346792221069
vn 0.72573632001876831 0 -0.68797296285629272
vn 0.72573632001876831 0 -0.68797296285629272
vn 0.6150934100151062 0 -0.78845423460006714
vn 0.6150934100151062 0 -0.78845423460006714
vn 0.49071031808853149 0 -0.87132275104522705
vn 0.49071031808853149 0 -0.87132275104522705
vn 0.3553655743598938 0 -0.93472737073898315
vn 0.3553655743598938 0 -0.93472737073898315
vn 0.21208253502845764 0 -0.97725176811218262
vn 0.21208253502845764 0 -0.97725176811218262
vn 0.064061932265758514 0 -0.99794590473175049
vn 0.064061932265758514 0 -0.99794590473175049
vn -0.085389703512191772 0 -0.99634760618209839
vn -0.085389703512191772 0 -0.99634760618209839
vn -0.23293387889862061 0 -0.97249257564544678
vn -0.23293387889862061 0 -0.97249257564544678
vn -0.37527468800544739 0 -0.92691361904144287
vn -0.37527468800544739 0 -0.92691361904144287
vn -0.50923252105712891 0 -0.86062896251678467
vn -0.50923252105712891 0 -0.86062896251678467
vn -0.63181489706039429 0 -0.77511930465698242
vn -0.63181489706039429 0 -0.77511930465698242
vn -0.7402835488319397 0 -0.6722947359085083
vn -0.7402835488319397 0 -0.6722947359085083
vn -0.83221554756164551 0 -0.55445224046707153
vn -0.83221554756164551 0 -0.55445224046707153
vn -0.90555721521377563 0 -0.42422416806221008
vn -0.90555721521377563 0 -0.42422416806221008
vn 0 1 0
vn 0 1 0
vn 0 1 0
vn 0 1 0
vn 0 1 0
vn 0 1 0
vn 0 1 0
vn 0 1 0
vn 0 1 0
vn 0 1 0
vn 0 1 0
vn 0 1 0
vn 0 1 0
vn 0 1 0
vn 0 1 0
vn 0 1 0
vn 0 1 0
vn 0 1 0
vn 0 1 0
vn 0 1 0
vn 0 1 0
vn 0 1 0
vn 0 1 0
vn 0 1 0
vn 0 1 0
vn 0 1 0
vn 0 1 0
vn 0 1 0
vn 0 1 0
vn 0 1 0
vn 0 1 0
vn 0 1 0
vn 0 1 0
vn 0 1 0
vn 0 1 0
vn 0 1 0
vn 0 1 0
vn 0 1 0
vn 0 1 0
vn 0 1 0
vn 0 1 0
vn 0 1 0
vn 0 1 0
vn 0 1 0
vn 0 1 0
vn 0 1 0
vn 0 1 0
vn 0 1 0
vn 0 1 0
vn 0 1 0
vn 0 1 0
vn 0 1 0
vn 0 1 0
vn 0 1 0
vn 0 1 0
vn 0 1 0
vn 0 1 0
vn 0 1 0
vn 0 1 0
vn 0 1 0
vn 0 1 0
vn 0 1 0
vn 0 1 0
vn 0 1 0
vn 0 1 0
vn 0 1 0
vn 0 1 0
vn 0 1 0
vn 0 1 0
vn 0 1 0
vn 0 1 0
vn 0 1 0
vn 0 1 0
vn 0 1 0
vn 0 1 0
vn 0 1 0
vn 0 1 0
vn 0 1 0
vn 0 1 0
vn 0 1 0
vn 0 1 0
vn 0 1 0
vn 0 1 0
vn 0 1 0
vn 0 -1 0
vn 0 -1 0
vn 0 -1 0
vn 0 -1 0
vn 0 -1 0
vn 0 -1 0
vn 0 -1 0
vn 0 -1 0
vn 0 -1 0
vn 0 -1 0
vn 0 -1 0
vn 0 -1 0
vn 0 -1 0
vn 0 -1 0
vn 0 -1 0
vn 0 -1 0
vn 0 -1 0
vn 0 -1 0
vn 0 -1 0
vn 0 -1 0
vn 0 -1 0
vn 0 -1 0
vn 0 -1 0
vn 0 -1 0
vn 0 -1 0
vn 0 -1 0
vn 0 -1 0
vn 0 -1 0
vn 0 -1 0
vn 0 -1 0
vn 0 -1 0
vn 0 -1 0
vn 0 -1 0
vn 0 -1 0
vn 0 -1 0
vn 0 -1 0
vn 0 -1 0
vn 0 -1 0
vn 0 -1 0
vn 0 -1 0
vn 0 -1 0
vn 0 -1 0
vn 0 -1 0
vn 0 -1 0
vn 0 -1 0
vn 0 -1 0
vn 0 -1 0
vn 0 -1 0
vn 0 -1 0
vn 0 -1 0
vn 0 -1 0
vn 0 -1 0
vn 0 -1 0
vn 0 -1 0
vn 0 -1 0
vn 0 -1 0
vn 0 -1 0
vn 0 -1 0
vn 0 -1 0
vn 0 -1 0
vn 0 -1 0
vn 0 -1 0
vn 0 -1 0
vn 0 -1 0
vn 0 -1 0
vn 0 -1 0
vn 0 -1 0
vn 0 -1 0
vn 0 -1 0
vn 0 -1 0
vn 0 -1 0
vn 0 -1 0
vn 0 -1 0
vn 0 -1 0
vn 0 -1 0
vn 0 -1 0
vn 0 -1 0
vn 0 -1 0
vn 0 -1 0
vn 0 -1 0
vn 0 -1 0
vn 0 -1 0
vn 0 -1 0
vn 0 -1 0
f 1/1/1 3/3/3 4/4/4 2/2/2
f 3/3/3 5/5/5 6/6/6 4/4/4
f 5/5/5 7/7/7 8/8/8 6/6/6
f 7/7/7 9/9/9 10/10/10 8/8/8
f 9/9/9 11/11/11 12/12/12 10/10/10
f 11/11/11 13/13/13 14/14/14 12/12/12
f 13/13/13 15/15/15 16/16/16 14/14/14
f 15/15/15 17/17/17 18/18/18 16/16/16
f 17/17/17 19/19/19 20/20/20 18/18/18
f 19/19/19 21/21/21 22/22/22 20/20/20
f 21/21/21 23/23/23 24/24/24 22/22/22
f 23/23/23 25/25/25 26/26/26 24/24/24
f 25/25/25 27/27/27 28/28/28 26/26/26
f 27/27/27 29/29/29 30/30/30 28/28/28
f 29/29/29 31/31/31 32/32/32 30/30/30
f 31/31/31 33/33/33 34/34/34 32/32/32
f 33/33/33 35/35/35 36/36/36 34/34/34
f 35/35/35 37/37/37 38/38/38 36/36/36
f 37/37/37 39/39/39 40/40/40 38/38/38
f 39/39/39 41/41/41 42/42/42 40/40/40
f 41/41/41 43/43/43 44/44/44 42/42/42
f 43/43/43 45/45/45 46/46/46 44/44/44
f 45/45/45 47/47/47 48/48/48 46/46/46
f 47/47/47 49/49/49 50/50/50 48/48/48
f 49/49/49 51/51/51 52/52/52 50/50/50
f 51/51/51 53/53/53 54/54/54 52/52/52
f 53/53/53 55/55/55 56/56/56 54/54/54
f 55/55/55 57/57/57 58/58/58 56/56/56
f 57/57/57 59/59/59 60/60/60 58/58/58
f 59/59/59 61/61/61 62/62/62 60/60/60
f 61/61/61 63/63/63 64/64/64 62/62/62
f 63/63/63 65/65/65 66/66/66 64/64/64
f 65/65/65 67/67/67 68/68/68 66/66/66
f 67/67/67 69/69/69 70/70/70 68/68/68
f 69/69/69 71/71/71 72/72/72 70/70/70
f 71/71/71 73/73/73 74/74/74 72/72/72
f 73/73/73 75/75/75 76/76/76 74/74/74
f 75/75/75 77/77/77 78/78/78 76/76/76
f 77/77/77 79/79/79 80/80/80 78/78/78
f 79/79/79 81/81/81 82/82/82 80/80/80
f 81/81/81 83/83/83 84/84/84 82/82/82
f 83/83/83 85/85/85 86/86/86 84/84/84
f 87/87/87 89/89/89 90/90/90 88/88/88
f 89/89/89 91/91/91 92/92/92 90/90/90
f 91/91/91 93/93/93 94/94/94 92/92/92
f 93/93/93 95/95/95 96/96/96 94/94/94
f 95/95/95 97/97/97 98/98/98 96/96/96
f 97/97/97 99/99/99 100/100/100 98/98/98
f 99/99/99 101/101/101 102/102/102 100/100/100
f 101/101/101 103/103/103 104/104/104 102/102/102
f 103/103/103 105/105/105 106/106/106 104/104/104
f 105/105/105 107/107/107 108/108/108 106/106/106
f 107/107/107 109/109/109 110/110/110 108/108/108
f 109/109/109 111/111/111 112/112/112 110/110/110
f 111/111/111 113/113/113 114/114/114 112/112/112
f 113/113/113 115/115/115 116/116/116 114/114/114
f 115/115/115 117/117/117 118/118/118 116/116/116
f 117/117/117 119/119/119 120/120/120 118/118/118
f 119/119/119 121/121/121 122/122/122 120/120/120
f 121/121/121 123/123/123 124/124/124 122/122/122
f 123/123/123 125/125/125 126/126/126 124/124/124
f 125/125/125 127/127/127 128/128/128 126/126/126
f 127/127/127 129/129/129 130/130/130 128/128/128
f 129/129/129 131/131/131 132/132/132 130/130/130
f 131/131/131 133/133/133 134/134/134 132/132/132
f 133/133/133 135/135/135 136/136/136 134/134/134
f 135/135/135 137/137/137 138/138/138 136/136/136
f 137/137/137 139/139/139 140/140/140 138/138/138
f 139/139/139 141/141/141 142/142/142 140/140/140
f 141/141/141 143/143/143 144/144/144 142/142/142
f 143/143/143 145/145/145 146/146/146 144/144/144
f 145/145/145 147/147/147 148/148/148 146/146/146
f 147/147/147 149/149/149 150/150/150 148/148/148
f 149/149/149 151/151/151 152/152/152 150/150/150
f 151/151/151 153/153/153 154/154/154 152/152/152
f 153/153/153 155/155/155 156/156/156 154/154/154
f 155/155/155 157/157/157 158/158/158 156/156/156
f 157/157/157 159/159/159 160/160/160 158/158/158
f 159/159/159 161/161/161 162/162/162 160/160/160
f 161/161/161 163/163/163 164/164/164 162/162/162
f 163/163/163 165/165/165 166/166/166 164/164/164
f 165/165/165 167/167/167 168/168/168 166/166/166
f 167/167/167 169/169/169 170/170/170 168/168/168
f 169/169/169 171/171/171 172/172/172 170/170/170
f 232/232/232 198/198/198 197/197/197
f 197/197/197 233/233/233 232/232/232
f 199/199/199 198/198/198 231/231/231
f 198/198/198 232/232/232 231/231/231
f 234/234/234 233/233/233 197/197/197
f 235/235/235 195/195/195 194/194/194
f 235/235/235 234/234/234 196/196/196
f 197/197/197 196/196/196 234/234/234
f 195/195/195 235/235/235 196/196/196
f 236/236/236 235/235/235 194/194/194
f 202/202/202 201/201/201 229/229/229
f 204/204/204 203/203/203 227/227/227
f 205/205/205 204/204/204 226/226/226
f 227/227/227 203/203/203 202/202/202
f 227/227/227 226/226/226 204/204/204
f 231/231/231 230/230/230 200/200/200
f 230/230/230 201/201/201 200/200/200
f 199/199/199 231/231/231 200/200/200
f 229/229/229 201/201/201 230/230/230
f 228/228/228 202/202/202 229/229/229
f 228/228/228 227/227/227 202/202/202
f 238/238/238 193/193/193 192/192/192
f 193/193/193 238/238/238 237/237/237
f 193/193/193 237/237/237 236/236/236
f 236/236/236 194/194/194 193/193/193
f 239/239/239 238/238/238 192/192/192
f 239/239/239 191/191/191 190/190/190
f 189/189/189 240/240/240 190/190/190
f 239/239/239 190/190/190 240/240/240
f 241/241/241 240/240/240 189/189/189
f 239/239/239 192/192/192 191/191/191
f 188/188/188 242/242/242 241/241/241
f 186/186/186 245/245/245 244/244/244
f 187/187/187 244/244/244 243/243/243
f 188/188/188 243/243/243 242/242/242
f 187/187/187 186/186/186 244/244/244
f 243/243/243 188/188/188 187/187/187
f 184/184/184 246/246/246 185/185/185
f 245/245/245 186/186/186 185/185/185
f 247/247/247 246/246/246 184/184/184
f 246/246/246 245/245/245 185/185/185
f 189/189/189 188/188/188 241/241/241
f 205/205/205 225/225/225 224/224/224
f 226/226/226 225/225/225 205/205/205
f 207/207/207 206/206/206 223/223/223
f 224/224/224 206/206/206 205/205/205
f 208/208/208 207/207/207 223/223/223
f 206/206/206 224/224/224 223/223/223
f 222/222/222 221/221/221 209/209/209
f 221/221/221 220/220/220 210/210/210
f 222/222/222 208/208/208 223/223/223
f 208/208/208 222/222/222 209/209/209
f 209/209/209 221/221/221 210/210/210
f 220/220/220 211/211/211 210/210/210
f 219/219/219 212/212/212 211/211/211
f 211/211/211 220/220/220 219/219/219
f 218/218/218 212/212/212 219/219/219
f 213/213/213 218/218/218 217/217/217
f 214/214/214 217/217/217 216/216/216
f 173/173/173 216/216/216 215/215/215
f 213/213/213 217/217/217 214/214/214
f 214/214/214 216/216/216 173/173/173
f 213/213/213 212/212/212 218/218/218
f 181/181/181 249/249/249 248/248/248
f 179/179/179 251/251/251 180/180/180
f 180/180/180 251/251/251 250/250/250
f 181/181/181 250/250/250 249/249/249
f 184/184/184 183/183/183 247/247/247
f 182/182/182 247/247/247 183/183/183
f 247/247/247 182/182/182 248/248/248
f 182/182/182 181/181/181 248/248/248
f 181/181/181 180/180/180 250/250/250
f 178/178/178 252/252/252 251/251/251
f 175/175/175 256/256/256 255/255/255
f 175/175/175 174/174/174 256/256/256
f 174/174/174 215/215/215 256/256/256
f 174/174/174 173/173/173 215/215/215
f 176/176/176 175/175/175 255/255/255
f 178/178/178 251/251/251 179/179/179
f 177/177/177 253/253/253 252/252/252
f 254/254/254 253/253/253 177/177/177
f 252/252/252 178/178/178 177/177/177
f 176/176/176 254/254/254 177/177/177
f 176/176/176 255/255/255 254/254/254
f 316/316/316 281/281/281 282/282/282
f 281/281/281 316/316/316 317/317/317
f 283/283/283 315/315/315 282/282/282
f 282/282/282 315/315/315 316/316/316
f 318/318/318 281/281/281 317/317/317
f 319/319/319 278/278/278 279/279/279
f 319/319/319 280/280/280 318/318/318
f 281/281/281 318/318/318 280/280/280
f 279/279/279 280/280/280 319/319/319
f 320/320/320 278/278/278 319/319/319
f 286/286/286 313/313/313 285/285/285
f 288/288/288 311/311/311 287/287/287
f 289/289/289 310/310/310 288/288/288
f 311/311/311 286/286/286 287/287/287
f 311/311/311 288/288/288 310/310/310
f 315/315/315 284/284/284 314/314/314
f 314/314/314 284/284/284 285/285/285
f 283/283/283 284/284/284 315/315/315
f 313/313/313 314/314/314 285/285/285
f 312/312/312 313/313/313 286/286/286
f 312/312/312 286/286/286 311/311/311
f 322/322/322 276/276/276 277/277/277
f 277/277/277 321/321/321 322/322/322
f 277/277/277 320/320/320 321/321/321
f 320/320/320 277/277/277 278/278/278
f 323/323/323 276/276/276 322/322/322
f 323/323/323 274/274/274 275/275/275
f 273/273/273 274/274/274 324/324/324
f 323/323/323 324/324/324 274/274/274
f 325/325/325 273/273/273 324/324/324
f 323/323/323 275/275/275 276/276/276
f 272/272/272 325/325/325 326/326/326
f 270/270/270 328/328/328 329/329/329
f 271/271/271 327/327/327 328/328/328
f 272/272/272 326/326/326 327/327/327
f 271/271/271 328/328/328 270/270/270
f 327/327/327 271/271/271 272/272/272
f 268/268/268 269/269/269 330/330/330
f 329/329/329 269/269/269 270/270/270
f 331/331/331 268/268/268 330/330/330
f 330/330/330 269/269/269 329/329/329
f 273/273/273 325/325/325 272/272/272
f 289/289/289 308/308/308 309/309/309
f 310/310/310 289/289/289 309/309/309
f 291/291/291 307/307/307 290/290/290
f 308/308/308 289/289/289 290/290/290
f 292/292/292 307/307/307 291/291/291
f 290/290/290 307/307/307 308/308/308
f 306/306/306 293/293/293 305/305/305
f 305/305/305 294/294/294 304/304/304
f 306/306/306 307/307/307 292/292/292
f 292/292/292 293/293/293 306/306/306
f 293/293/293 294/294/294 305/305/305
f 304/304/304 294/294/294 295/295/295
f 303/303/303 295/295/295 296/296/296
f 295/295/295 303/303/303 304/304/304
f 302/302/302 303/303/303 296/296/296
f 297/297/297 301/301/301 302/302/302
f 298/298/298 300/300/300 301/301/301
f 257/257/257 299/299/299 300/300/300
f 297/297/297 298/298/298 301/301/301
f 298/298/298 257/257/257 300/300/300
f 297/297/297 302/302/302 296/296/296
f 265/265/265 332/332/332 333/333/333
f 263/263/263 264/264/264 335/335/335
f 264/264/264 334/334/334 335/335/335
f 265/265/265 333/333/333 334/334/334
f 268/268/268 331/331/331 267/267/267
f 266/266/266 267/267/267 331/331/331
f 331/331/331 332/332/332 266/266/266
f 266/266/266 332/332/332 265/265/265
f 265/265/265 334/334/334 264/264/264
f 262/262/262 335/335/335 336/336/336
f 259/259/259 339/339/339 340/340/340
f 259/259/259 340/340/340 258/258/258
f 258/258/258 340/340/340 299/299/299
f 258/258/258 299/299/299 257/257/257
f 260/260/260 339/339/339 259/259/259
f 262/262/262 263/263/263 335/335/335
f 261/261/261 336/336/336 337/337/337
f 338/338/338 261/261/261 337/337/337
f 336/336/336 261/261/261 262/262/262
f 260/260/260 261/261/261 338/338/338
f 260/260/260 338/338/338 339/339/339
usemtl 
v -12.908326148986816 0 1.8175686597824097
v -12.908326148986816 1.3183870315551758 1.8175686597824097
v 12.871236801147461 0 1.8175686597824097
v 12.871236801147461 1.3183870315551758 1.8175686597824097
v 12.871236801147461 0 1.8175686597824097
v 12.871236801147461 1.3183870315551758 1.8175686597824097
v 12.871236801147461 0 -1.8582479953765869
v 12.871236801147461 1.3183870315551758 -1.8582479953765869
v 12.871236801147461 0 -1.8582479953765869
v 12.871236801147461 1.3183870315551758 -1.8582479953765869
v -12.908326148986816 0 -1.8582479953765869
v -12.908326148986816 1.3183870315551758 -1.8582479953765869
v -12.908326148986816 0 -1.8582479953765869
v -12.908326148986816 1.3183870315551758 -1.8582479953765869
v -12.908326148986816 0 1.8175686597824097
v -12.908326148986816 1.3183870315551758 1.8175686597824097
v -12.908326148986816 0 1.8175686597824097
v 12.871236801147461 0 1.8175686597824097
v 12.871236801147461 0 -1.8582479953765869
v -12.908326148986816 0 -1.8582479953765869
v -12.908326148986816 1.3183870315551758 1.8175686597824097
v 12.871236801147461 1.3183870315551758 1.8175686597824097
v 12.871236801147461 1.3183870315551758 -1.8582479953765869
v -12.908326148986816 1.3183870315551758 -1.8582479953765869
vt 0 0
vt 0 0.57603102922439575
vt 0.45558738708496094 0
vt 0.45558738708496094 0.57603102922439575
vt 0.45558738708496094 0
vt 0.45558738708496094 0.57603102922439575
vt 0.5 0
vt 0.5 0.57603102922439575
vt 0.5 0
vt 0.5 0.57603102922439575
vt 0.95558738708496094 0
vt 0.95558738708496094 0.57603102922439575
vt 0.95558738708496094 0
vt 0.95558738708496094 0.57603102922439575
vt 1 0
vt 1 0.57603102922439575
vt 0 1
vt 0.4376036524772644 1
vt 0.4376036524772644 0.57603162527084351
vt 0 0.57603162527084351
vt 0.5623963475227356 0.57603162527084351
vt 1 0.57603162527084351
vt 1 1
vt 0.5623963475227356 1
vn 0 0 1
vn 0 0 1
vn 0 0 1
vn 0 0 1
vn 1 0 0
vn 1 0 0
vn 1 0 0
vn 1 0 0
vn 0 0 -1
vn 0 0 -1
vn 0 0 -1
vn 0 0 -1
vn -1 0 0
vn -1 0 0
vn -1 0 0
vn -1 0 0
vn 0 -1 0
vn 0 -1 0
vn 0 -1 0
vn 0 -1 0
vn 0 1 0
vn 0 1 0
vn 0 1 0
vn 0 1 0
f 358/358/358 357/357/357 360/360/360 359/359/359
f 364/364/364 361/361/361 362/362/362 363/363/363
f 341/341/341 343/343/343 344/344/344 342/342/342
f 345/345/345 347/347/347 348/348/348 346/346/346
f 349/349/349 351/351/351 352/352/352 350/350/350
f 353/353/353 355/355/355 356/356/356 354/354/354
