%YAML 1.1
%TAG !u! tag:unity3d.com,2011:
--- !u!114 &11400000
MonoBehaviour:
  m_ObjectHideFlags: 0
  m_CorrespondingSourceObject: {fileID: 0}
  m_PrefabInstance: {fileID: 0}
  m_PrefabAsset: {fileID: 0}
  m_GameObject: {fileID: 0}
  m_Enabled: 1
  m_EditorHideFlags: 0
  m_Script: {fileID: 11500000, guid: 872945e6e916f624bb9026419cb119c4, type: 3}
  m_Name: 1b2p_Mansion
  m_EditorClassIdentifier: 
  buildingType: 2
  m3: 0
  aptType: 1b2p
  roomInclusion: 00010000010000010000000101000000000000000000000000
  roomNames:
  - PSB
  - DB
  - DBB
  - PB
  - BA
  - BAA
  - BAAA
  - HW
  - HWW
  - HWWW
  - HWWWW
  - ST
  - LR
  - STT
  - LRR
  - STTT
  - LRRR
  - BAAAA
  - STTTT
  - STTA
  - LRRRR
  - ALR
  - ALRR
  - ALRRR
  - ALRRRR
  roomColors:
  - {r: 0.7137255, g: 0.427451, b: 1, a: 1}
  - {r: 0.7137255, g: 0.427451, b: 1, a: 1}
  - {r: 0.7137255, g: 0.427451, b: 1, a: 1}
  - {r: 0.7137255, g: 0.427451, b: 1, a: 1}
  - {r: 0, g: 0.57254905, b: 0.57254905, a: 1}
  - {r: 0, g: 0.57254905, b: 0.57254905, a: 1}
  - {r: 0, g: 0.57254905, b: 0.57254905, a: 1}
  - {r: 0.6784314, g: 0.6784314, b: 0.6784314, a: 1}
  - {r: 0.6784314, g: 0.6784314, b: 0.6784314, a: 1}
  - {r: 0.6784314, g: 0.6784314, b: 0.6784314, a: 1}
  - {r: 0.6784314, g: 0.6784314, b: 0.6784314, a: 1}
  - {r: 0.023529414, g: 0.27450982, b: 0.31764707, a: 1}
  - {r: 0.9960785, g: 0.427451, b: 0.7137255, a: 1}
  - {r: 0.023529414, g: 0.27450982, b: 0.31764707, a: 1}
  - {r: 0.9960785, g: 0.427451, b: 0.7137255, a: 1}
  - {r: 0.023529414, g: 0.27450982, b: 0.31764707, a: 1}
  - {r: 0.9960785, g: 0.427451, b: 0.7137255, a: 1}
  - {r: 0, g: 0.5686275, b: 0.5686275, a: 1}
  - {r: 0.023529414, g: 0.27450982, b: 0.31764707, a: 1}
  - {r: 0.023529414, g: 0.27450982, b: 0.31764707, a: 1}
  - {r: 0.9960785, g: 0.427451, b: 0.7137255, a: 1}
  - {r: 0.68235296, g: 0.68235296, b: 0.68235296, a: 1}
  - {r: 0.68235296, g: 0.68235296, b: 0.68235296, a: 1}
  - {r: 0.68235296, g: 0.68235296, b: 0.68235296, a: 1}
  - {r: 0.68235296, g: 0.68235296, b: 0.68235296, a: 1}
  types:
  - Single Bedroom
  - Double Bedroom
  - Double Bedroom
  - Principal Bedroom
  - Bathroom
  - Bathroom
  - Bathroom
  - Hall
  - Hall
  - Hall
  - Hall
  - Storage
  - Living Room
  - Storage
  - Living Room
  - Storage
  - Living Room
  - Bathroom
  - Storage
  - Storage
  - Living Room
  - Amenity Space for Living Room
  - Amenity Space for Living Room
  - Amenity Space for Living Room
  - Amenity Space for Living Room
  roomData: {fileID: 4900000, guid: 676870d721ed017458357faa87e59f2d, type: 3}
