%YAML 1.1
%TAG !u! tag:unity3d.com,2011:
--- !u!114 &11400000
MonoBehaviour:
  m_ObjectHideFlags: 0
  m_CorrespondingSourceObject: {fileID: 0}
  m_PrefabInstance: {fileID: 0}
  m_PrefabAsset: {fileID: 0}
  m_GameObject: {fileID: 0}
  m_Enabled: 1
  m_EditorHideFlags: 0
  m_Script: {fileID: 11500000, guid: 872945e6e916f624bb9026419cb119c4, type: 3}
  m_Name: 2b3p_Mansion_M3
  m_EditorClassIdentifier: 
  buildingType: 2
  m3: 1
  aptType: 2b3p
  roomInclusion: 0101000100000100000000000100000100000001000000000000
  roomNames:
  - PSB
  - DB
  - PB
  - BA
  - BAA
  - HW
  - HWW
  - HWWW
  - HWWWW
  - BAAA
  - BAAAA
  - TS
  - TSS
  - TSSS
  - TSSSS
  - ST
  - STT
  - STTT
  - LR
  - LRR
  - LRRR
  - LRRRR
  - ALR
  - ALRR
  - ALRRR
  - ALRRRR
  roomColors:
  - {r: 0.70980394, g: 0.427451, b: 1, a: 1}
  - {r: 0.70980394, g: 0.427451, b: 1, a: 1}
  - {r: 0.70980394, g: 0.427451, b: 1, a: 1}
  - {r: 0, g: 0.57254905, b: 0.57254905, a: 1}
  - {r: 0, g: 0.57254905, b: 0.57254905, a: 1}
  - {r: 0.6784314, g: 0.6784314, b: 0.6784314, a: 1}
  - {r: 0.6784314, g: 0.6784314, b: 0.6784314, a: 1}
  - {r: 0.6784314, g: 0.6784314, b: 0.6784314, a: 1}
  - {r: 0.6784314, g: 0.6784314, b: 0.6784314, a: 1}
  - {r: 0, g: 0.57254905, b: 0.57254905, a: 1}
  - {r: 0, g: 0.57254905, b: 0.57254905, a: 1}
  - {r: 0.7137255, g: 0.8588236, b: 0.9960785, a: 1}
  - {r: 0.7137255, g: 0.8588236, b: 0.9960785, a: 1}
  - {r: 0.7137255, g: 0.8588236, b: 0.9960785, a: 1}
  - {r: 0.7137255, g: 0.8588236, b: 0.9960785, a: 1}
  - {r: 0.027450982, g: 0.2784314, b: 0.3137255, a: 1}
  - {r: 0.027450982, g: 0.2784314, b: 0.3137255, a: 1}
  - {r: 0.027450982, g: 0.2784314, b: 0.3137255, a: 1}
  - {r: 0.9960785, g: 0.427451, b: 0.7137255, a: 1}
  - {r: 0.9960785, g: 0.427451, b: 0.7137255, a: 1}
  - {r: 0.9960785, g: 0.427451, b: 0.7137255, a: 1}
  - {r: 0.9960785, g: 0.427451, b: 0.7137255, a: 1}
  - {r: 0.68235296, g: 0.68235296, b: 0.68235296, a: 1}
  - {r: 0.68235296, g: 0.68235296, b: 0.68235296, a: 1}
  - {r: 0.68235296, g: 0.68235296, b: 0.68235296, a: 1}
  - {r: 0.68235296, g: 0.68235296, b: 0.68235296, a: 1}
  types:
  - Single Bedroom
  - Double Bedroom
  - Principal Bedroom
  - Bathroom
  - Bathroom
  - Hallway
  - Hallway
  - Hallway
  - Hallway
  - Bathroom
  - Bathroom
  - Storage
  - Storage
  - Storage
  - Storage
  - Storage
  - Storage
  - Storage
  - Living Room
  - Living Room
  - Living Room
  - Living Room
  - Amenity Space for Living Room
  - Amenity Space for Living Room
  - Amenity Space for Living Room
  - Amenity Space for Living Room
  roomData: {fileID: 4900000, guid: 1f933b5240265fd40bab4bb871f14276, type: 3}
