%YAML 1.1
%TAG !u! tag:unity3d.com,2011:
--- !u!114 &11400000
MonoBehaviour:
  m_ObjectHideFlags: 0
  m_CorrespondingSourceObject: {fileID: 0}
  m_PrefabInstance: {fileID: 0}
  m_PrefabAsset: {fileID: 0}
  m_GameObject: {fileID: 0}
  m_Enabled: 1
  m_EditorHideFlags: 0
  m_Script: {fileID: 11500000, guid: 872945e6e916f624bb9026419cb119c4, type: 3}
  m_Name: 2b3p_Linear
  m_EditorClassIdentifier: 
  buildingType: 0
  aptType: 2b3p
  roomInclusion: 010100000101010000000000000000000000010000000000
  roomNames:
  - BA
  - DB
  - PB
  - PBB
  - DBB
  - HW
  - ST
  - STT
  - HWW
  - BAA
  - WC
  - WCC
  - PSB
  - ADB
  - ADBB
  - APB
  - APBB
  - APSB
  - LR
  - LRR
  - ALR
  - ALRR
  - AILR
  - AILRR
  roomColors:
  - {r: 0, g: 0.57254905, b: 0.57254905, a: 1}
  - {r: 0.7137255, g: 0.427451, b: 1, a: 1}
  - {r: 0.7137255, g: 0.427451, b: 1, a: 1}
  - {r: 0.7137255, g: 0.427451, b: 1, a: 1}
  - {r: 0.7137255, g: 0.427451, b: 1, a: 1}
  - {r: 0.6784314, g: 0.6784314, b: 0.6784314, a: 1}
  - {r: 0.027450982, g: 0.2784314, b: 0.31764707, a: 1}
  - {r: 0.027450982, g: 0.2784314, b: 0.31764707, a: 1}
  - {r: 0.6784314, g: 0.6784314, b: 0.6784314, a: 1}
  - {r: 0, g: 0.5686275, b: 0.5686275, a: 1}
  - {r: 0, g: 0.5686275, b: 0.5686275, a: 1}
  - {r: 0, g: 0.5686275, b: 0.5686275, a: 1}
  - {r: 0.7137255, g: 0.427451, b: 1, a: 1}
  - {r: 0.68235296, g: 0.68235296, b: 0.68235296, a: 1}
  - {r: 0.68235296, g: 0.68235296, b: 0.68235296, a: 1}
  - {r: 0.68235296, g: 0.68235296, b: 0.68235296, a: 1}
  - {r: 0.68235296, g: 0.68235296, b: 0.68235296, a: 1}
  - {r: 0.68235296, g: 0.68235296, b: 0.68235296, a: 1}
  - {r: 0.9960785, g: 0.427451, b: 0.7137255, a: 1}
  - {r: 0.9960785, g: 0.427451, b: 0.7137255, a: 1}
  - {r: 0.68235296, g: 0.68235296, b: 0.68235296, a: 1}
  - {r: 0.68235296, g: 0.68235296, b: 0.68235296, a: 1}
  - {r: 0.68235296, g: 0.68235296, b: 0.68235296, a: 1}
  - {r: 0.68235296, g: 0.68235296, b: 0.68235296, a: 1}
  types:
  - Bathroom
  - Bathroom 2
  - Double Bedroom
  - Principal Bedroom
  - Principal Bedroom 2
  - Double Bedroom 2
  - Hallway (only for double bedrooms)
  - Hallway 2 ( only for principal bedrooms)
  - Storage (only for double bedrooms)
  - Storage 2 (only for  principal bedrooms)
  - WC (only for double bedrooms)
  - WC 2 (only for  principal bedrooms)
  - Single Bedroom ( only for  principal bedrooms)
  - Amenity Space of Double Bedroom
  - Amenity Space of Double Bedroom 2
  - Amenity Space of Principal Bedroom
  - Amenity Space of Principal Bedroom 2
  - Amenity Space of Single Bedroom ( only for  principal bedrooms)
  - Interior Amenity Space for Living Room (only for double bedrooms)
  - Interior Amenity Space for Living Room (only for Principal bedrooms)
  - Living Room (only for double bedrooms)
  - Living Room (only for principal bedrooms)
  - Amenity Space for Living Room (only for double bedrooms)
  - Amenity Space for Living Room (only for Principal bedrooms)
  roomData: {fileID: 4900000, guid: e4c56832758d8644f838834adc904d8b, type: 3}
