%YAML 1.1
%TAG !u! tag:unity3d.com,2011:
--- !u!114 &11400000
MonoBehaviour:
  m_ObjectHideFlags: 0
  m_CorrespondingSourceObject: {fileID: 0}
  m_PrefabInstance: {fileID: 0}
  m_PrefabAsset: {fileID: 0}
  m_GameObject: {fileID: 0}
  m_Enabled: 1
  m_EditorHideFlags: 0
  m_Script: {fileID: 11500000, guid: 872945e6e916f624bb9026419cb119c4, type: 3}
  m_Name: 3b5p_Linear_M3
  m_EditorClassIdentifier: 
  buildingType: 0
  m3: 1
  aptType: 3b5p
  roomInclusion: 010001010000010101010001010000000000000100000000000000000000000000000000
  roomNames:
  - BA
  - DB
  - PB
  - PBB
  - DBB
  - HW
  - ST
  - STT
  - HWW
  - BAA
  - WC
  - WCC
  - PSB
  - ADB
  - ADBB
  - APB
  - APBB
  - APSB
  - LR
  - LRR
  - ALR
  - ALRR
  - AILR
  - AILRR
  - DBBB
  - HWWW
  - HWWWW
  - SB
  - STTT
  - LRRR
  - STTTT
  - LRRRR
  - ALRRR
  - ALRRRR
  - AILRRR
  - AILRRRR
  roomColors:
  - {r: 0, g: 0.5686275, b: 0.5686275, a: 1}
  - {r: 0.70980394, g: 0.42352945, b: 1, a: 1}
  - {r: 0.70980394, g: 0.42352945, b: 1, a: 1}
  - {r: 0.70980394, g: 0.42352945, b: 1, a: 1}
  - {r: 0.70980394, g: 0.42352945, b: 1, a: 1}
  - {r: 0.68235296, g: 0.68235296, b: 0.68235296, a: 1}
  - {r: 0.027450982, g: 0.2784314, b: 0.31764707, a: 1}
  - {r: 0.027450982, g: 0.2784314, b: 0.31764707, a: 1}
  - {r: 0.59607846, g: 0.59607846, b: 0.59607846, a: 1}
  - {r: 0, g: 0.5686275, b: 0.5686275, a: 1}
  - {r: 0, g: 0.5686275, b: 0.5686275, a: 1}
  - {r: 0, g: 0.5686275, b: 0.5686275, a: 1}
  - {r: 0.70980394, g: 0.42352945, b: 1, a: 1}
  - {r: 0.70980394, g: 0.42352945, b: 1, a: 1}
  - {r: 0.70980394, g: 0.42352945, b: 1, a: 1}
  - {r: 0.70980394, g: 0.42352945, b: 1, a: 1}
  - {r: 0.70980394, g: 0.42352945, b: 1, a: 1}
  - {r: 0.70980394, g: 0.42352945, b: 1, a: 1}
  - {r: 1, g: 0.427451, b: 0.7137255, a: 1}
  - {r: 1, g: 0.427451, b: 0.7137255, a: 1}
  - {r: 0.68235296, g: 0.68235296, b: 0.68235296, a: 1}
  - {r: 0.68235296, g: 0.68235296, b: 0.68235296, a: 1}
  - {r: 0.68235296, g: 0.68235296, b: 0.68235296, a: 1}
  - {r: 0.68235296, g: 0.68235296, b: 0.68235296, a: 1}
  - {r: 0.70980394, g: 0.42352945, b: 1, a: 1}
  - {r: 0.59607846, g: 0.59607846, b: 0.59607846, a: 1}
  - {r: 0.59607846, g: 0.59607846, b: 0.59607846, a: 1}
  - {r: 0.70980394, g: 0.42352945, b: 1, a: 1}
  - {r: 0.027450982, g: 0.2784314, b: 0.31764707, a: 1}
  - {r: 1, g: 0.427451, b: 0.7137255, a: 1}
  - {r: 0.027450982, g: 0.2784314, b: 0.31764707, a: 1}
  - {r: 1, g: 0.427451, b: 0.7137255, a: 1}
  - {r: 0.68235296, g: 0.68235296, b: 0.68235296, a: 1}
  - {r: 0.68235296, g: 0.68235296, b: 0.68235296, a: 1}
  - {r: 0.68235296, g: 0.68235296, b: 0.68235296, a: 1}
  - {r: 0.68235296, g: 0.68235296, b: 0.68235296, a: 1}
  types:
  - Bathroom
  - Double Bedroom
  - Principal Bedroom
  - Principal Bedroom
  - Double Bedroom
  - Hallway
  - Storage
  - Storage
  - Hallway
  - Bathroom
  - WC
  - WC
  - Single Bedroom
  - Double Bedroom
  - Double Bedroom
  - Principal Bedroom
  - Principal Bedroom
  - Single Bedroom
  - Living Room
  - Living Room
  - Amenity Space for Living Room
  - Amenity Space for Living Room
  - Interior Amenity Space for Living Room
  - Interior Amenity Space for Living Room
  - Double Bedroom
  - Hallway
  - Hallway
  - Single Bedroom
  - Storage
  - Living Room
  - Strorage
  - Living Room
  - Amenity Space for Living Room
  - Amenity Space for Living Room
  - Interior Amenity Space for Living Room
  - Interior Amenity Space for Living Room
  roomData: {fileID: 4900000, guid: d39e12da7c90b554d823d117b4fdb927, type: 3}
