MouseAt;1519,728
MouseClick;
MouseLerp;1519,728;666,1360
MouseClick;
MouseLerp;666,1360;721,1353
MouseClick;
MouseLerp;721,1353;2764,700
MouseClick;
MouseLerp;2764,700;2735,885
MouseClick;
MouseLerp;2735,885;2718,1122
MouseClick;
MouseLerp;2718,1122;2681,1190
MouseClick;
MouseLerp;2681,1190;824,1368
MouseClick;
MouseLerp;824,1368;2650,311
MouseClick;
