%YAML 1.1
%TAG !u! tag:unity3d.com,2011:
--- !u!1045 &1
EditorBuildSettings:
  m_ObjectHideFlags: 0
  serializedVersion: 2
  m_Scenes:
  - enabled: 0
    path: Assets/Scenes/GLA_WebConfigurator_200303.unity
    guid: d4a18e9197384ac4ba03ddac95c8700d
  - enabled: 0
    path: Assets/Scenes/GLA_WebConfigurator_worldwide.unity
    guid: 345505d090b9a684c887c383283b70d2
  - enabled: 1
    path: Assets/Scenes/GLA_WebConfigurator_Stages.unity
    guid: 05e940d7efc35c041a1b764ca5a07c39
  m_configObjects: {}
