{
  "geometryState": {
    "states": [
      {
        "buildingIndex": 0,
        "floorIndex": 0,
        "centreLine": [
          -185.160843,
          5.5,
          45.13398,
          -137.769028,
          5.5,
          51.7231522,
          -107.641312,
          5.5,
          117.956268
        ],
        "closed": false,
        "isCopy": false,
        "isCustom": false,
        "isBasement": false,
        "isPodium": false,
        "depth": -1.0,
        "leftAptDepth": 7.2,
        "rightAptDepth": 7.2,
        "footPrintOffset": 0.0,
        "apartmentStates": [
          {
            "name": "Apartment_0_3b5p",
            "type": "3b5p",
            "id": 0,
            "isCorner": false,
            "isExterior": true,
            "width": 15.74,
            "depth": 7.45,
            "vertices": [
              -169.680969,
              5.5,
              48.0939369,
              -170.706924,
              5.5,
              55.4729576,
              -186.296967,
              5.5,
              53.305378,
              -185.271011,
              5.5,
              45.9263573
            ],
            "triangles": [
              0,
              2,
              1,
              0,
              3,
              2
            ],
            "corridorIndex": 0,
            "hasCorridor": false,
            "flipped": false,
            "isM3": false
          },
          {
            "name": "Apartment_2_2b4p",
            "type": "2b4p",
            "id": 2,
            "isCorner": false,
            "isExterior": true,
            "width": 15.75,
            "depth": 7.45,
            "vertices": [
              -108.367645,
              5.5,
              118.291611,
              -115.149033,
              5.5,
              121.376282,
              -121.670334,
              5.5,
              107.039795,
              -114.888947,
              5.5,
              103.955116
            ],
            "triangles": [
              0,
              2,
              1,
              0,
              3,
              2
            ],
            "corridorIndex": 1,
            "hasCorridor": false,
            "flipped": true,
            "isM3": false
          },
          {
            "name": "Apartment_4_2b4p",
            "type": "2b4p",
            "id": 4,
            "isCorner": false,
            "isExterior": true,
            "width": 10.02,
            "depth": 7.45,
            "vertices": [
              -159.752045,
              5.5,
              49.4744148,
              -160.778,
              5.5,
              56.8534355,
              -170.70253,
              5.5,
              55.473568,
              -169.676575,
              5.5,
              48.0945473
            ],
            "triangles": [
              0,
              2,
              1,
              0,
              3,
              2
            ],
            "corridorIndex": 2,
            "hasCorridor": false,
            "flipped": false,
            "isM3": false
          },
          {
            "name": "Apartment_5_2b4p",
            "type": "2b4p",
            "id": 5,
            "isCorner": false,
            "isExterior": true,
            "width": 10.02,
            "depth": 7.45,
            "vertices": [
              -142.369263,
              5.5,
              51.89125,
              -143.395218,
              5.5,
              59.27027,
              -153.319748,
              5.5,
              57.8904037,
              -152.2938,
              5.5,
              50.5113831
            ],
            "triangles": [
              0,
              2,
              1,
              0,
              3,
              2
            ],
            "corridorIndex": 2,
            "hasCorridor": false,
            "flipped": false,
            "isM3": false
          },
          {
            "name": "Apartment_6_1b2p",
            "type": "1b2p",
            "id": 6,
            "isCorner": false,
            "isExterior": true,
            "width": 7.53,
            "depth": 7.45,
            "vertices": [
              -152.2938,
              5.5,
              50.5113831,
              -153.319733,
              5.5,
              57.8904037,
              -160.777985,
              5.5,
              56.8534355,
              -159.752045,
              5.5,
              49.4744148
            ],
            "triangles": [
              0,
              2,
              1,
              0,
              3,
              2
            ],
            "corridorIndex": 2,
            "hasCorridor": false,
            "flipped": false,
            "isM3": false
          },
          {
            "name": "Apartment_7_2b4p",
            "type": "2b4p",
            "id": 7,
            "isCorner": false,
            "isExterior": true,
            "width": 11.13,
            "depth": 7.45,
            "vertices": [
              -128.730057,
              5.5,
              73.52666,
              -135.511459,
              5.5,
              76.61134,
              -140.120667,
              5.5,
              66.47839,
              -133.339264,
              5.5,
              63.3937073
            ],
            "triangles": [
              0,
              2,
              1,
              0,
              3,
              2
            ],
            "corridorIndex": 3,
            "hasCorridor": false,
            "flipped": false,
            "isM3": false
          },
          {
            "name": "Apartment_8_1b2p",
            "type": "1b2p",
            "id": 8,
            "isCorner": false,
            "isExterior": true,
            "width": 8.35,
            "depth": 7.45,
            "vertices": [
              -125.271904,
              5.5,
              81.1291,
              -132.053314,
              5.5,
              84.21378,
              -135.511459,
              5.5,
              76.61134,
              -128.730057,
              5.5,
              73.52666
            ],
            "triangles": [
              0,
              2,
              1,
              0,
              3,
              2
            ],
            "corridorIndex": 3,
            "hasCorridor": false,
            "flipped": false,
            "isM3": false
          },
          {
            "name": "Apartment_9_1b2p",
            "type": "1b2p",
            "id": 9,
            "isCorner": false,
            "isExterior": true,
            "width": 8.35,
            "depth": 7.45,
            "vertices": [
              -121.813751,
              5.5,
              88.73154,
              -128.595154,
              5.5,
              91.8162155,
              -132.0533,
              5.5,
              84.2137756,
              -125.271904,
              5.5,
              81.1291
            ],
            "triangles": [
              0,
              2,
              1,
              0,
              3,
              2
            ],
            "corridorIndex": 3,
            "hasCorridor": false,
            "flipped": false,
            "isM3": false
          },
          {
            "name": "Apartment_10_1b2p",
            "type": "1b2p",
            "id": 10,
            "isCorner": false,
            "isExterior": true,
            "width": 8.35,
            "depth": 7.45,
            "vertices": [
              -118.3556,
              5.5,
              96.33398,
              -125.136986,
              5.5,
              99.4186554,
              -128.595139,
              5.5,
              91.8162155,
              -121.813751,
              5.5,
              88.73154
            ],
            "triangles": [
              0,
              2,
              1,
              0,
              3,
              2
            ],
            "corridorIndex": 3,
            "hasCorridor": false,
            "flipped": false,
            "isM3": false
          },
          {
            "name": "Apartment_11_1b2p",
            "type": "1b2p",
            "id": 11,
            "isCorner": false,
            "isExterior": true,
            "width": 8.35,
            "depth": 7.45,
            "vertices": [
              -114.897446,
              5.5,
              103.936417,
              -121.678833,
              5.5,
              107.0211,
              -125.136986,
              5.5,
              99.41866,
              -118.3556,
              5.5,
              96.33398
            ],
            "triangles": [
              0,
              2,
              1,
              0,
              3,
              2
            ],
            "corridorIndex": 3,
            "hasCorridor": false,
            "flipped": false,
            "isM3": false
          },
          {
            "name": "Apartment_13_2b4p",
            "type": "2b4p",
            "id": 13,
            "isCorner": false,
            "isExterior": false,
            "width": 14.63,
            "depth": 7.45,
            "vertices": [
              -133.33905,
              5.5,
              63.394165,
              -140.120438,
              5.5,
              66.47884,
              -143.399734,
              5.5,
              59.2696381,
              -142.373779,
              5.5,
              51.89062,
              -138.315033,
              5.5,
              52.4549332
            ],
            "triangles": [
              1,
              0,
              4,
              2,
              1,
              4,
              3,
              2,
              4
            ],
            "corridorIndex": 4,
            "hasCorridor": false,
            "flipped": false,
            "isM3": true
          },
          {
            "name": "Apartment_19_3b5p",
            "type": "3b5p",
            "id": 19,
            "isCorner": false,
            "isExterior": true,
            "width": 12.24,
            "depth": 7.45,
            "vertices": [
              -185.050674,
              5.5,
              44.3416023,
              -184.024719,
              5.5,
              36.96257,
              -171.901337,
              5.5,
              38.64817,
              -172.927292,
              5.5,
              46.02719
            ],
            "triangles": [
              0,
              2,
              1,
              0,
              3,
              2
            ],
            "corridorIndex": 0,
            "hasCorridor": false,
            "flipped": false,
            "isM3": false
          },
          {
            "name": "Apartment_20_2b4p",
            "type": "2b4p",
            "id": 20,
            "isCorner": false,
            "isExterior": true,
            "width": 12.25,
            "depth": 7.45,
            "vertices": [
              -111.983376,
              5.5,
              106.4785,
              -105.201973,
              5.5,
              103.393829,
              -100.129837,
              5.5,
              114.544464,
              -106.91124,
              5.5,
              117.629135
            ],
            "triangles": [
              0,
              2,
              1,
              0,
              3,
              2
            ],
            "corridorIndex": 1,
            "hasCorridor": false,
            "flipped": false,
            "isM3": false
          },
          {
            "name": "Apartment_22_2b4p",
            "type": "2b4p",
            "id": 22,
            "isCorner": false,
            "isExterior": true,
            "width": 10.02,
            "depth": 7.45,
            "vertices": [
              -165.989578,
              5.5,
              46.9917831,
              -164.963623,
              5.5,
              39.61275,
              -155.0391,
              5.5,
              40.99263,
              -156.065048,
              5.5,
              48.37165
            ],
            "triangles": [
              0,
              2,
              1,
              0,
              3,
              2
            ],
            "corridorIndex": 2,
            "hasCorridor": false,
            "flipped": false,
            "isM3": false
          },
          {
            "name": "Apartment_23_2b4p",
            "type": "2b4p",
            "id": 23,
            "isCorner": false,
            "isExterior": true,
            "width": 10.02,
            "depth": 7.45,
            "vertices": [
              -156.065048,
              5.5,
              48.37165,
              -155.0391,
              5.5,
              40.99262,
              -145.114563,
              5.5,
              42.3724976,
              -146.140518,
              5.5,
              49.75152
            ],
            "triangles": [
              0,
              2,
              1,
              0,
              3,
              2
            ],
            "corridorIndex": 2,
            "hasCorridor": false,
            "flipped": false,
            "isM3": false
          },
          {
            "name": "Apartment_24_1b2p",
            "type": "1b2p",
            "id": 24,
            "isCorner": false,
            "isExterior": true,
            "width": 9.0,
            "depth": 7.45,
            "vertices": [
              -146.140518,
              5.5,
              49.75152,
              -145.114563,
              5.5,
              42.3724976,
              -136.200317,
              5.5,
              43.6119,
              -137.226273,
              5.5,
              50.99092
            ],
            "triangles": [
              0,
              2,
              1,
              0,
              3,
              2
            ],
            "corridorIndex": 2,
            "hasCorridor": false,
            "flipped": false,
            "isM3": false
          },
          {
            "name": "Apartment_25_2b4p",
            "type": "2b4p",
            "id": 25,
            "isCorner": false,
            "isExterior": true,
            "width": 11.47,
            "depth": 7.45,
            "vertices": [
              -130.433716,
              5.5,
              65.91709,
              -123.6523,
              5.5,
              62.83239,
              -118.902077,
              5.5,
              73.27533,
              -125.683495,
              5.5,
              76.36001
            ],
            "triangles": [
              0,
              2,
              1,
              0,
              3,
              2
            ],
            "corridorIndex": 3,
            "hasCorridor": false,
            "flipped": false,
            "isM3": false
          },
          {
            "name": "Apartment_26_1b2p",
            "type": "1b2p",
            "id": 26,
            "isCorner": false,
            "isExterior": true,
            "width": 8.69,
            "depth": 7.45,
            "vertices": [
              -125.683495,
              5.5,
              76.36001,
              -118.902092,
              5.5,
              73.27532,
              -115.302956,
              5.5,
              81.1877,
              -122.084358,
              5.5,
              84.2723846
            ],
            "triangles": [
              0,
              2,
              1,
              0,
              3,
              2
            ],
            "corridorIndex": 3,
            "hasCorridor": false,
            "flipped": false,
            "isM3": false
          },
          {
            "name": "Apartment_27_1b2p",
            "type": "1b2p",
            "id": 27,
            "isCorner": false,
            "isExterior": true,
            "width": 8.69,
            "depth": 7.45,
            "vertices": [
              -122.084373,
              5.5,
              84.27237,
              -115.302963,
              5.5,
              81.18767,
              -111.703812,
              5.5,
              89.10008,
              -118.485222,
              5.5,
              92.18476
            ],
            "triangles": [
              0,
              2,
              1,
              0,
              3,
              2
            ],
            "corridorIndex": 3,
            "hasCorridor": false,
            "flipped": false,
            "isM3": false
          },
          {
            "name": "Apartment_28_1b2p",
            "type": "1b2p",
            "id": 28,
            "isCorner": false,
            "isExterior": true,
            "width": 8.69,
            "depth": 7.45,
            "vertices": [
              -118.485237,
              5.5,
              92.18472,
              -111.703827,
              5.5,
              89.10004,
              -108.104675,
              5.5,
              97.01245,
              -114.886086,
              5.5,
              100.097137
            ],
            "triangles": [
              0,
              2,
              1,
              0,
              3,
              2
            ],
            "corridorIndex": 3,
            "hasCorridor": false,
            "flipped": false,
            "isM3": false
          },
          {
            "name": "Apartment_30_2b4p",
            "type": "2b4p",
            "id": 30,
            "isCorner": false,
            "isExterior": true,
            "width": 11.99,
            "depth": 7.45,
            "vertices": [
              -137.223022,
              5.5,
              50.99137,
              -136.197067,
              5.5,
              43.61235,
              -132.138321,
              5.5,
              44.17666,
              -126.549561,
              5.5,
              56.4630775,
              -133.330948,
              5.5,
              59.5477562
            ],
            "triangles": [
              1,
              0,
              4,
              2,
              1,
              4,
              3,
              2,
              4
            ],
            "corridorIndex": 4,
            "hasCorridor": false,
            "flipped": false,
            "isM3": true
          }
        ],
        "minApartmentWidth": 12.2444448,
        "corridorWidth": 1.6,
        "isTower": false,
        "isMansion": false,
        "coreParams": [
          0.1645267,
          0.585601568,
          0.891803443
        ]
      },
      {
        "buildingIndex": 0,
        "floorIndex": 1,
        "centreLine": [
          -137.769028,
          28.4000015,
          51.7231522,
          -107.641312,
          28.4000015,
          117.956268
        ],
        "closed": false,
        "isCopy": false,
        "isCustom": true,
        "isBasement": false,
        "isPodium": false,
        "depth": -1.0,
        "leftAptDepth": 6.0,
        "rightAptDepth": 6.0,
        "footPrintOffset": 0.0,
        "apartmentStates": [
          {
            "name": "Apartment_0_2b4p",
            "type": "2b4p",
            "id": 0,
            "isCorner": false,
            "isExterior": true,
            "width": 12.46,
            "depth": 6.25,
            "vertices": [
              -133.338165,
              28.4000015,
              63.3961563,
              -139.027237,
              28.4000015,
              65.98396,
              -144.18631,
              28.4000015,
              54.6422043,
              -138.497238,
              28.4000015,
              52.0543938
            ],
            "triangles": [
              0,
              2,
              1,
              0,
              3,
              2
            ],
            "corridorIndex": 0,
            "hasCorridor": false,
            "flipped": false,
            "isM3": false
          },
          {
            "name": "Apartment_2_2b4p",
            "type": "2b4p",
            "id": 2,
            "isCorner": false,
            "isExterior": true,
            "width": 15.74,
            "depth": 6.25,
            "vertices": [
              -108.370895,
              28.4000015,
              118.284454,
              -114.059975,
              28.4000015,
              120.872269,
              -120.577141,
              28.4000015,
              106.544876,
              -114.888062,
              28.4000015,
              103.957062
            ],
            "triangles": [
              0,
              2,
              1,
              0,
              3,
              2
            ],
            "corridorIndex": 1,
            "hasCorridor": false,
            "flipped": false,
            "isM3": false
          },
          {
            "name": "Apartment_4_2b4p",
            "type": "2b4p",
            "id": 4,
            "isCorner": false,
            "isExterior": true,
            "width": 14.85,
            "depth": 6.25,
            "vertices": [
              -127.188126,
              28.4000015,
              76.91646,
              -132.8772,
              28.4000015,
              79.50427,
              -139.027237,
              28.4000015,
              65.98397,
              -133.338165,
              28.4000015,
              63.3961563
            ],
            "triangles": [
              0,
              2,
              1,
              0,
              3,
              2
            ],
            "corridorIndex": 2,
            "hasCorridor": false,
            "flipped": false,
            "isM3": false
          },
          {
            "name": "Apartment_5_2b4p",
            "type": "2b4p",
            "id": 5,
            "isCorner": false,
            "isExterior": true,
            "width": 14.85,
            "depth": 6.25,
            "vertices": [
              -121.038086,
              28.4000015,
              90.43676,
              -126.727158,
              28.4000015,
              93.0245743,
              -132.8772,
              28.4000015,
              79.50427,
              -127.188126,
              28.4000015,
              76.91646
            ],
            "triangles": [
              0,
              2,
              1,
              0,
              3,
              2
            ],
            "corridorIndex": 2,
            "hasCorridor": false,
            "flipped": false,
            "isM3": false
          },
          {
            "name": "Apartment_6_2b4p",
            "type": "2b4p",
            "id": 6,
            "isCorner": false,
            "isExterior": true,
            "width": 14.85,
            "depth": 6.25,
            "vertices": [
              -114.888046,
              28.4000015,
              103.957077,
              -120.577133,
              28.4000015,
              106.5449,
              -126.727173,
              28.4000015,
              93.02458,
              -121.038086,
              28.4000015,
              90.43676
            ],
            "triangles": [
              0,
              2,
              1,
              0,
              3,
              2
            ],
            "corridorIndex": 2,
            "hasCorridor": false,
            "flipped": false,
            "isM3": false
          },
          {
            "name": "Apartment_8_2b4p",
            "type": "2b4p",
            "id": 8,
            "isCorner": false,
            "isExterior": true,
            "width": 8.96,
            "depth": 6.25,
            "vertices": [
              -137.040817,
              28.4000015,
              51.3919067,
              -131.351746,
              28.4000015,
              48.80409,
              -127.641846,
              28.4000015,
              56.9599724,
              -133.330917,
              28.4000015,
              59.5477829
            ],
            "triangles": [
              0,
              2,
              1,
              0,
              3,
              2
            ],
            "corridorIndex": 0,
            "hasCorridor": false,
            "flipped": false,
            "isM3": false
          },
          {
            "name": "Apartment_9_2b4p",
            "type": "2b4p",
            "id": 9,
            "isCorner": false,
            "isExterior": true,
            "width": 12.24,
            "depth": 6.25,
            "vertices": [
              -111.98246,
              28.4000015,
              106.480492,
              -106.293388,
              28.4000015,
              103.892685,
              -101.225418,
              28.4000015,
              115.034164,
              -106.91449,
              28.4000015,
              117.621979
            ],
            "triangles": [
              0,
              2,
              1,
              0,
              3,
              2
            ],
            "corridorIndex": 1,
            "hasCorridor": false,
            "flipped": false,
            "isM3": false
          },
          {
            "name": "Apartment_11_2b4p",
            "type": "2b4p",
            "id": 11,
            "isCorner": false,
            "isExterior": true,
            "width": 12.52,
            "depth": 6.25,
            "vertices": [
              -130.432571,
              28.4000015,
              65.91956,
              -124.743492,
              28.4000015,
              63.33175,
              -119.559578,
              28.4000015,
              74.72813,
              -125.248657,
              28.4000015,
              77.31594
            ],
            "triangles": [
              0,
              2,
              1,
              0,
              3,
              2
            ],
            "corridorIndex": 2,
            "hasCorridor": false,
            "flipped": false,
            "isM3": false
          },
          {
            "name": "Apartment_12_2b4p",
            "type": "2b4p",
            "id": 12,
            "isCorner": false,
            "isExterior": true,
            "width": 12.52,
            "depth": 6.25,
            "vertices": [
              -125.248657,
              28.4000015,
              77.31594,
              -119.559578,
              28.4000015,
              74.72813,
              -114.375664,
              28.4000015,
              86.1245041,
              -120.064743,
              28.4000015,
              88.71232
            ],
            "triangles": [
              0,
              2,
              1,
              0,
              3,
              2
            ],
            "corridorIndex": 2,
            "hasCorridor": false,
            "flipped": false,
            "isM3": false
          },
          {
            "name": "Apartment_13_2b4p",
            "type": "2b4p",
            "id": 13,
            "isCorner": false,
            "isExterior": true,
            "width": 12.52,
            "depth": 6.25,
            "vertices": [
              -120.064743,
              28.4000015,
              88.71232,
              -114.375656,
              28.4000015,
              86.1245,
              -109.191742,
              28.4000015,
              97.520874,
              -114.880829,
              28.4000015,
              100.108696
            ],
            "triangles": [
              0,
              2,
              1,
              0,
              3,
              2
            ],
            "corridorIndex": 2,
            "hasCorridor": false,
            "flipped": false,
            "isM3": false
          }
        ],
        "customParams": [
          {
            "Key": 0,
            "Value": 1.0
          },
          {
            "Key": 1,
            "Value": 1.0
          }
        ],
        "minApartmentWidth": 12.2444448,
        "corridorWidth": 1.6,
        "isTower": false,
        "isMansion": false,
        "coreParams": [
          0.171240047,
          0.7836363
        ]
      },
      {
        "buildingIndex": 0,
        "floorIndex": -1,
        "centreLine": [
          -185.160843,
          0.0,
          45.13398,
          -137.769028,
          0.0,
          51.7231522,
          -107.641312,
          0.0,
          117.956268
        ],
        "closed": false,
        "isCopy": true,
        "isCustom": false,
        "isBasement": false,
        "isPodium": true,
        "depth": -1.0,
        "leftAptDepth": 7.2,
        "rightAptDepth": 7.2,
        "footPrintOffset": 3.0,
        "apartmentStates": [],
        "minApartmentWidth": 12.2444448,
        "corridorWidth": 1.2,
        "isTower": false,
        "isMansion": false,
        "coreParams": [
          0.1645267,
          0.585601568,
          0.891803443
        ]
      },
      {
        "buildingIndex": 1,
        "floorIndex": 0,
        "closed": false,
        "isCopy": false,
        "isCustom": false,
        "isBasement": false,
        "isPodium": false,
        "depth": 11.5,
        "leftAptDepth": -1.0,
        "rightAptDepth": -1.0,
        "footPrintOffset": 0.0,
        "apartmentStates": [
          {
            "name": "Apartment_0_1b2p",
            "type": "1b2p",
            "id": 0,
            "isCorner": false,
            "isExterior": true,
            "width": 4.75,
            "depth": 11.8,
            "vertices": [
              -228.784027,
              0.01,
              101.342415,
              -235.4879,
              0.01,
              111.053139,
              -239.396866,
              0.01,
              108.354546,
              -232.693,
              0.01,
              98.64382
            ],
            "triangles": [
              0,
              2,
              1,
              0,
              3,
              2
            ],
            "corridorIndex": -1,
            "hasCorridor": false,
            "flipped": true,
            "isM3": false
          },
          {
            "name": "Apartment_1_1b2p",
            "type": "1b2p",
            "id": 1,
            "isCorner": false,
            "isExterior": true,
            "width": 4.75,
            "depth": 11.8,
            "vertices": [
              -221.007217,
              0.01,
              106.7112,
              -227.71109,
              0.01,
              116.421921,
              -231.620071,
              0.01,
              113.723328,
              -224.9162,
              0.01,
              104.0126
            ],
            "triangles": [
              0,
              2,
              1,
              0,
              3,
              2
            ],
            "corridorIndex": -1,
            "hasCorridor": false,
            "flipped": false,
            "isM3": false
          },
          {
            "name": "Apartment_2_2b4p",
            "type": "2b4p",
            "id": 2,
            "isCorner": false,
            "isExterior": true,
            "width": 6.55,
            "depth": 11.8,
            "vertices": [
              -215.616943,
              0.01,
              110.432419,
              -222.320816,
              0.01,
              120.143135,
              -227.71109,
              0.01,
              116.421921,
              -221.007217,
              0.01,
              106.7112
            ],
            "triangles": [
              0,
              2,
              1,
              0,
              3,
              2
            ],
            "corridorIndex": -1,
            "hasCorridor": false,
            "flipped": true,
            "isM3": false
          },
          {
            "name": "Apartment_3_2b4p",
            "type": "2b4p",
            "id": 3,
            "isCorner": false,
            "isExterior": true,
            "width": 6.55,
            "depth": 11.8,
            "vertices": [
              -206.358841,
              0.01,
              116.823822,
              -213.062714,
              0.01,
              126.534546,
              -218.452988,
              0.01,
              122.813324,
              -211.749115,
              0.01,
              113.1026
            ],
            "triangles": [
              0,
              2,
              1,
              0,
              3,
              2
            ],
            "corridorIndex": -1,
            "hasCorridor": false,
            "flipped": false,
            "isM3": false
          },
          {
            "name": "Apartment_4_2b4p",
            "type": "2b4p",
            "id": 4,
            "isCorner": false,
            "isExterior": true,
            "width": 6.55,
            "depth": 11.8,
            "vertices": [
              -200.968567,
              0.01,
              120.545044,
              -207.67244,
              0.01,
              130.255768,
              -213.062714,
              0.01,
              126.534546,
              -206.358841,
              0.01,
              116.823822
            ],
            "triangles": [
              0,
              2,
              1,
              0,
              3,
              2
            ],
            "corridorIndex": -1,
            "hasCorridor": false,
            "flipped": true,
            "isM3": false
          },
          {
            "name": "Apartment_5_2b4p",
            "type": "2b4p",
            "id": 5,
            "isCorner": false,
            "isExterior": true,
            "width": 6.55,
            "depth": 11.8,
            "vertices": [
              -191.710464,
              0.01,
              126.936447,
              -198.414337,
              0.01,
              136.647171,
              -203.804611,
              0.01,
              132.925949,
              -197.100739,
              0.01,
              123.215225
            ],
            "triangles": [
              0,
              2,
              1,
              0,
              3,
              2
            ],
            "corridorIndex": -1,
            "hasCorridor": false,
            "flipped": false,
            "isM3": false
          },
          {
            "name": "Apartment_6_1b2p",
            "type": "1b2p",
            "id": 6,
            "isCorner": false,
            "isExterior": true,
            "width": 4.75,
            "depth": 11.8,
            "vertices": [
              -187.801483,
              0.01,
              129.63504,
              -194.505371,
              0.01,
              139.345764,
              -198.414337,
              0.01,
              136.647171,
              -191.710464,
              0.01,
              126.936447
            ],
            "triangles": [
              0,
              2,
              1,
              0,
              3,
              2
            ],
            "corridorIndex": -1,
            "hasCorridor": false,
            "flipped": true,
            "isM3": false
          },
          {
            "name": "Apartment_7_1b2p",
            "type": "1b2p",
            "id": 7,
            "isCorner": false,
            "isExterior": true,
            "width": 4.75,
            "depth": 11.8,
            "vertices": [
              -180.024689,
              0.01,
              135.003815,
              -186.728561,
              0.01,
              144.714539,
              -190.637543,
              0.01,
              142.015945,
              -183.933655,
              0.01,
              132.305237
            ],
            "triangles": [
              0,
              2,
              1,
              0,
              3,
              2
            ],
            "corridorIndex": -1,
            "hasCorridor": false,
            "flipped": false,
            "isM3": false
          }
        ],
        "minApartmentWidth": 0.0,
        "corridorWidth": 1.2,
        "isTower": false,
        "isMansion": true,
        "position": [
          -236.245071,
          0.01,
          103.525063
        ],
        "euler": [
          0.0,
          325.380432,
          0.0
        ],
        "mansionBlocks": [
          {
            "aptTypes": [
              "1b2p",
              "1b2p"
            ],
            "isM3": [
              false,
              false
            ],
            "aptDepths": [
              4.5,
              4.5
            ],
            "aptLengths": [
              11.77,
              11.77
            ],
            "firstApartment": "1b2p",
            "secondApartment": "1b2p",
            "MaxAptLength": 11.77,
            "isFirstApartmentM3": false,
            "isSecondApartmentM3": false
          },
          {
            "aptTypes": [
              "2b4p",
              "2b4p"
            ],
            "isM3": [
              false,
              false
            ],
            "aptDepths": [
              6.3,
              6.3
            ],
            "aptLengths": [
              11.77,
              11.77
            ],
            "firstApartment": "2b4p",
            "secondApartment": "2b4p",
            "MaxAptLength": 11.77,
            "isFirstApartmentM3": false,
            "isSecondApartmentM3": false
          },
          {
            "aptTypes": [
              "2b4p",
              "2b4p"
            ],
            "isM3": [
              false,
              false
            ],
            "aptDepths": [
              6.3,
              6.3
            ],
            "aptLengths": [
              11.77,
              11.77
            ],
            "firstApartment": "2b4p",
            "secondApartment": "2b4p",
            "MaxAptLength": 11.77,
            "isFirstApartmentM3": false,
            "isSecondApartmentM3": false
          },
          {
            "aptTypes": [
              "1b2p",
              "1b2p"
            ],
            "isM3": [
              false,
              false
            ],
            "aptDepths": [
              4.5,
              4.5
            ],
            "aptLengths": [
              11.77,
              11.77
            ],
            "firstApartment": "1b2p",
            "secondApartment": "1b2p",
            "MaxAptLength": 11.77,
            "isFirstApartmentM3": false,
            "isSecondApartmentM3": false
          }
        ]
      },
      {
        "buildingIndex": 2,
        "floorIndex": 0,
        "closed": false,
        "isCopy": false,
        "isCustom": false,
        "isBasement": false,
        "isPodium": false,
        "depth": 8.0,
        "leftAptDepth": -1.0,
        "rightAptDepth": -1.0,
        "footPrintOffset": 0.0,
        "apartmentStates": [
          {
            "name": "Apartment_0_3b5p",
            "type": "3b5p",
            "id": 0,
            "isCorner": false,
            "isExterior": true,
            "width": 11.05,
            "depth": 8.25,
            "vertices": [
              -146.7508,
              10.5,
              154.790863,
              -144.492584,
              10.5,
              162.725784,
              -155.120575,
              10.5,
              165.750412,
              -157.378784,
              10.5,
              157.815491
            ],
            "triangles": [
              0,
              2,
              1,
              0,
              3,
              2
            ],
            "corridorIndex": -1,
            "hasCorridor": false,
            "flipped": true,
            "isM3": false
          },
          {
            "name": "Apartment_1_3b5p",
            "type": "3b5p",
            "id": 1,
            "isCorner": false,
            "isExterior": true,
            "width": 11.05,
            "depth": 8.25,
            "vertices": [
              -136.1228,
              10.5,
              151.766235,
              -133.8646,
              10.5,
              159.701157,
              -144.492584,
              10.5,
              162.725784,
              -146.7508,
              10.5,
              154.790863
            ],
            "triangles": [
              0,
              2,
              1,
              0,
              3,
              2
            ],
            "corridorIndex": -1,
            "hasCorridor": false,
            "flipped": false,
            "isM3": false
          },
          {
            "name": "Apartment_2_1b2p",
            "type": "1b2p",
            "id": 2,
            "isCorner": false,
            "isExterior": true,
            "width": 7.5,
            "depth": 8.25,
            "vertices": [
              -144.716019,
              10.5,
              146.413986,
              -136.7811,
              10.5,
              144.155777,
              -134.72818,
              10.5,
              151.369339,
              -142.6631,
              10.5,
              153.627548
            ],
            "triangles": [
              0,
              2,
              1,
              0,
              3,
              2
            ],
            "corridorIndex": -1,
            "hasCorridor": false,
            "flipped": false,
            "isM3": false
          },
          {
            "name": "Apartment_3_2b4p",
            "type": "2b4p",
            "id": 3,
            "isCorner": false,
            "isExterior": true,
            "width": 9.05,
            "depth": 8.25,
            "vertices": [
              -148.803711,
              10.5,
              147.5773,
              -151.06192,
              10.5,
              139.64238,
              -142.357544,
              10.5,
              137.165192,
              -140.099335,
              10.5,
              145.100113
            ],
            "triangles": [
              0,
              2,
              1,
              0,
              3,
              2
            ],
            "corridorIndex": -1,
            "hasCorridor": false,
            "flipped": true,
            "isM3": false
          },
          {
            "name": "Apartment_4_2b4p",
            "type": "2b4p",
            "id": 4,
            "isCorner": false,
            "isExterior": true,
            "width": 9.05,
            "depth": 8.25,
            "vertices": [
              -157.508087,
              10.5,
              150.054489,
              -159.766281,
              10.5,
              142.119568,
              -151.06192,
              10.5,
              139.64238,
              -148.803711,
              10.5,
              147.5773
            ],
            "triangles": [
              0,
              2,
              1,
              0,
              3,
              2
            ],
            "corridorIndex": -1,
            "hasCorridor": false,
            "flipped": false,
            "isM3": false
          },
          {
            "name": "Apartment_5_1b2p",
            "type": "1b2p",
            "id": 5,
            "isCorner": false,
            "isExterior": true,
            "width": 7.5,
            "depth": 8.25,
            "vertices": [
              -150.838486,
              10.5,
              155.954178,
              -158.7734,
              10.5,
              158.212387,
              -160.826324,
              10.5,
              150.998825,
              -152.8914,
              10.5,
              148.740616
            ],
            "triangles": [
              0,
              2,
              1,
              0,
              3,
              2
            ],
            "corridorIndex": -1,
            "hasCorridor": false,
            "flipped": true,
            "isM3": false
          }
        ],
        "minApartmentWidth": 86.3,
        "corridorWidth": 1.6,
        "isTower": true,
        "isMansion": false,
        "position": [
          -147.777252,
          10.5,
          151.184082
        ],
        "euler": [
          0.0,
          15.8858681,
          0.0
        ]
      },
      {
        "buildingIndex": 2,
        "floorIndex": -1,
        "closed": false,
        "isCopy": false,
        "isCustom": false,
        "isBasement": false,
        "isPodium": true,
        "depth": 8.0,
        "leftAptDepth": -1.0,
        "rightAptDepth": -1.0,
        "footPrintOffset": 0.0,
        "apartmentStates": [],
        "minApartmentWidth": 86.3,
        "corridorWidth": 12.0,
        "isTower": true,
        "isMansion": false,
        "position": [
          -147.777252,
          0.0,
          151.184082
        ],
        "euler": [
          0.0,
          15.8858681,
          0.0
        ]
      }
    ]
  },
  "briefState": {
    "buildings": [
      {
        "name": "South Block",
        "levels": [
          [
            0,
            1,
            2,
            3,
            4,
            5,
            6
          ],
          [
            7,
            8
          ]
        ],
        "percentages": [
          {
            "1b2p": 40.0,
            "2b4p": 40.0,
            "3b5p": 20.0
          },
          {
            "2b4p": 100.0
          }
        ],
        "floorHeights": [
          3.2,
          3.2
        ],
        "heightPerLevel": [
          3.2,
          3.2,
          3.2,
          3.2,
          3.2,
          3.2,
          3.7,
          3.2,
          3.2
        ],
        "depth": 11.5,
        "leftDepth": [
          7.2,
          6.0
        ],
        "rightDepth": [
          7.2,
          6.0
        ],
        "coreAllignment": 1,
        "coreLock": 0,
        "linearTypology": 0,
        "buildingType": 0,
        "exteriorBalconies": 0,
        "apartmentDepth": 0.0,
        "corridorWidth": 1.6,
        "aptTypesTower": [],
        "podiumPercentages": {
          "Restaurants / Cafes (A3)": 100.0
        },
        "basementPercentages": {},
        "podiumLevels": [
          0
        ],
        "podiumFloorHeight": 5.0,
        "podiumOffset": 3.0,
        "basementLevels": [],
        "basementFloorHeight": 0.0,
        "basementOffset": 0.0,
        "coreWidth": 4.8,
        "coreLength": 7.0
      },
      {
        "name": "North Block",
        "levels": [
          [
            0,
            1,
            2,
            3,
            4,
            5,
            6
          ]
        ],
        "percentages": [],
        "floorHeights": [
          3.2
        ],
        "heightPerLevel": [],
        "depth": 11.5,
        "leftDepth": [],
        "rightDepth": [],
        "coreAllignment": 0,
        "coreLock": 0,
        "linearTypology": 0,
        "buildingType": 2,
        "exteriorBalconies": 0,
        "apartmentDepth": 11.5,
        "corridorWidth": 0.0,
        "aptTypesTower": [],
        "mansionBlocks": [
          {
            "aptTypes": [
              "1b2p",
              "1b2p"
            ],
            "isM3": [
              false,
              false
            ],
            "aptDepths": [
              4.5,
              4.5
            ],
            "aptLengths": [
              11.77,
              11.77
            ],
            "firstApartment": "1b2p",
            "secondApartment": "1b2p",
            "MaxAptLength": 11.77,
            "isFirstApartmentM3": false,
            "isSecondApartmentM3": false
          },
          {
            "aptTypes": [
              "2b4p",
              "2b4p"
            ],
            "isM3": [
              false,
              false
            ],
            "aptDepths": [
              6.3,
              6.3
            ],
            "aptLengths": [
              11.77,
              11.77
            ],
            "firstApartment": "2b4p",
            "secondApartment": "2b4p",
            "MaxAptLength": 11.77,
            "isFirstApartmentM3": false,
            "isSecondApartmentM3": false
          },
          {
            "aptTypes": [
              "2b4p",
              "2b4p"
            ],
            "isM3": [
              false,
              false
            ],
            "aptDepths": [
              6.3,
              6.3
            ],
            "aptLengths": [
              11.77,
              11.77
            ],
            "firstApartment": "2b4p",
            "secondApartment": "2b4p",
            "MaxAptLength": 11.77,
            "isFirstApartmentM3": false,
            "isSecondApartmentM3": false
          },
          {
            "aptTypes": [
              "1b2p",
              "1b2p"
            ],
            "isM3": [
              false,
              false
            ],
            "aptDepths": [
              4.5,
              4.5
            ],
            "aptLengths": [
              11.77,
              11.77
            ],
            "firstApartment": "1b2p",
            "secondApartment": "1b2p",
            "MaxAptLength": 11.77,
            "isFirstApartmentM3": false,
            "isSecondApartmentM3": false
          }
        ],
        "podiumPercentages": {},
        "basementPercentages": {},
        "podiumLevels": [],
        "podiumFloorHeight": 0.0,
        "podiumOffset": 0.0,
        "basementLevels": [],
        "basementFloorHeight": 0.0,
        "basementOffset": 0.0,
        "coreWidth": 4.7,
        "coreLength": 7.8
      },
      {
        "levels": [
          [
            0,
            1,
            2,
            3,
            4,
            5,
            6,
            7,
            8,
            9,
            10,
            11,
            12,
            13,
            14,
            15,
            16,
            17,
            18,
            19,
            20
          ]
        ],
        "percentages": [
          {
            "3b5p": 0.333333343,
            "1b2p": 0.333333343,
            "2b4p": 0.333333343
          }
        ],
        "floorHeights": [
          3.0
        ],
        "heightPerLevel": [
          3.0,
          3.0,
          3.0,
          3.0,
          3.0,
          3.0,
          3.0,
          3.0,
          3.0,
          3.0,
          3.0,
          3.0,
          3.0,
          3.0,
          3.0,
          3.0,
          3.0,
          3.0,
          3.0,
          3.0,
          3.0
        ],
        "depth": 11.5,
        "leftDepth": [
          -1.0
        ],
        "rightDepth": [
          -1.0
        ],
        "coreAllignment": 0,
        "coreLock": 0,
        "linearTypology": 0,
        "buildingType": 1,
        "exteriorBalconies": 0,
        "apartmentDepth": 8.0,
        "corridorWidth": 1.6,
        "aptTypesTower": [
          [
            "3b5p",
            "3b5p",
            "1b2p",
            "2b4p",
            "2b4p",
            "1b2p"
          ]
        ],
        "podiumPercentages": {
          "Shops (A1)": 100.0
        },
        "basementPercentages": {},
        "podiumLevels": [
          0,
          1
        ],
        "podiumFloorHeight": 5.0,
        "podiumOffset": 0.0,
        "basementLevels": [],
        "basementFloorHeight": 0.0,
        "basementOffset": 0.0,
        "coreWidth": 9.03,
        "coreLength": 7.5
      }
    ]
  },
  "siteState": {
    "latitude": 51.52204,
    "longitude": -0.125683,
    "deletedExisting": true,
    "vertices": [
      -291.7055,
      0.0,
      132.383453,
      -193.424667,
      0.0,
      -0.4156494,
      -57.7536469,
      -1.52587891E-05,
      86.52733,
      -160.858521,
      0.0,
      217.26889
    ]
  },
  "standardsState": {
    "DesiredAreas": {
      "Studio": 37.0,
      "1b2p": 50.0,
      "2b3p": 61.0,
      "2b4p": 70.0,
      "3b5p": 86.0,
      "SpecialApt": 10.0
    },
    "DesiredAreasM3": {
      "Studio": 37.0,
      "1b2p": 59.0,
      "2b3p": 78.0,
      "2b4p": 87.0,
      "3b5p": 105.0,
      "SpecialApt": 10.0
    },
    "ApartmentTypesMinimumSizes": {
      "Studio": 37.0,
      "1b2p": 50.0,
      "2b3p": 61.0,
      "2b4p": 70.0,
      "3b5p": 86.0,
      "SpecialApt": 10.0
    },
    "AmenitiesAreas": {
      "Studio": 0.0,
      "1b2p": 5.0,
      "2b3p": 0.0,
      "2b4p": 7.0,
      "3b5p": 8.0,
      "SpecialApt": 0.0
    },
    "ApartmentTypesMaximumSizes": {
      "Studio": 40.0,
      "1b2p": 50.0,
      "2b3p": 67.0,
      "2b4p": 75.0,
      "3b5p": 88.0,
      "SpecialApt": 10.0
    },
    "ApartmentTypeRooms": {
      "SpecialApt": [],
      "Studio": [
        true,
        false,
        false,
        false,
        false,
        false,
        false,
        false,
        false,
        false,
        false,
        false,
        false,
        false,
        false,
        false,
        false,
        false,
        true,
        false,
        false,
        false,
        false,
        false
      ],
      "1b2p": [
        true,
        true,
        false,
        false,
        false,
        true,
        true,
        false,
        false,
        false,
        false,
        false,
        false,
        false,
        false,
        false,
        false,
        false,
        true,
        false,
        true,
        false,
        false,
        false
      ],
      "2b3p": [
        true,
        true,
        false,
        false,
        true,
        true,
        true,
        false,
        false,
        false,
        false,
        false,
        false,
        false,
        false,
        false,
        false,
        false,
        true,
        false,
        false,
        false,
        false,
        false
      ],
      "2b4p": [
        true,
        false,
        true,
        true,
        false,
        false,
        false,
        true,
        true,
        true,
        false,
        false,
        false,
        false,
        false,
        false,
        false,
        false,
        false,
        true,
        false,
        true,
        false,
        false
      ],
      "3b5p": [
        true,
        false,
        true,
        true,
        false,
        false,
        false,
        true,
        true,
        true,
        false,
        true,
        true,
        false,
        false,
        false,
        false,
        false,
        false,
        true,
        false,
        true,
        false,
        false
      ]
    },
    "ApartmentTypeRoomsM3": {
      "SpecialApt": [],
      "Studio": [
        true,
        false,
        false,
        false,
        false,
        false,
        false,
        false,
        false,
        false,
        false,
        false,
        false,
        false,
        false,
        false,
        false,
        false,
        true,
        false,
        false,
        false,
        false,
        false,
        false,
        false,
        false,
        false,
        false,
        false,
        false,
        false,
        false,
        false,
        false,
        false
      ],
      "1b2p": [
        true,
        false,
        false,
        false,
        false,
        false,
        false,
        false,
        false,
        false,
        false,
        false,
        false,
        false,
        false,
        false,
        false,
        false,
        false,
        false,
        false,
        false,
        false,
        false,
        true,
        true,
        false,
        false,
        true,
        true,
        false,
        false,
        false,
        false,
        false,
        false
      ],
      "2b3p": [
        true,
        false,
        false,
        false,
        false,
        false,
        false,
        false,
        false,
        false,
        false,
        false,
        false,
        false,
        false,
        false,
        false,
        false,
        false,
        false,
        false,
        false,
        false,
        false,
        true,
        false,
        true,
        true,
        false,
        false,
        true,
        true,
        false,
        false,
        false,
        false
      ],
      "2b4p": [
        true,
        false,
        true,
        true,
        false,
        false,
        false,
        true,
        true,
        true,
        false,
        false,
        false,
        false,
        false,
        false,
        false,
        false,
        false,
        true,
        false,
        false,
        false,
        false,
        false,
        false,
        false,
        false,
        false,
        false,
        false,
        false,
        false,
        false,
        false,
        false
      ],
      "3b5p": [
        true,
        false,
        true,
        true,
        false,
        false,
        true,
        true,
        true,
        true,
        false,
        true,
        true,
        false,
        false,
        false,
        false,
        false,
        false,
        true,
        false,
        false,
        false,
        false,
        false,
        false,
        false,
        false,
        false,
        false,
        false,
        false,
        false,
        false,
        false,
        false
      ]
    },
    "ApartmentTypeRoomsMansion": {
      "SpecialApt": [],
      "1b2p": [
        false,
        true,
        false,
        false,
        true,
        false,
        false,
        true,
        false,
        false,
        false,
        true,
        true,
        false,
        false,
        false,
        false,
        false,
        false,
        false,
        false,
        false,
        false,
        false,
        false
      ],
      "2b3p": [
        true,
        true,
        false,
        false,
        true,
        false,
        false,
        false,
        true,
        false,
        false,
        false,
        false,
        true,
        true,
        false,
        false,
        false,
        false,
        false,
        false,
        false,
        false,
        false,
        false
      ],
      "2b4p": [
        false,
        false,
        true,
        true,
        false,
        true,
        true,
        false,
        false,
        true,
        false,
        false,
        false,
        false,
        false,
        true,
        true,
        false,
        false,
        false,
        false,
        false,
        false,
        false,
        false
      ],
      "3b5p": [
        true,
        false,
        true,
        true,
        false,
        true,
        false,
        false,
        false,
        false,
        true,
        false,
        false,
        false,
        false,
        false,
        false,
        true,
        true,
        true,
        true,
        false,
        false,
        false,
        false
      ]
    },
    "ApartmentTypeRoomsMansionM3": {
      "SpecialApt": [],
      "1b2p": [
        false,
        true,
        false,
        true,
        false,
        true,
        false,
        false,
        false,
        false,
        false,
        true,
        false,
        false,
        false,
        true,
        false,
        false,
        true,
        false,
        false,
        false,
        false,
        false,
        false,
        false
      ],
      "2b3p": [
        true,
        true,
        false,
        true,
        false,
        false,
        true,
        false,
        false,
        false,
        false,
        false,
        true,
        false,
        false,
        true,
        false,
        false,
        false,
        true,
        false,
        false,
        false,
        false,
        false,
        false
      ],
      "2b4p": [
        false,
        true,
        true,
        false,
        true,
        false,
        false,
        true,
        false,
        true,
        false,
        false,
        false,
        true,
        false,
        false,
        true,
        false,
        false,
        false,
        true,
        false,
        false,
        false,
        false,
        false
      ],
      "3b5p": [
        true,
        true,
        true,
        false,
        true,
        false,
        false,
        false,
        true,
        false,
        true,
        false,
        false,
        false,
        true,
        false,
        false,
        true,
        false,
        false,
        false,
        true,
        false,
        false,
        false,
        false
      ]
    },
    "ConstructionFeatures": {
      "PartyWall": 0.3,
      "ExteriorWall": 0.5,
      "CorridorWall": 0.25,
      "PanelLength": 10.5,
      "LineSpan": 6.5
    },
    "ConstructionFeaturesTitle": "Custom",
    "customVals": {
      "SpecialApt": [
        3.0,
        3.0,
        2.25,
        2.1,
        1.35,
        1.35,
        2.4,
        3.6,
        2.4
      ],
      "Studio": [
        3.0,
        3.0,
        2.25,
        2.1,
        1.35,
        1.35,
        2.4,
        3.6,
        2.4
      ],
      "1b2p": [
        2.8,
        3.0,
        2.25,
        2.1,
        1.35,
        1.35,
        2.4,
        3.6,
        2.4
      ],
      "2b3p": [
        3.0,
        3.0,
        2.25,
        2.1,
        1.35,
        1.35,
        2.4,
        3.6,
        2.4
      ],
      "2b4p": [
        3.0,
        3.0,
        2.25,
        2.1,
        1.35,
        1.35,
        3.65,
        3.6,
        2.4
      ],
      "3b5p": [
        3.0,
        3.0,
        2.25,
        2.1,
        1.35,
        1.35,
        3.65,
        3.6,
        2.05
      ]
    },
    "customValsM3": {
      "SpecialApt": [
        3.15,
        3.0,
        2.6,
        2.75,
        1.35,
        1.35,
        2.4,
        3.65,
        2.6,
        2.2
      ],
      "Studio": [
        3.15,
        3.0,
        2.6,
        2.75,
        1.35,
        1.35,
        2.4,
        3.65,
        2.6,
        2.2
      ],
      "1b2p": [
        3.15,
        3.0,
        2.6,
        2.75,
        1.35,
        1.35,
        2.4,
        3.65,
        2.6,
        2.2
      ],
      "2b3p": [
        3.15,
        3.0,
        2.75,
        2.75,
        1.35,
        1.35,
        2.4,
        3.65,
        2.8,
        2.2
      ],
      "2b4p": [
        3.15,
        3.65,
        2.6,
        2.75,
        1.35,
        1.35,
        2.4,
        3.75,
        2.6,
        2.3
      ],
      "3b5p": [
        3.15,
        3.15,
        2.6,
        2.75,
        1.35,
        1.95,
        2.4,
        3.75,
        2.75,
        4.7
      ]
    },
    "ValidLineLoads": {
      "Studio": [
        "BA",
        "LR"
      ],
      "1b2p": [
        "BA",
        "DB",
        "HW",
        "ST",
        "LR",
        "ALR"
      ],
      "2b4p": [
        "BA",
        "PB",
        "PBB",
        "STT",
        "HWW",
        "BAA",
        "LRR",
        "ALRR"
      ],
      "3b5p": [
        "BA",
        "PB",
        "PBB",
        "STT",
        "HWW",
        "BAA",
        "WCC",
        "PSB",
        "LRR",
        "ALRR"
      ]
    },
    "TotalAmenitiesArea": {
      "Studio": {
        "ALR": 0.0,
        "AILR": 0.0
      },
      "1b2p": {
        "ADB": 0.0,
        "ALR": 5.0,
        "AILR": 0.0
      },
      "2b3p": {
        "ADBB": 0.0,
        "ADB": 0.0,
        "ALR": 0.0,
        "AILR": 0.0
      },
      "2b4p": {
        "APBB": 0.0,
        "APB": 0.0,
        "ALRR": 7.0,
        "AILRR": 0.0
      },
      "3b5p": {
        "APBB": 0.0,
        "APB": 0.0,
        "APSB": 0.0,
        "ALRR": 8.0,
        "AILRR": 0.0
      }
    },
    "Balconies": 0,
    "WindowsPositions": {
      "Studio": {
        "LR": {
          "origin": 3,
          "fromWalls": 1.42,
          "width": 2.45,
          "height": 2.45,
          "cill": 0.0,
          "windowType": 0
        }
      },
      "1b2p": {
        "DB": {
          "origin": 5,
          "fromWalls": 0.975,
          "width": 1.05,
          "height": 1.65,
          "cill": 0.8,
          "windowType": 0
        },
        "LR": {
          "origin": 3,
          "fromWalls": 0.82,
          "width": 2.45,
          "height": 2.45,
          "cill": 0.0,
          "windowType": 0
        }
      },
      "2b3p": {
        "DB": {
          "origin": 5,
          "fromWalls": 0.975,
          "width": 1.05,
          "height": 1.65,
          "cill": 0.8,
          "windowType": 0
        },
        "DBB": {
          "origin": 0,
          "fromWalls": 0.675,
          "width": 1.05,
          "height": 1.65,
          "cill": 0.8,
          "windowType": 0
        },
        "LR": {
          "origin": 3,
          "fromWalls": 0.385,
          "width": 2.45,
          "height": 2.45,
          "cill": 0.0,
          "windowType": 0
        }
      },
      "2b4p": {
        "PB": {
          "origin": 5,
          "fromWalls": 0.975,
          "width": 1.05,
          "height": 1.65,
          "cill": 0.8,
          "windowType": 0
        },
        "PBB": {
          "origin": 0,
          "fromWalls": 1.275,
          "width": 1.05,
          "height": 1.65,
          "cill": 0.8,
          "windowType": 0
        },
        "LRR": {
          "origin": 3,
          "fromWalls": 0.41,
          "width": 2.45,
          "height": 2.45,
          "cill": 0.0,
          "windowType": 0
        }
      },
      "3b5p": {
        "PB": {
          "origin": 5,
          "fromWalls": 0.975,
          "width": 1.05,
          "height": 1.65,
          "cill": 0.8,
          "windowType": 0
        },
        "PBB": {
          "origin": 0,
          "fromWalls": 1.275,
          "width": 1.05,
          "height": 1.65,
          "cill": 0.8,
          "windowType": 0
        },
        "PSB": {
          "origin": 0,
          "fromWalls": 0.675,
          "width": 1.05,
          "height": 1.65,
          "cill": 0.8,
          "windowType": 0
        },
        "LRR": {
          "origin": 3,
          "fromWalls": 0.32,
          "width": 2.45,
          "height": 2.45,
          "cill": 0.0,
          "windowType": 0
        }
      }
    },
    "WindowsPositionsM3": {
      "Studio": {
        "LR": {
          "origin": 3,
          "fromWalls": 1.42,
          "width": 2.45,
          "height": 2.45,
          "cill": 0.0,
          "windowType": 0
        }
      },
      "1b2p": {
        "DB": {
          "origin": 5,
          "fromWalls": 0.975,
          "width": 1.05,
          "height": 1.65,
          "cill": 0.8,
          "windowType": 0
        },
        "LR": {
          "origin": 3,
          "fromWalls": 0.82,
          "width": 2.45,
          "height": 2.45,
          "cill": 0.0,
          "windowType": 0
        }
      },
      "2b3p": {
        "DB": {
          "origin": 5,
          "fromWalls": 0.975,
          "width": 1.05,
          "height": 1.65,
          "cill": 0.8,
          "windowType": 0
        },
        "DBB": {
          "origin": 0,
          "fromWalls": 0.675,
          "width": 1.05,
          "height": 1.65,
          "cill": 0.8,
          "windowType": 0
        },
        "LR": {
          "origin": 3,
          "fromWalls": 0.385,
          "width": 2.45,
          "height": 2.45,
          "cill": 0.0,
          "windowType": 0
        }
      },
      "2b4p": {
        "PB": {
          "origin": 5,
          "fromWalls": 0.975,
          "width": 1.05,
          "height": 1.65,
          "cill": 0.8,
          "windowType": 0
        },
        "PBB": {
          "origin": 0,
          "fromWalls": 1.275,
          "width": 1.05,
          "height": 1.65,
          "cill": 0.8,
          "windowType": 0
        },
        "LRR": {
          "origin": 3,
          "fromWalls": 0.41,
          "width": 2.45,
          "height": 2.45,
          "cill": 0.0,
          "windowType": 0
        }
      },
      "3b5p": {
        "PB": {
          "origin": 5,
          "fromWalls": 0.975,
          "width": 1.05,
          "height": 1.65,
          "cill": 0.8,
          "windowType": 0
        },
        "PBB": {
          "origin": 0,
          "fromWalls": 1.275,
          "width": 1.05,
          "height": 1.65,
          "cill": 0.8,
          "windowType": 0
        },
        "PSB": {
          "origin": 0,
          "fromWalls": 0.675,
          "width": 1.05,
          "height": 1.65,
          "cill": 0.8,
          "windowType": 0
        },
        "LRR": {
          "origin": 3,
          "fromWalls": 0.32,
          "width": 2.45,
          "height": 2.45,
          "cill": 0.0,
          "windowType": 0
        }
      }
    },
    "WindowsPositionsMansion": {
      "1b2p": {
        "DB": {
          "origin": 0,
          "fromWalls": 1.73,
          "width": 1.05,
          "height": 1.65,
          "cill": 0.8,
          "windowType": 1
        },
        "LR": {
          "origin": 5,
          "fromWalls": 1.03,
          "width": 2.45,
          "height": 2.45,
          "cill": 0.0,
          "windowType": 0
        }
      },
      "2b3p": {
        "PSB": {
          "origin": 0,
          "fromWalls": 0.68,
          "width": 1.05,
          "height": 1.65,
          "cill": 0.8,
          "windowType": 1
        },
        "DB": {
          "origin": 0,
          "fromWalls": 0.98,
          "width": 1.05,
          "height": 1.65,
          "cill": 0.8,
          "windowType": 1
        },
        "LRR": {
          "origin": 5,
          "fromWalls": 1.48,
          "width": 2.45,
          "height": 2.45,
          "cill": 0.0,
          "windowType": 0
        }
      },
      "2b4p": {
        "DBB": {
          "origin": 0,
          "fromWalls": 0.88,
          "width": 1.05,
          "height": 1.65,
          "cill": 0.8,
          "windowType": 1
        },
        "PB": {
          "origin": 0,
          "fromWalls": 1.23,
          "width": 1.05,
          "height": 1.65,
          "cill": 0.8,
          "windowType": 1
        },
        "LRRR": {
          "origin": 7,
          "fromWalls": 1.93,
          "width": 2.45,
          "height": 2.45,
          "cill": 0.0,
          "windowType": 0
        }
      },
      "3b5p": {
        "PSB": {
          "origin": 0,
          "fromWalls": 0.63,
          "width": 1.05,
          "height": 1.65,
          "cill": 0.8,
          "windowType": 1
        },
        "DBB": {
          "origin": 0,
          "fromWalls": 0.88,
          "width": 1.05,
          "height": 1.65,
          "cill": 0.8,
          "windowType": 1
        },
        "PB": {
          "origin": 0,
          "fromWalls": 0.98,
          "width": 1.05,
          "height": 1.65,
          "cill": 0.8,
          "windowType": 1
        },
        "LRRRR": {
          "origin": 7,
          "fromWalls": 2.83,
          "width": 2.45,
          "height": 2.45,
          "cill": 0.0,
          "windowType": 0
        }
      }
    },
    "WindowsPositionsMansionM3": {
      "1b2p": {
        "DB": {
          "origin": 0,
          "fromWalls": 2.03,
          "width": 1.05,
          "height": 1.65,
          "cill": 0.8,
          "windowType": 0
        },
        "LR": {
          "origin": 7,
          "fromWalls": 1.33,
          "width": 2.45,
          "height": 2.45,
          "cill": 0.0,
          "windowType": 0
        }
      },
      "2b3p": {
        "PSB": {
          "origin": 0,
          "fromWalls": 0.8,
          "width": 1.05,
          "height": 1.65,
          "cill": 0.8,
          "windowType": 0
        },
        "DB": {
          "origin": 0,
          "fromWalls": 1.4,
          "width": 1.05,
          "height": 1.65,
          "cill": 0.8,
          "windowType": 0
        },
        "LRR": {
          "origin": 5,
          "fromWalls": 2.03,
          "width": 2.45,
          "height": 2.45,
          "cill": 0.0,
          "windowType": 0
        }
      },
      "2b4p": {
        "DB": {
          "origin": 0,
          "fromWalls": 1.3,
          "width": 1.05,
          "height": 1.65,
          "cill": 0.8,
          "windowType": 0
        },
        "PB": {
          "origin": 0,
          "fromWalls": 1.35,
          "width": 1.05,
          "height": 1.65,
          "cill": 0.8,
          "windowType": 0
        },
        "LRRR": {
          "origin": 7,
          "fromWalls": 2.48,
          "width": 2.45,
          "height": 2.45,
          "cill": 0.0,
          "windowType": 0
        }
      },
      "3b5p": {
        "PSB": {
          "origin": 0,
          "fromWalls": 0.75,
          "width": 1.05,
          "height": 1.65,
          "cill": 0.8,
          "windowType": 0
        },
        "DB": {
          "origin": 0,
          "fromWalls": 1.08,
          "width": 1.05,
          "height": 1.65,
          "cill": 0.8,
          "windowType": 0
        },
        "PB": {
          "origin": 0,
          "fromWalls": 1.05,
          "width": 1.05,
          "height": 1.65,
          "cill": 0.8,
          "windowType": 0
        },
        "LRRRR": {
          "origin": 9,
          "fromWalls": 3.23,
          "width": 2.45,
          "height": 2.45,
          "cill": 0.0,
          "windowType": 0
        }
      }
    },
    "roofDepth": 0.6,
    "parapetHeight": 0.3
  }
}