%YAML 1.1
%TAG !u! tag:unity3d.com,2011:
--- !u!1001 &100100000
Prefab:
  m_ObjectHideFlags: 1
  serializedVersion: 2
  m_Modification:
    m_TransformParent: {fileID: 0}
    m_Modifications: []
    m_RemovedComponents: []
  m_SourcePrefab: {fileID: 0}
  m_RootGameObject: {fileID: 1867229669850552}
  m_IsPrefabAsset: 1
--- !u!1 &1867229669850552
GameObject:
  m_ObjectHideFlags: 0
  m_CorrespondingSourceObject: {fileID: 0}
  m_PrefabInternal: {fileID: 100100000}
  serializedVersion: 6
  m_Component:
  - component: {fileID: 4676566587089346}
  - component: {fileID: 114932340401986448}
  m_Layer: 0
  m_Name: CitySimulatorMapPTAL
  m_TagString: Untagged
  m_Icon: {fileID: 0}
  m_NavMeshLayer: 0
  m_StaticEditorFlags: 0
  m_IsActive: 1
--- !u!4 &4676566587089346
Transform:
  m_ObjectHideFlags: 1
  m_CorrespondingSourceObject: {fileID: 0}
  m_PrefabInternal: {fileID: 100100000}
  m_GameObject: {fileID: 1867229669850552}
  m_LocalRotation: {x: -0, y: 0, z: 0, w: 1}
  m_LocalPosition: {x: 0, y: 3.7, z: 0}
  m_LocalScale: {x: 1, y: 1, z: 1}
  m_Children: []
  m_Father: {fileID: 0}
  m_RootOrder: 0
  m_LocalEulerAnglesHint: {x: 0, y: 0, z: 0}
--- !u!114 &114932340401986448
MonoBehaviour:
  m_ObjectHideFlags: 1
  m_CorrespondingSourceObject: {fileID: 0}
  m_PrefabInternal: {fileID: 100100000}
  m_GameObject: {fileID: 1867229669850552}
  m_Enabled: 1
  m_EditorHideFlags: 0
  m_Script: {fileID: 11500000, guid: cd961b1c9541a4cee99686069ecce852, type: 3}
  m_Name: 
  m_EditorClassIdentifier: 
  _options:
    locationOptions:
      latitudeLongitude: 51.507441, -0.026187
      zoom: 16
    extentOptions:
      extentType: 1
      defaultExtents:
        cameraBoundsOptions:
          camera: {fileID: 0}
          visibleBuffer: 0
          disposeBuffer: 0
        rangeAroundCenterOptions:
          west: 1
          north: 1
          east: 1
          south: 1
        rangeAroundTransformOptions:
          targetTransform: {fileID: 0}
          visibleBuffer: 0
          disposeBuffer: 0
    placementOptions:
      placementType: 0
      snapMapToZero: 1
    scalingOptions:
      scalingType: 0
      unityTileSize: 100
    loadingTexture: {fileID: 2800000, guid: e2896a92727704803a9c422b043eae89, type: 3}
    tileMaterial: {fileID: 2100000, guid: b9f23e9bce724fa4daac57ecded470b8, type: 2}
  _initializeOnStart: 0
  _imagery:
    _layerProperty:
      sourceType: 3
      sourceOptions:
        isActive: 1
        layerSource:
          Name: Streets
          Id: mapbox://styles/mapbox/light-v9
          Modified: 
          UserName: 
      rasterOptions:
        useRetina: 0
        useCompression: 0
        useMipMap: 0
  _terrain:
    _layerProperty:
      sourceType: 0
      sourceOptions:
        isActive: 1
        layerSource:
          Name: 
          Id: mapbox.terrain-rgb
          Modified: 
          UserName: 
      elevationLayerType: 0
      requiredOptions:
        exaggerationFactor: 1
      colliderOptions:
        addCollider: 0
      modificationOptions:
        sampleCount: 10
        useRelativeHeight: 0
        earthRadius: 1000
      unityLayerOptions:
        addToLayer: 0
        layerId: 0
      sideWallOptions:
        isActive: 0
        wallHeight: 10
        wallMaterial: {fileID: 0}
  _vectorData:
    _layerProperty:
      tileJsonData:
        tileJSONLoaded: 0
        LayerDisplayNames:
        - ptal_geo-83aqs6
      _sourceType: 2
      sourceOptions:
        isActive: 1
        layerSource:
          Name: Mapbox Terrain
          Id: itoumpalidis.9gs4tqx3
          Modified: 
          UserName: 
      useOptimizedStyle: 0
      optimizedStyle:
        Name: 
        Id: 
        Modified: 
        UserName: 
      performanceOptions:
        isEnabled: 1
        entityPerCoroutine: 20
      vectorSubLayers:
      - coreOptions:
          sourceId: mapbox.3d-buildings,mapbox.mapbox-streets-v7
          isActive: 0
          sublayerName: ExtrudedBuildings
          geometryType: 2
          layerName: building
          snapToTerrain: 1
          combineMeshes: 0
        lineGeometryOptions:
          Width: 1
        filterOptions:
          _selectedLayerName: building
          filters: []
          combinerType: 0
        extrusionOptions:
          _selectedLayerName: building
          extrusionType: 3
          extrusionGeometryType: 0
          propertyName: height
          propertyDescription: Number. Height of building or part of building.
          minimumHeight: 0
          maximumHeight: 0
          extrusionScaleFactor: 30
        colliderOptions:
          colliderType: 0
        materialOptions:
          style: 3
          texturingType: 3
          materials:
          - Materials:
            - {fileID: 2100000, guid: a1aa333e18c0640d7b428eecff9c4af7, type: 2}
          - Materials:
            - {fileID: 2100000, guid: c0653693b48614a139a124871d499679, type: 2}
          atlasInfo: {fileID: 11400000, guid: 414754d7155df47beb52ca117a774f21, type: 2}
          lightStyleOpacity: 1
          darkStyleOpacity: 1
          colorStyleColor: {r: 1, g: 1, b: 1, a: 1}
          samplePalettes: 0
          colorPalette: {fileID: 11400000, guid: 57bdfa37edf7a4f7f999d19443497554,
            type: 2}
          customStyleOptions:
            texturingType: 0
            materials:
            - Materials:
              - {fileID: 0}
            - Materials:
              - {fileID: 0}
            atlasInfo: {fileID: 0}
            colorPalette: {fileID: 0}
        performanceOptions:
          isEnabled: 1
          entityPerCoroutine: 20
        honorBuildingIdSetting: 1
        buildingsWithUniqueIds: 1
        moveFeaturePositionTo: 0
        MeshModifiers: []
        GoModifiers: []
        presetFeatureType: 0
        _maskValue: 0
        selectedTypes: 
      - coreOptions:
          sourceId: 
          isActive: 0
          sublayerName: Roads
          geometryType: 1
          layerName: road
          snapToTerrain: 1
          combineMeshes: 0
        lineGeometryOptions:
          Width: 1
        filterOptions:
          _selectedLayerName: road
          filters: []
          combinerType: 0
        extrusionOptions:
          _selectedLayerName: road
          extrusionType: 5
          extrusionGeometryType: 0
          propertyName: height
          propertyDescription: 
          minimumHeight: 0
          maximumHeight: 2
          extrusionScaleFactor: 1
        colliderOptions:
          colliderType: 0
        materialOptions:
          style: 0
          texturingType: 0
          materials:
          - Materials:
            - {fileID: 2100000, guid: 8e8afdee0a225a84282f04f2fb89b8b6, type: 2}
          - Materials:
            - {fileID: 2100000, guid: b00db1eb69ea64eb4adb30b2c0fb01cb, type: 2}
          atlasInfo: {fileID: 0}
          lightStyleOpacity: 1
          darkStyleOpacity: 1
          colorStyleColor: {r: 1, g: 1, b: 1, a: 1}
          samplePalettes: 0
          colorPalette: {fileID: 0}
          customStyleOptions:
            texturingType: 0
            materials:
            - Materials:
              - {fileID: 0}
            - Materials:
              - {fileID: 0}
            atlasInfo: {fileID: 0}
            colorPalette: {fileID: 0}
        performanceOptions:
          isEnabled: 1
          entityPerCoroutine: 20
        honorBuildingIdSetting: 1
        buildingsWithUniqueIds: 0
        moveFeaturePositionTo: 0
        MeshModifiers: []
        GoModifiers: []
        presetFeatureType: 1
        _maskValue: 0
        selectedTypes: 
      - coreOptions:
          sourceId: 
          isActive: 1
          sublayerName: Untitled
          geometryType: 2
          layerName: ptal_geo-83aqs6
          snapToTerrain: 1
          combineMeshes: 1
        lineGeometryOptions:
          Width: 0
        filterOptions:
          _selectedLayerName: ptal_geo-83aqs6
          filters:
          - Key: PTAL
            KeyDescription: String
            PropertyValue: 0
            Min: 0
            Max: 0
            filterOperator: 0
          combinerType: 0
        extrusionOptions:
          _selectedLayerName: ptal_geo-83aqs6
          extrusionType: 5
          extrusionGeometryType: 0
          propertyName: height
          propertyDescription: Unavailable in Selected Layer.
          minimumHeight: 0
          maximumHeight: 2
          extrusionScaleFactor: 1
        colliderOptions:
          colliderType: 0
        materialOptions:
          style: 7
          texturingType: 0
          materials:
          - Materials:
            - {fileID: 0}
          - Materials:
            - {fileID: 0}
          atlasInfo: {fileID: 11400000, guid: 414754d7155df47beb52ca117a774f21, type: 2}
          lightStyleOpacity: 1
          darkStyleOpacity: 1
          colorStyleColor: {r: 0, g: 0, b: 0.015686275, a: 1}
          samplePalettes: 0
          colorPalette: {fileID: 11400000, guid: 57bdfa37edf7a4f7f999d19443497554,
            type: 2}
          customStyleOptions:
            texturingType: 0
            materials: []
            atlasInfo: {fileID: 0}
            colorPalette: {fileID: 0}
        performanceOptions:
          isEnabled: 1
          entityPerCoroutine: 20
        honorBuildingIdSetting: 1
        buildingsWithUniqueIds: 0
        moveFeaturePositionTo: 0
        MeshModifiers: []
        GoModifiers:
        - {fileID: 11400000, guid: 96275e93f0c941a499ee77d110d8f454, type: 2}
        presetFeatureType: 4
        _maskValue: 0
        selectedTypes: 
      - coreOptions:
          sourceId: 
          isActive: 1
          sublayerName: Untitled
          geometryType: 2
          layerName: ptal_geo-83aqs6
          snapToTerrain: 1
          combineMeshes: 1
        lineGeometryOptions:
          Width: 0
        filterOptions:
          _selectedLayerName: ptal_geo-83aqs6
          filters:
          - Key: PTAL
            KeyDescription: String
            PropertyValue: 1a
            Min: 5
            Max: 15
            filterOperator: 0
          combinerType: 0
        extrusionOptions:
          _selectedLayerName: ptal_geo-83aqs6
          extrusionType: 5
          extrusionGeometryType: 0
          propertyName: height
          propertyDescription: Unavailable in Selected Layer.
          minimumHeight: 0
          maximumHeight: 2
          extrusionScaleFactor: 1
        colliderOptions:
          colliderType: 0
        materialOptions:
          style: 7
          texturingType: 0
          materials:
          - Materials:
            - {fileID: 0}
          - Materials:
            - {fileID: 0}
          atlasInfo: {fileID: 11400000, guid: 414754d7155df47beb52ca117a774f21, type: 2}
          lightStyleOpacity: 1
          darkStyleOpacity: 1
          colorStyleColor: {r: 0.10588236, g: 0.043137256, b: 0.25490198, a: 1}
          samplePalettes: 0
          colorPalette: {fileID: 11400000, guid: 57bdfa37edf7a4f7f999d19443497554,
            type: 2}
          customStyleOptions:
            texturingType: 0
            materials: []
            atlasInfo: {fileID: 0}
            colorPalette: {fileID: 0}
        performanceOptions:
          isEnabled: 1
          entityPerCoroutine: 20
        honorBuildingIdSetting: 1
        buildingsWithUniqueIds: 0
        moveFeaturePositionTo: 0
        MeshModifiers: []
        GoModifiers:
        - {fileID: 11400000, guid: be3f1e78dcfdc9b41af4e6d4f61ff0bf, type: 2}
        presetFeatureType: 4
        _maskValue: 0
        selectedTypes: 
      - coreOptions:
          sourceId: 
          isActive: 1
          sublayerName: Untitled
          geometryType: 2
          layerName: ptal_geo-83aqs6
          snapToTerrain: 1
          combineMeshes: 1
        lineGeometryOptions:
          Width: 0
        filterOptions:
          _selectedLayerName: ptal_geo-83aqs6
          filters:
          - Key: PTAL
            KeyDescription: String
            PropertyValue: 1b
            Min: 15
            Max: 25
            filterOperator: 0
          combinerType: 0
        extrusionOptions:
          _selectedLayerName: ptal_geo-83aqs6
          extrusionType: 5
          extrusionGeometryType: 0
          propertyName: Lower
          propertyDescription: Number
          minimumHeight: 0
          maximumHeight: 2
          extrusionScaleFactor: 1
        colliderOptions:
          colliderType: 0
        materialOptions:
          style: 7
          texturingType: 0
          materials:
          - Materials:
            - {fileID: 0}
          - Materials:
            - {fileID: 0}
          atlasInfo: {fileID: 11400000, guid: 414754d7155df47beb52ca117a774f21, type: 2}
          lightStyleOpacity: 1
          darkStyleOpacity: 1
          colorStyleColor: {r: 0.29411766, g: 0.04705883, b: 0.41960788, a: 1}
          samplePalettes: 0
          colorPalette: {fileID: 11400000, guid: 57bdfa37edf7a4f7f999d19443497554,
            type: 2}
          customStyleOptions:
            texturingType: 0
            materials: []
            atlasInfo: {fileID: 0}
            colorPalette: {fileID: 0}
        performanceOptions:
          isEnabled: 1
          entityPerCoroutine: 20
        honorBuildingIdSetting: 1
        buildingsWithUniqueIds: 0
        moveFeaturePositionTo: 0
        MeshModifiers: []
        GoModifiers:
        - {fileID: 11400000, guid: 5e0232e42cedca049a7f9ca250942f47, type: 2}
        presetFeatureType: 4
        _maskValue: 0
        selectedTypes: 
      - coreOptions:
          sourceId: 
          isActive: 1
          sublayerName: Untitled
          geometryType: 2
          layerName: ptal_geo-83aqs6
          snapToTerrain: 1
          combineMeshes: 1
        lineGeometryOptions:
          Width: 0
        filterOptions:
          _selectedLayerName: ptal_geo-83aqs6
          filters:
          - Key: PTAL
            KeyDescription: String
            PropertyValue: 2
            Min: 25
            Max: 40
            filterOperator: 0
          combinerType: 0
        extrusionOptions:
          _selectedLayerName: ptal_geo-83aqs6
          extrusionType: 5
          extrusionGeometryType: 0
          propertyName: height
          propertyDescription: Unavailable in Selected Layer.
          minimumHeight: 0
          maximumHeight: 2
          extrusionScaleFactor: 1
        colliderOptions:
          colliderType: 0
        materialOptions:
          style: 7
          texturingType: 0
          materials:
          - Materials:
            - {fileID: 0}
          - Materials:
            - {fileID: 0}
          atlasInfo: {fileID: 11400000, guid: 414754d7155df47beb52ca117a774f21, type: 2}
          lightStyleOpacity: 1
          darkStyleOpacity: 1
          colorStyleColor: {r: 0.47058827, g: 0.10980393, b: 0.427451, a: 1}
          samplePalettes: 0
          colorPalette: {fileID: 11400000, guid: 57bdfa37edf7a4f7f999d19443497554,
            type: 2}
          customStyleOptions:
            texturingType: 0
            materials: []
            atlasInfo: {fileID: 0}
            colorPalette: {fileID: 0}
        performanceOptions:
          isEnabled: 1
          entityPerCoroutine: 20
        honorBuildingIdSetting: 1
        buildingsWithUniqueIds: 0
        moveFeaturePositionTo: 0
        MeshModifiers: []
        GoModifiers:
        - {fileID: 11400000, guid: 6b8c73e2bf38a7848a1ef98f8866dd58, type: 2}
        presetFeatureType: 4
        _maskValue: 0
        selectedTypes: 
      - coreOptions:
          sourceId: 
          isActive: 1
          sublayerName: Untitled
          geometryType: 2
          layerName: ptal_geo-83aqs6
          snapToTerrain: 1
          combineMeshes: 1
        lineGeometryOptions:
          Width: 0
        filterOptions:
          _selectedLayerName: ptal_geo-83aqs6
          filters:
          - Key: PTAL
            KeyDescription: String
            PropertyValue: 3
            Min: 50
            Max: 0
            filterOperator: 0
          combinerType: 0
        extrusionOptions:
          _selectedLayerName: ptal_geo-83aqs6
          extrusionType: 5
          extrusionGeometryType: 0
          propertyName: height
          propertyDescription: Unavailable in Selected Layer.
          minimumHeight: 0
          maximumHeight: 2
          extrusionScaleFactor: 1
        colliderOptions:
          colliderType: 0
        materialOptions:
          style: 7
          texturingType: 0
          materials:
          - Materials:
            - {fileID: 0}
          - Materials:
            - {fileID: 0}
          atlasInfo: {fileID: 11400000, guid: 414754d7155df47beb52ca117a774f21, type: 2}
          lightStyleOpacity: 1
          darkStyleOpacity: 1
          colorStyleColor: {r: 0.64705884, g: 0.17254902, b: 0.37647063, a: 1}
          samplePalettes: 0
          colorPalette: {fileID: 11400000, guid: 57bdfa37edf7a4f7f999d19443497554,
            type: 2}
          customStyleOptions:
            texturingType: 0
            materials: []
            atlasInfo: {fileID: 0}
            colorPalette: {fileID: 0}
        performanceOptions:
          isEnabled: 1
          entityPerCoroutine: 20
        honorBuildingIdSetting: 1
        buildingsWithUniqueIds: 0
        moveFeaturePositionTo: 0
        MeshModifiers: []
        GoModifiers:
        - {fileID: 11400000, guid: 5950c31582d0b144eaca02125f5d6951, type: 2}
        presetFeatureType: 4
        _maskValue: 0
        selectedTypes: 
      - coreOptions:
          sourceId: 
          isActive: 1
          sublayerName: Untitled
          geometryType: 2
          layerName: ptal_geo-83aqs6
          snapToTerrain: 1
          combineMeshes: 1
        lineGeometryOptions:
          Width: 1
        filterOptions:
          _selectedLayerName: ptal_geo-83aqs6
          filters:
          - Key: PTAL
            KeyDescription: String
            PropertyValue: 4
            Min: 0
            Max: 0
            filterOperator: 0
          combinerType: 0
        extrusionOptions:
          _selectedLayerName: ptal_geo-83aqs6
          extrusionType: 5
          extrusionGeometryType: 0
          propertyName: height
          propertyDescription: Unavailable in Selected Layer.
          minimumHeight: 0
          maximumHeight: 2
          extrusionScaleFactor: 1
        colliderOptions:
          colliderType: 0
        materialOptions:
          style: 7
          texturingType: 0
          materials:
          - Materials:
            - {fileID: 0}
          - Materials:
            - {fileID: 0}
          atlasInfo: {fileID: 0}
          lightStyleOpacity: 1
          darkStyleOpacity: 1
          colorStyleColor: {r: 0.8117648, g: 0.2627451, b: 0.27450982, a: 1}
          samplePalettes: 0
          colorPalette: {fileID: 0}
          customStyleOptions:
            texturingType: 0
            materials:
            - Materials:
              - {fileID: 0}
            - Materials:
              - {fileID: 0}
            atlasInfo: {fileID: 11400000, guid: 414754d7155df47beb52ca117a774f21,
              type: 2}
            colorPalette: {fileID: 11400000, guid: 57bdfa37edf7a4f7f999d19443497554,
              type: 2}
        performanceOptions:
          isEnabled: 1
          entityPerCoroutine: 20
        honorBuildingIdSetting: 1
        buildingsWithUniqueIds: 0
        moveFeaturePositionTo: 0
        MeshModifiers: []
        GoModifiers:
        - {fileID: 11400000, guid: fed4e22397f9fc2479705228500d29af, type: 2}
        presetFeatureType: 4
        _maskValue: 0
        selectedTypes: 
      - coreOptions:
          sourceId: 
          isActive: 1
          sublayerName: Untitled
          geometryType: 2
          layerName: ptal_geo-83aqs6
          snapToTerrain: 1
          combineMeshes: 1
        lineGeometryOptions:
          Width: 1
        filterOptions:
          _selectedLayerName: ptal_geo-83aqs6
          filters:
          - Key: PTAL
            KeyDescription: String
            PropertyValue: 5
            Min: 0
            Max: 0
            filterOperator: 0
          combinerType: 0
        extrusionOptions:
          _selectedLayerName: ptal_geo-83aqs6
          extrusionType: 5
          extrusionGeometryType: 0
          propertyName: height
          propertyDescription: Unavailable in Selected Layer.
          minimumHeight: 0
          maximumHeight: 2
          extrusionScaleFactor: 1
        colliderOptions:
          colliderType: 0
        materialOptions:
          style: 7
          texturingType: 0
          materials:
          - Materials:
            - {fileID: 0}
          - Materials:
            - {fileID: 0}
          atlasInfo: {fileID: 0}
          lightStyleOpacity: 1
          darkStyleOpacity: 1
          colorStyleColor: {r: 0.9294118, g: 0.41176474, b: 0.14509805, a: 1}
          samplePalettes: 0
          colorPalette: {fileID: 0}
          customStyleOptions:
            texturingType: 0
            materials:
            - Materials:
              - {fileID: 0}
            - Materials:
              - {fileID: 0}
            atlasInfo: {fileID: 11400000, guid: 414754d7155df47beb52ca117a774f21,
              type: 2}
            colorPalette: {fileID: 11400000, guid: 57bdfa37edf7a4f7f999d19443497554,
              type: 2}
        performanceOptions:
          isEnabled: 1
          entityPerCoroutine: 20
        honorBuildingIdSetting: 1
        buildingsWithUniqueIds: 0
        moveFeaturePositionTo: 0
        MeshModifiers: []
        GoModifiers:
        - {fileID: 11400000, guid: bd622598c5d2d2f4d88def88ab0870f3, type: 2}
        presetFeatureType: 4
        _maskValue: 0
        selectedTypes: 
      - coreOptions:
          sourceId: 
          isActive: 1
          sublayerName: Untitled
          geometryType: 2
          layerName: ptal_geo-83aqs6
          snapToTerrain: 1
          combineMeshes: 1
        lineGeometryOptions:
          Width: 1
        filterOptions:
          _selectedLayerName: ptal_geo-83aqs6
          filters:
          - Key: PTAL
            KeyDescription: String
            PropertyValue: 6a
            Min: 0
            Max: 0
            filterOperator: 0
          combinerType: 0
        extrusionOptions:
          _selectedLayerName: ptal_geo-83aqs6
          extrusionType: 5
          extrusionGeometryType: 0
          propertyName: height
          propertyDescription: Unavailable in Selected Layer.
          minimumHeight: 0
          maximumHeight: 2
          extrusionScaleFactor: 1
        colliderOptions:
          colliderType: 0
        materialOptions:
          style: 7
          texturingType: 0
          materials:
          - Materials:
            - {fileID: 0}
          - Materials:
            - {fileID: 0}
          atlasInfo: {fileID: 0}
          lightStyleOpacity: 1
          darkStyleOpacity: 1
          colorStyleColor: {r: 0.9843138, g: 0.6039216, b: 0.027450982, a: 1}
          samplePalettes: 0
          colorPalette: {fileID: 0}
          customStyleOptions:
            texturingType: 0
            materials:
            - Materials:
              - {fileID: 0}
            - Materials:
              - {fileID: 0}
            atlasInfo: {fileID: 11400000, guid: 414754d7155df47beb52ca117a774f21,
              type: 2}
            colorPalette: {fileID: 11400000, guid: 57bdfa37edf7a4f7f999d19443497554,
              type: 2}
        performanceOptions:
          isEnabled: 1
          entityPerCoroutine: 20
        honorBuildingIdSetting: 1
        buildingsWithUniqueIds: 0
        moveFeaturePositionTo: 0
        MeshModifiers: []
        GoModifiers:
        - {fileID: 11400000, guid: 54a4e075959b0bd4ea9e4c028c101bfe, type: 2}
        presetFeatureType: 4
        _maskValue: 0
        selectedTypes: 
      - coreOptions:
          sourceId: 
          isActive: 1
          sublayerName: Untitled
          geometryType: 2
          layerName: ptal_geo-83aqs6
          snapToTerrain: 1
          combineMeshes: 1
        lineGeometryOptions:
          Width: 1
        filterOptions:
          _selectedLayerName: ptal_geo-83aqs6
          filters:
          - Key: PTAL
            KeyDescription: String
            PropertyValue: 6b
            Min: 0
            Max: 0
            filterOperator: 0
          combinerType: 0
        extrusionOptions:
          _selectedLayerName: ptal_geo-83aqs6
          extrusionType: 5
          extrusionGeometryType: 0
          propertyName: height
          propertyDescription: Unavailable in Selected Layer.
          minimumHeight: 0
          maximumHeight: 2
          extrusionScaleFactor: 1
        colliderOptions:
          colliderType: 0
        materialOptions:
          style: 7
          texturingType: 0
          materials:
          - Materials:
            - {fileID: 0}
          - Materials:
            - {fileID: 0}
          atlasInfo: {fileID: 0}
          lightStyleOpacity: 1
          darkStyleOpacity: 1
          colorStyleColor: {r: 0.9725491, g: 0.8196079, b: 0.23529413, a: 1}
          samplePalettes: 0
          colorPalette: {fileID: 0}
          customStyleOptions:
            texturingType: 0
            materials:
            - Materials:
              - {fileID: 0}
            - Materials:
              - {fileID: 0}
            atlasInfo: {fileID: 11400000, guid: 414754d7155df47beb52ca117a774f21,
              type: 2}
            colorPalette: {fileID: 11400000, guid: 57bdfa37edf7a4f7f999d19443497554,
              type: 2}
        performanceOptions:
          isEnabled: 1
          entityPerCoroutine: 20
        honorBuildingIdSetting: 1
        buildingsWithUniqueIds: 0
        moveFeaturePositionTo: 0
        MeshModifiers: []
        GoModifiers:
        - {fileID: 11400000, guid: 61b3867ccebb5a54eac3670f42324139, type: 2}
        presetFeatureType: 4
        _maskValue: 0
        selectedTypes: 
      locationPrefabList: []
  _tileProvider: {fileID: 0}
