%YAML 1.1
%TAG !u! tag:unity3d.com,2011:
--- !u!1 &8701796058670177073
GameObject:
  m_ObjectHideFlags: 0
  m_CorrespondingSourceObject: {fileID: 0}
  m_PrefabInstance: {fileID: 0}
  m_PrefabAsset: {fileID: 0}
  serializedVersion: 6
  m_Component:
  - component: {fileID: 8701796058670177072}
  - component: {fileID: 128251184893288798}
  - component: {fileID: 8701796058670177074}
  - component: {fileID: 3538291659260152499}
  m_Layer: 0
  m_Name: CitySimulatorMapBuildings
  m_TagString: Untagged
  m_Icon: {fileID: 0}
  m_NavMeshLayer: 0
  m_StaticEditorFlags: 0
  m_IsActive: 1
--- !u!4 &8701796058670177072
Transform:
  m_ObjectHideFlags: 0
  m_CorrespondingSourceObject: {fileID: 0}
  m_PrefabInstance: {fileID: 0}
  m_PrefabAsset: {fileID: 0}
  m_GameObject: {fileID: 8701796058670177073}
  m_LocalRotation: {x: -0, y: -0, z: -0, w: 1}
  m_LocalPosition: {x: 0, y: 0, z: 0}
  m_LocalScale: {x: 1, y: 1, z: 1}
  m_Children: []
  m_Father: {fileID: 0}
  m_RootOrder: 0
  m_LocalEulerAnglesHint: {x: 0, y: 0, z: 0}
--- !u!114 &128251184893288798
MonoBehaviour:
  m_ObjectHideFlags: 0
  m_CorrespondingSourceObject: {fileID: 0}
  m_PrefabInstance: {fileID: 0}
  m_PrefabAsset: {fileID: 0}
  m_GameObject: {fileID: 8701796058670177073}
  m_Enabled: 1
  m_EditorHideFlags: 0
  m_Script: {fileID: 11500000, guid: cd961b1c9541a4cee99686069ecce852, type: 3}
  m_Name: 
  m_EditorClassIdentifier: 
  _options:
    locationOptions:
      latitudeLongitude: 51.514, -0.099
      zoom: 16
    extentOptions:
      extentType: 1
      defaultExtents:
        cameraBoundsOptions:
          camera: {fileID: 0}
          visibleBuffer: 0
          disposeBuffer: 0
        rangeAroundCenterOptions:
          west: 1
          north: 1
          east: 1
          south: 1
        rangeAroundTransformOptions:
          targetTransform: {fileID: 0}
          visibleBuffer: 0
          disposeBuffer: 0
    placementOptions:
      placementType: 0
      snapMapToZero: 1
    scalingOptions:
      scalingType: 0
      unityTileSize: 100
    loadingTexture: {fileID: 2800000, guid: e2896a92727704803a9c422b043eae89, type: 3}
    tileMaterial: {fileID: 2100000, guid: b9f23e9bce724fa4daac57ecded470b8, type: 2}
  _initializeOnStart: 0
  _imagery:
    _layerProperty:
      sourceType: 6
      sourceOptions:
        isActive: 1
        layerSource:
          Name: Streets
          Id: mapbox://styles/prismapp/ck6aopqy03dbh1is4t0t14gio
          Modified: 
          UserName: 
      rasterOptions:
        useRetina: 0
        useCompression: 0
        useMipMap: 0
  _terrain:
    _layerProperty:
      sourceType: 0
      sourceOptions:
        isActive: 1
        layerSource:
          Name: 
          Id: mapbox.terrain-rgb
          Modified: 
          UserName: 
      elevationLayerType: 0
      requiredOptions:
        exaggerationFactor: 1
      colliderOptions:
        addCollider: 0
      modificationOptions:
        sampleCount: 10
        useRelativeHeight: 0
        earthRadius: 1000
      unityLayerOptions:
        addToLayer: 0
        layerId: 0
      sideWallOptions:
        isActive: 0
        wallHeight: 10
        wallMaterial: {fileID: 0}
  _vectorData:
    _layerProperty:
      tileJsonData:
        tileJSONLoaded: 0
        LayerDisplayNames:
        - 2011_Greenbelt-dtp6lf
        - AirQualityFocusAreas-9rfmdr
        - Buildings_wgs
        - FloodWarningAreasUK-bshnli
        - height-restrictions-in-london-322h6u
        - Highways_RestrictionsForVehic-6c1dd8
        - HistoricFloodMapUK-bywbcc
        - Land_struct_BNG-64cwnn
        - london_street_trees_gla_20180-896390
        - Natural_Environment_bng-7a2sma
        - PathLink_wgs-8eov9o
        - PTAL-a02jjs
        - Rail_OS_bng-dww1f5
        - RoadLink_wgs-543ffq
        - RoadLinkPoints_wgs
      _sourceType: 2
      sourceOptions:
        isActive: 1
        layerSource:
          Name: Mapbox Terrain
          Id: prismapp.19it9lgx,prismapp.7ci5htzw,prismapp.7tdduwcb,prismapp.9df2a45k,prismapp.3gb1mygv,prismapp.a187o16p,prismapp.c3hc75b3,prismapp.c40k5v33,prismapp.9f5xoijf,prismapp.0rpmxbdo,prismapp.0sb32mkg,prismapp.0xbfx8gb,prismapp.a8h0bret,prismapp.7x34p5v8,prismapp.122gc9e3
          Modified: 
          UserName: 
      useOptimizedStyle: 0
      optimizedStyle:
        Name: 
        Id: 
        Modified: 
        UserName: 
      performanceOptions:
        isEnabled: 1
        entityPerCoroutine: 20
      vectorSubLayers:
      - coreOptions:
          sourceId: 
          isActive: 0
          sublayerName: Roads
          geometryType: 1
          layerName: road
          snapToTerrain: 1
          combineMeshes: 0
        lineGeometryOptions:
          Width: 1
        filterOptions:
          _selectedLayerName: road
          filters: []
          combinerType: 0
        extrusionOptions:
          _selectedLayerName: road
          extrusionType: 5
          extrusionGeometryType: 0
          propertyName: height
          propertyDescription: 
          minimumHeight: 0
          maximumHeight: 2
          extrusionScaleFactor: 1
        colliderOptions:
          colliderType: 0
        materialOptions:
          style: 0
          texturingType: 0
          materials:
          - Materials:
            - {fileID: 2100000, guid: 8e8afdee0a225a84282f04f2fb89b8b6, type: 2}
          - Materials:
            - {fileID: 2100000, guid: b00db1eb69ea64eb4adb30b2c0fb01cb, type: 2}
          atlasInfo: {fileID: 0}
          lightStyleOpacity: 1
          darkStyleOpacity: 1
          colorStyleColor: {r: 1, g: 1, b: 1, a: 1}
          samplePalettes: 0
          colorPalette: {fileID: 0}
          customStyleOptions:
            texturingType: 0
            materials:
            - Materials:
              - {fileID: 0}
            - Materials:
              - {fileID: 0}
            atlasInfo: {fileID: 0}
            colorPalette: {fileID: 0}
        performanceOptions:
          isEnabled: 1
          entityPerCoroutine: 20
        honorBuildingIdSetting: 0
        buildingsWithUniqueIds: 0
        moveFeaturePositionTo: 0
        MeshModifiers: []
        GoModifiers: []
        presetFeatureType: 1
        _maskValue: 0
        selectedTypes: 
      - coreOptions:
          sourceId: 
          isActive: 0
          sublayerName: PTAL0
          geometryType: 2
          layerName: PTAL-a02jjs
          snapToTerrain: 1
          combineMeshes: 1
        lineGeometryOptions:
          Width: 0
        filterOptions:
          _selectedLayerName: PTAL-a02jjs
          filters:
          - Key: PTAL
            KeyDescription: String
            PropertyValue: 0
            Min: 0
            Max: 0
            filterOperator: 0
          combinerType: 0
        extrusionOptions:
          _selectedLayerName: PTAL-a02jjs
          extrusionType: 5
          extrusionGeometryType: 0
          propertyName: height
          propertyDescription: Unavailable in Selected Layer.
          minimumHeight: 0
          maximumHeight: 2
          extrusionScaleFactor: 1
        colliderOptions:
          colliderType: 0
        materialOptions:
          style: 7
          texturingType: 0
          materials:
          - Materials:
            - {fileID: 0}
          - Materials:
            - {fileID: 0}
          atlasInfo: {fileID: 11400000, guid: 414754d7155df47beb52ca117a774f21, type: 2}
          lightStyleOpacity: 1
          darkStyleOpacity: 1
          colorStyleColor: {r: 0, g: 0, b: 0.015686275, a: 1}
          samplePalettes: 0
          colorPalette: {fileID: 11400000, guid: 57bdfa37edf7a4f7f999d19443497554,
            type: 2}
          customStyleOptions:
            texturingType: 0
            materials: []
            atlasInfo: {fileID: 0}
            colorPalette: {fileID: 0}
        performanceOptions:
          isEnabled: 1
          entityPerCoroutine: 20
        honorBuildingIdSetting: 1
        buildingsWithUniqueIds: 0
        moveFeaturePositionTo: 0
        MeshModifiers: []
        GoModifiers:
        - {fileID: 11400000, guid: 96275e93f0c941a499ee77d110d8f454, type: 2}
        - {fileID: 11400000, guid: f855461a736a1fe46a7f8bd88b8bdafb, type: 2}
        - {fileID: 11400000, guid: ab870375aeba9a64bb3d990cbe9301c5, type: 2}
        presetFeatureType: 4
        _maskValue: 0
        selectedTypes: 
      - coreOptions:
          sourceId: 
          isActive: 0
          sublayerName: PTAL1a
          geometryType: 2
          layerName: PTAL-a02jjs
          snapToTerrain: 1
          combineMeshes: 1
        lineGeometryOptions:
          Width: 0
        filterOptions:
          _selectedLayerName: PTAL-a02jjs
          filters:
          - Key: PTAL
            KeyDescription: String
            PropertyValue: 1a
            Min: 5
            Max: 15
            filterOperator: 0
          combinerType: 0
        extrusionOptions:
          _selectedLayerName: PTAL-a02jjs
          extrusionType: 5
          extrusionGeometryType: 0
          propertyName: height
          propertyDescription: Unavailable in Selected Layer.
          minimumHeight: 0
          maximumHeight: 2
          extrusionScaleFactor: 1
        colliderOptions:
          colliderType: 0
        materialOptions:
          style: 7
          texturingType: 0
          materials:
          - Materials:
            - {fileID: 0}
          - Materials:
            - {fileID: 0}
          atlasInfo: {fileID: 11400000, guid: 414754d7155df47beb52ca117a774f21, type: 2}
          lightStyleOpacity: 1
          darkStyleOpacity: 1
          colorStyleColor: {r: 0.10588236, g: 0.043137256, b: 0.25490198, a: 1}
          samplePalettes: 0
          colorPalette: {fileID: 11400000, guid: 57bdfa37edf7a4f7f999d19443497554,
            type: 2}
          customStyleOptions:
            texturingType: 0
            materials: []
            atlasInfo: {fileID: 0}
            colorPalette: {fileID: 0}
        performanceOptions:
          isEnabled: 1
          entityPerCoroutine: 20
        honorBuildingIdSetting: 1
        buildingsWithUniqueIds: 0
        moveFeaturePositionTo: 0
        MeshModifiers: []
        GoModifiers:
        - {fileID: 11400000, guid: be3f1e78dcfdc9b41af4e6d4f61ff0bf, type: 2}
        - {fileID: 11400000, guid: f855461a736a1fe46a7f8bd88b8bdafb, type: 2}
        - {fileID: 11400000, guid: ab870375aeba9a64bb3d990cbe9301c5, type: 2}
        presetFeatureType: 4
        _maskValue: 0
        selectedTypes: 
      - coreOptions:
          sourceId: 
          isActive: 0
          sublayerName: PTAL1b
          geometryType: 2
          layerName: PTAL-a02jjs
          snapToTerrain: 1
          combineMeshes: 1
        lineGeometryOptions:
          Width: 0
        filterOptions:
          _selectedLayerName: PTAL-a02jjs
          filters:
          - Key: PTAL
            KeyDescription: String
            PropertyValue: 1b
            Min: 15
            Max: 25
            filterOperator: 0
          combinerType: 0
        extrusionOptions:
          _selectedLayerName: PTAL-a02jjs
          extrusionType: 5
          extrusionGeometryType: 0
          propertyName: Lower
          propertyDescription: Number
          minimumHeight: 0
          maximumHeight: 2
          extrusionScaleFactor: 1
        colliderOptions:
          colliderType: 0
        materialOptions:
          style: 7
          texturingType: 0
          materials:
          - Materials:
            - {fileID: 0}
          - Materials:
            - {fileID: 0}
          atlasInfo: {fileID: 11400000, guid: 414754d7155df47beb52ca117a774f21, type: 2}
          lightStyleOpacity: 1
          darkStyleOpacity: 1
          colorStyleColor: {r: 0.29411766, g: 0.04705883, b: 0.41960788, a: 1}
          samplePalettes: 0
          colorPalette: {fileID: 11400000, guid: 57bdfa37edf7a4f7f999d19443497554,
            type: 2}
          customStyleOptions:
            texturingType: 0
            materials: []
            atlasInfo: {fileID: 0}
            colorPalette: {fileID: 0}
        performanceOptions:
          isEnabled: 1
          entityPerCoroutine: 20
        honorBuildingIdSetting: 1
        buildingsWithUniqueIds: 0
        moveFeaturePositionTo: 0
        MeshModifiers: []
        GoModifiers:
        - {fileID: 11400000, guid: 5e0232e42cedca049a7f9ca250942f47, type: 2}
        - {fileID: 11400000, guid: f855461a736a1fe46a7f8bd88b8bdafb, type: 2}
        - {fileID: 11400000, guid: ab870375aeba9a64bb3d990cbe9301c5, type: 2}
        presetFeatureType: 4
        _maskValue: 0
        selectedTypes: 
      - coreOptions:
          sourceId: 
          isActive: 0
          sublayerName: PTAL2
          geometryType: 2
          layerName: PTAL-a02jjs
          snapToTerrain: 1
          combineMeshes: 1
        lineGeometryOptions:
          Width: 0
        filterOptions:
          _selectedLayerName: PTAL-a02jjs
          filters:
          - Key: PTAL
            KeyDescription: Unavailable in Selected Layer.
            PropertyValue: 2
            Min: 25
            Max: 40
            filterOperator: 0
          combinerType: 0
        extrusionOptions:
          _selectedLayerName: PTAL-a02jjs
          extrusionType: 5
          extrusionGeometryType: 0
          propertyName: height
          propertyDescription: Unavailable in Selected Layer.
          minimumHeight: 0
          maximumHeight: 2
          extrusionScaleFactor: 1
        colliderOptions:
          colliderType: 0
        materialOptions:
          style: 7
          texturingType: 0
          materials:
          - Materials:
            - {fileID: 0}
          - Materials:
            - {fileID: 0}
          atlasInfo: {fileID: 11400000, guid: 414754d7155df47beb52ca117a774f21, type: 2}
          lightStyleOpacity: 1
          darkStyleOpacity: 1
          colorStyleColor: {r: 0.47058827, g: 0.10980393, b: 0.427451, a: 1}
          samplePalettes: 0
          colorPalette: {fileID: 11400000, guid: 57bdfa37edf7a4f7f999d19443497554,
            type: 2}
          customStyleOptions:
            texturingType: 0
            materials: []
            atlasInfo: {fileID: 0}
            colorPalette: {fileID: 0}
        performanceOptions:
          isEnabled: 1
          entityPerCoroutine: 20
        honorBuildingIdSetting: 1
        buildingsWithUniqueIds: 0
        moveFeaturePositionTo: 0
        MeshModifiers: []
        GoModifiers:
        - {fileID: 11400000, guid: 6b8c73e2bf38a7848a1ef98f8866dd58, type: 2}
        - {fileID: 11400000, guid: f855461a736a1fe46a7f8bd88b8bdafb, type: 2}
        - {fileID: 11400000, guid: ab870375aeba9a64bb3d990cbe9301c5, type: 2}
        presetFeatureType: 4
        _maskValue: 0
        selectedTypes: 
      - coreOptions:
          sourceId: 
          isActive: 0
          sublayerName: PTAL3
          geometryType: 2
          layerName: PTAL-a02jjs
          snapToTerrain: 1
          combineMeshes: 1
        lineGeometryOptions:
          Width: 0
        filterOptions:
          _selectedLayerName: PTAL-a02jjs
          filters:
          - Key: PTAL
            KeyDescription: String
            PropertyValue: 3
            Min: 50
            Max: 0
            filterOperator: 0
          combinerType: 0
        extrusionOptions:
          _selectedLayerName: PTAL-a02jjs
          extrusionType: 5
          extrusionGeometryType: 0
          propertyName: height
          propertyDescription: Unavailable in Selected Layer.
          minimumHeight: 0
          maximumHeight: 2
          extrusionScaleFactor: 1
        colliderOptions:
          colliderType: 0
        materialOptions:
          style: 7
          texturingType: 0
          materials:
          - Materials:
            - {fileID: 0}
          - Materials:
            - {fileID: 0}
          atlasInfo: {fileID: 11400000, guid: 414754d7155df47beb52ca117a774f21, type: 2}
          lightStyleOpacity: 1
          darkStyleOpacity: 1
          colorStyleColor: {r: 0.64705884, g: 0.17254902, b: 0.37647063, a: 1}
          samplePalettes: 0
          colorPalette: {fileID: 11400000, guid: 57bdfa37edf7a4f7f999d19443497554,
            type: 2}
          customStyleOptions:
            texturingType: 0
            materials: []
            atlasInfo: {fileID: 0}
            colorPalette: {fileID: 0}
        performanceOptions:
          isEnabled: 1
          entityPerCoroutine: 20
        honorBuildingIdSetting: 1
        buildingsWithUniqueIds: 0
        moveFeaturePositionTo: 0
        MeshModifiers: []
        GoModifiers:
        - {fileID: 11400000, guid: 5950c31582d0b144eaca02125f5d6951, type: 2}
        - {fileID: 11400000, guid: f855461a736a1fe46a7f8bd88b8bdafb, type: 2}
        - {fileID: 11400000, guid: ab870375aeba9a64bb3d990cbe9301c5, type: 2}
        presetFeatureType: 4
        _maskValue: 0
        selectedTypes: 
      - coreOptions:
          sourceId: 
          isActive: 0
          sublayerName: PTAL4
          geometryType: 2
          layerName: PTAL-a02jjs
          snapToTerrain: 1
          combineMeshes: 1
        lineGeometryOptions:
          Width: 1
        filterOptions:
          _selectedLayerName: PTAL-a02jjs
          filters:
          - Key: PTAL
            KeyDescription: String
            PropertyValue: 4
            Min: 0
            Max: 0
            filterOperator: 0
          combinerType: 0
        extrusionOptions:
          _selectedLayerName: PTAL-a02jjs
          extrusionType: 5
          extrusionGeometryType: 0
          propertyName: height
          propertyDescription: Unavailable in Selected Layer.
          minimumHeight: 0
          maximumHeight: 2
          extrusionScaleFactor: 1
        colliderOptions:
          colliderType: 0
        materialOptions:
          style: 7
          texturingType: 0
          materials:
          - Materials:
            - {fileID: 0}
          - Materials:
            - {fileID: 0}
          atlasInfo: {fileID: 0}
          lightStyleOpacity: 1
          darkStyleOpacity: 1
          colorStyleColor: {r: 0.8117648, g: 0.2627451, b: 0.27450982, a: 1}
          samplePalettes: 0
          colorPalette: {fileID: 0}
          customStyleOptions:
            texturingType: 0
            materials:
            - Materials:
              - {fileID: 0}
            - Materials:
              - {fileID: 0}
            atlasInfo: {fileID: 11400000, guid: 414754d7155df47beb52ca117a774f21,
              type: 2}
            colorPalette: {fileID: 11400000, guid: 57bdfa37edf7a4f7f999d19443497554,
              type: 2}
        performanceOptions:
          isEnabled: 1
          entityPerCoroutine: 20
        honorBuildingIdSetting: 1
        buildingsWithUniqueIds: 0
        moveFeaturePositionTo: 0
        MeshModifiers: []
        GoModifiers:
        - {fileID: 11400000, guid: fed4e22397f9fc2479705228500d29af, type: 2}
        - {fileID: 11400000, guid: f855461a736a1fe46a7f8bd88b8bdafb, type: 2}
        - {fileID: 11400000, guid: ab870375aeba9a64bb3d990cbe9301c5, type: 2}
        presetFeatureType: 4
        _maskValue: 0
        selectedTypes: 
      - coreOptions:
          sourceId: 
          isActive: 0
          sublayerName: PTAL5
          geometryType: 2
          layerName: PTAL-a02jjs
          snapToTerrain: 1
          combineMeshes: 1
        lineGeometryOptions:
          Width: 1
        filterOptions:
          _selectedLayerName: PTAL-a02jjs
          filters:
          - Key: PTAL
            KeyDescription: String
            PropertyValue: 5
            Min: 0
            Max: 0
            filterOperator: 0
          combinerType: 0
        extrusionOptions:
          _selectedLayerName: PTAL-a02jjs
          extrusionType: 5
          extrusionGeometryType: 0
          propertyName: height
          propertyDescription: Unavailable in Selected Layer.
          minimumHeight: 0
          maximumHeight: 2
          extrusionScaleFactor: 1
        colliderOptions:
          colliderType: 0
        materialOptions:
          style: 7
          texturingType: 0
          materials:
          - Materials:
            - {fileID: 0}
          - Materials:
            - {fileID: 0}
          atlasInfo: {fileID: 0}
          lightStyleOpacity: 1
          darkStyleOpacity: 1
          colorStyleColor: {r: 0.9294118, g: 0.41176474, b: 0.14509805, a: 1}
          samplePalettes: 0
          colorPalette: {fileID: 0}
          customStyleOptions:
            texturingType: 0
            materials:
            - Materials:
              - {fileID: 0}
            - Materials:
              - {fileID: 0}
            atlasInfo: {fileID: 11400000, guid: 414754d7155df47beb52ca117a774f21,
              type: 2}
            colorPalette: {fileID: 11400000, guid: 57bdfa37edf7a4f7f999d19443497554,
              type: 2}
        performanceOptions:
          isEnabled: 1
          entityPerCoroutine: 20
        honorBuildingIdSetting: 1
        buildingsWithUniqueIds: 0
        moveFeaturePositionTo: 0
        MeshModifiers: []
        GoModifiers:
        - {fileID: 11400000, guid: bd622598c5d2d2f4d88def88ab0870f3, type: 2}
        - {fileID: 11400000, guid: f855461a736a1fe46a7f8bd88b8bdafb, type: 2}
        - {fileID: 11400000, guid: ab870375aeba9a64bb3d990cbe9301c5, type: 2}
        presetFeatureType: 4
        _maskValue: 0
        selectedTypes: 
      - coreOptions:
          sourceId: 
          isActive: 0
          sublayerName: PTAL6a
          geometryType: 2
          layerName: PTAL-a02jjs
          snapToTerrain: 1
          combineMeshes: 1
        lineGeometryOptions:
          Width: 1
        filterOptions:
          _selectedLayerName: PTAL-a02jjs
          filters:
          - Key: PTAL
            KeyDescription: String
            PropertyValue: 6a
            Min: 0
            Max: 0
            filterOperator: 0
          combinerType: 0
        extrusionOptions:
          _selectedLayerName: PTAL-a02jjs
          extrusionType: 5
          extrusionGeometryType: 0
          propertyName: height
          propertyDescription: Unavailable in Selected Layer.
          minimumHeight: 0
          maximumHeight: 2
          extrusionScaleFactor: 1
        colliderOptions:
          colliderType: 0
        materialOptions:
          style: 7
          texturingType: 0
          materials:
          - Materials:
            - {fileID: 0}
          - Materials:
            - {fileID: 0}
          atlasInfo: {fileID: 0}
          lightStyleOpacity: 1
          darkStyleOpacity: 1
          colorStyleColor: {r: 0.9843138, g: 0.6039216, b: 0.027450982, a: 1}
          samplePalettes: 0
          colorPalette: {fileID: 0}
          customStyleOptions:
            texturingType: 0
            materials:
            - Materials:
              - {fileID: 0}
            - Materials:
              - {fileID: 0}
            atlasInfo: {fileID: 11400000, guid: 414754d7155df47beb52ca117a774f21,
              type: 2}
            colorPalette: {fileID: 11400000, guid: 57bdfa37edf7a4f7f999d19443497554,
              type: 2}
        performanceOptions:
          isEnabled: 1
          entityPerCoroutine: 20
        honorBuildingIdSetting: 1
        buildingsWithUniqueIds: 0
        moveFeaturePositionTo: 0
        MeshModifiers: []
        GoModifiers:
        - {fileID: 11400000, guid: 54a4e075959b0bd4ea9e4c028c101bfe, type: 2}
        - {fileID: 11400000, guid: f855461a736a1fe46a7f8bd88b8bdafb, type: 2}
        - {fileID: 11400000, guid: ab870375aeba9a64bb3d990cbe9301c5, type: 2}
        presetFeatureType: 4
        _maskValue: 0
        selectedTypes: 
      - coreOptions:
          sourceId: 
          isActive: 0
          sublayerName: PTAL6b
          geometryType: 2
          layerName: PTAL-a02jjs
          snapToTerrain: 1
          combineMeshes: 1
        lineGeometryOptions:
          Width: 1
        filterOptions:
          _selectedLayerName: PTAL-a02jjs
          filters:
          - Key: PTAL
            KeyDescription: String
            PropertyValue: 6b
            Min: 0
            Max: 0
            filterOperator: 0
          combinerType: 0
        extrusionOptions:
          _selectedLayerName: PTAL-a02jjs
          extrusionType: 5
          extrusionGeometryType: 0
          propertyName: height
          propertyDescription: Unavailable in Selected Layer.
          minimumHeight: 0
          maximumHeight: 2
          extrusionScaleFactor: 1
        colliderOptions:
          colliderType: 0
        materialOptions:
          style: 7
          texturingType: 0
          materials:
          - Materials:
            - {fileID: 0}
          - Materials:
            - {fileID: 0}
          atlasInfo: {fileID: 0}
          lightStyleOpacity: 1
          darkStyleOpacity: 1
          colorStyleColor: {r: 0.9725491, g: 0.8196079, b: 0.23529413, a: 1}
          samplePalettes: 0
          colorPalette: {fileID: 0}
          customStyleOptions:
            texturingType: 0
            materials:
            - Materials:
              - {fileID: 0}
            - Materials:
              - {fileID: 0}
            atlasInfo: {fileID: 11400000, guid: 414754d7155df47beb52ca117a774f21,
              type: 2}
            colorPalette: {fileID: 11400000, guid: 57bdfa37edf7a4f7f999d19443497554,
              type: 2}
        performanceOptions:
          isEnabled: 1
          entityPerCoroutine: 20
        honorBuildingIdSetting: 1
        buildingsWithUniqueIds: 0
        moveFeaturePositionTo: 0
        MeshModifiers: []
        GoModifiers:
        - {fileID: 11400000, guid: 61b3867ccebb5a54eac3670f42324139, type: 2}
        - {fileID: 11400000, guid: f855461a736a1fe46a7f8bd88b8bdafb, type: 2}
        - {fileID: 11400000, guid: ab870375aeba9a64bb3d990cbe9301c5, type: 2}
        presetFeatureType: 4
        _maskValue: 0
        selectedTypes: 
      - coreOptions:
          sourceId: 
          isActive: 0
          sublayerName: Buildings
          geometryType: 2
          layerName: Buildings_wgs
          snapToTerrain: 1
          combineMeshes: 0
        lineGeometryOptions:
          Width: 1
        filterOptions:
          _selectedLayerName: Buildings_wgs
          filters: []
          combinerType: 0
        extrusionOptions:
          _selectedLayerName: Buildings_wgs
          extrusionType: 1
          extrusionGeometryType: 0
          propertyName: relhmax
          propertyDescription: Number
          minimumHeight: 0
          maximumHeight: 1
          extrusionScaleFactor: 1
        colliderOptions:
          colliderType: 0
        materialOptions:
          style: 0
          texturingType: 0
          materials:
          - Materials:
            - {fileID: 0}
          - Materials:
            - {fileID: 0}
          atlasInfo: {fileID: 0}
          lightStyleOpacity: 1
          darkStyleOpacity: 1
          colorStyleColor: {r: 0.9725491, g: 0.8196079, b: 0.23529413, a: 1}
          samplePalettes: 0
          colorPalette: {fileID: 0}
          customStyleOptions:
            texturingType: 0
            materials:
            - Materials:
              - {fileID: 2100000, guid: 7bca4318e773ec84fbd3bc766d36c797, type: 2}
            - Materials:
              - {fileID: 2100000, guid: 7bca4318e773ec84fbd3bc766d36c797, type: 2}
            atlasInfo: {fileID: 11400000, guid: 414754d7155df47beb52ca117a774f21,
              type: 2}
            colorPalette: {fileID: 11400000, guid: 57bdfa37edf7a4f7f999d19443497554,
              type: 2}
        performanceOptions:
          isEnabled: 1
          entityPerCoroutine: 20
        honorBuildingIdSetting: 1
        buildingsWithUniqueIds: 0
        moveFeaturePositionTo: 0
        MeshModifiers: []
        GoModifiers: []
        presetFeatureType: 4
        _maskValue: 0
        selectedTypes: 
      - coreOptions:
          sourceId: 
          isActive: 0
          sublayerName: Trees
          geometryType: 0
          layerName: london_street_trees_gla_20180-896390
          snapToTerrain: 1
          combineMeshes: 0
        lineGeometryOptions:
          Width: 1
        filterOptions:
          _selectedLayerName: london_street_trees_gla_20180-896390
          filters: []
          combinerType: 0
        extrusionOptions:
          _selectedLayerName: london_3d-6pn53c
          extrusionType: 0
          extrusionGeometryType: 0
          propertyName: height
          propertyDescription: Number
          minimumHeight: 0
          maximumHeight: 1
          extrusionScaleFactor: 1
        colliderOptions:
          colliderType: 0
        materialOptions:
          style: 0
          texturingType: 0
          materials:
          - Materials:
            - {fileID: 0}
          - Materials:
            - {fileID: 0}
          atlasInfo: {fileID: 0}
          lightStyleOpacity: 1
          darkStyleOpacity: 1
          colorStyleColor: {r: 0.9725491, g: 0.8196079, b: 0.23529413, a: 1}
          samplePalettes: 0
          colorPalette: {fileID: 0}
          customStyleOptions:
            texturingType: 0
            materials:
            - Materials:
              - {fileID: 0}
            - Materials:
              - {fileID: 0}
            atlasInfo: {fileID: 11400000, guid: 414754d7155df47beb52ca117a774f21,
              type: 2}
            colorPalette: {fileID: 11400000, guid: 57bdfa37edf7a4f7f999d19443497554,
              type: 2}
        performanceOptions:
          isEnabled: 1
          entityPerCoroutine: 20
        honorBuildingIdSetting: 0
        buildingsWithUniqueIds: 1
        moveFeaturePositionTo: 0
        MeshModifiers: []
        GoModifiers:
        - {fileID: 11400000, guid: 69c9fbc203d6e934ea944041d43ea709, type: 2}
        - {fileID: 11400000, guid: 3106c57fa0b26cd4786024ea15868504, type: 2}
        - {fileID: 11400000, guid: f47184cddd3cdde499189cce2d5f3448, type: 2}
        - {fileID: 11400000, guid: fb2fd9103a30d7949af2bddd6e0fb49f, type: 2}
        - {fileID: 11400000, guid: 0d5ab4f69043dc145abed85c9953a9cc, type: 2}
        presetFeatureType: 4
        _maskValue: 0
        selectedTypes: 
      - coreOptions:
          sourceId: 
          isActive: 0
          sublayerName: Air_Quality_Focus_Areas
          geometryType: 2
          layerName: AirQualityFocusAreas-9rfmdr
          snapToTerrain: 1
          combineMeshes: 0
        lineGeometryOptions:
          Width: 1
        filterOptions:
          _selectedLayerName: AirQualityFocusAreas-9rfmdr
          filters: []
          combinerType: 0
        extrusionOptions:
          _selectedLayerName: AirQualityFocusAreas-87fq4z
          extrusionType: 5
          extrusionGeometryType: 0
          propertyName: height
          propertyDescription: Number
          minimumHeight: 0
          maximumHeight: 0.3
          extrusionScaleFactor: 1
        colliderOptions:
          colliderType: 0
        materialOptions:
          style: 7
          texturingType: 0
          materials:
          - Materials:
            - {fileID: 0}
          - Materials:
            - {fileID: 0}
          atlasInfo: {fileID: 0}
          lightStyleOpacity: 1
          darkStyleOpacity: 1
          colorStyleColor: {r: 0.65882355, g: 1, b: 0.92156863, a: 1}
          samplePalettes: 0
          colorPalette: {fileID: 0}
          customStyleOptions:
            texturingType: 0
            materials:
            - Materials:
              - {fileID: 0}
            - Materials:
              - {fileID: 0}
            atlasInfo: {fileID: 11400000, guid: 414754d7155df47beb52ca117a774f21,
              type: 2}
            colorPalette: {fileID: 11400000, guid: 57bdfa37edf7a4f7f999d19443497554,
              type: 2}
        performanceOptions:
          isEnabled: 1
          entityPerCoroutine: 20
        honorBuildingIdSetting: 1
        buildingsWithUniqueIds: 1
        moveFeaturePositionTo: 0
        MeshModifiers: []
        GoModifiers: []
        presetFeatureType: 4
        _maskValue: 0
        selectedTypes: 
      - coreOptions:
          sourceId: 
          isActive: 0
          sublayerName: Flood_Warning_Areas
          geometryType: 2
          layerName: FloodWarningAreasUK-bshnli
          snapToTerrain: 1
          combineMeshes: 0
        lineGeometryOptions:
          Width: 1
        filterOptions:
          _selectedLayerName: FloodWarningAreasUK-bshnli
          filters: []
          combinerType: 0
        extrusionOptions:
          _selectedLayerName: FloodWarningAreasUK-bshnli
          extrusionType: 5
          extrusionGeometryType: 0
          propertyName: height
          propertyDescription: Number
          minimumHeight: 0
          maximumHeight: 0.3
          extrusionScaleFactor: 1
        colliderOptions:
          colliderType: 0
        materialOptions:
          style: 7
          texturingType: 0
          materials:
          - Materials:
            - {fileID: 0}
          - Materials:
            - {fileID: 0}
          atlasInfo: {fileID: 0}
          lightStyleOpacity: 1
          darkStyleOpacity: 1
          colorStyleColor: {r: 0.5518868, g: 0.8866219, b: 1, a: 1}
          samplePalettes: 0
          colorPalette: {fileID: 0}
          customStyleOptions:
            texturingType: 0
            materials:
            - Materials:
              - {fileID: 0}
            - Materials:
              - {fileID: 0}
            atlasInfo: {fileID: 11400000, guid: 414754d7155df47beb52ca117a774f21,
              type: 2}
            colorPalette: {fileID: 11400000, guid: 57bdfa37edf7a4f7f999d19443497554,
              type: 2}
        performanceOptions:
          isEnabled: 1
          entityPerCoroutine: 20
        honorBuildingIdSetting: 1
        buildingsWithUniqueIds: 0
        moveFeaturePositionTo: 0
        MeshModifiers: []
        GoModifiers: []
        presetFeatureType: 4
        _maskValue: 0
        selectedTypes: 
      - coreOptions:
          sourceId: 
          isActive: 0
          sublayerName: Historic_Flood_Map
          geometryType: 2
          layerName: HistoricFloodMapUK-bywbcc
          snapToTerrain: 1
          combineMeshes: 0
        lineGeometryOptions:
          Width: 1
        filterOptions:
          _selectedLayerName: HistoricFloodMapUK-bywbcc
          filters: []
          combinerType: 0
        extrusionOptions:
          _selectedLayerName: HistoricFloodMapUK-bywbcc
          extrusionType: 5
          extrusionGeometryType: 0
          propertyName: height
          propertyDescription: Number
          minimumHeight: 0
          maximumHeight: 0.2
          extrusionScaleFactor: 1
        colliderOptions:
          colliderType: 0
        materialOptions:
          style: 7
          texturingType: 0
          materials:
          - Materials:
            - {fileID: 0}
          - Materials:
            - {fileID: 0}
          atlasInfo: {fileID: 0}
          lightStyleOpacity: 1
          darkStyleOpacity: 1
          colorStyleColor: {r: 0.2627451, g: 0.68235296, b: 0.81960785, a: 1}
          samplePalettes: 0
          colorPalette: {fileID: 0}
          customStyleOptions:
            texturingType: 0
            materials:
            - Materials:
              - {fileID: 0}
            - Materials:
              - {fileID: 0}
            atlasInfo: {fileID: 11400000, guid: 414754d7155df47beb52ca117a774f21,
              type: 2}
            colorPalette: {fileID: 11400000, guid: 57bdfa37edf7a4f7f999d19443497554,
              type: 2}
        performanceOptions:
          isEnabled: 1
          entityPerCoroutine: 20
        honorBuildingIdSetting: 1
        buildingsWithUniqueIds: 0
        moveFeaturePositionTo: 0
        MeshModifiers: []
        GoModifiers: []
        presetFeatureType: 4
        _maskValue: 0
        selectedTypes: 
      - coreOptions:
          sourceId: 
          isActive: 0
          sublayerName: Area_of_Designated_Green_Belt_Land
          geometryType: 2
          layerName: 2011_Greenbelt-dtp6lf
          snapToTerrain: 1
          combineMeshes: 0
        lineGeometryOptions:
          Width: 1
        filterOptions:
          _selectedLayerName: 2011_Greenbelt-dtp6lf
          filters: []
          combinerType: 0
        extrusionOptions:
          _selectedLayerName: 2011_Greenbelt-322fxi
          extrusionType: 5
          extrusionGeometryType: 0
          propertyName: height
          propertyDescription: Number
          minimumHeight: 0
          maximumHeight: 0.2
          extrusionScaleFactor: 1
        colliderOptions:
          colliderType: 0
        materialOptions:
          style: 7
          texturingType: 0
          materials:
          - Materials:
            - {fileID: 0}
          - Materials:
            - {fileID: 0}
          atlasInfo: {fileID: 0}
          lightStyleOpacity: 1
          darkStyleOpacity: 1
          colorStyleColor: {r: 0.20784314, g: 0.5647059, b: 0.43137255, a: 1}
          samplePalettes: 0
          colorPalette: {fileID: 0}
          customStyleOptions:
            texturingType: 0
            materials:
            - Materials:
              - {fileID: 0}
            - Materials:
              - {fileID: 0}
            atlasInfo: {fileID: 11400000, guid: 414754d7155df47beb52ca117a774f21,
              type: 2}
            colorPalette: {fileID: 11400000, guid: 57bdfa37edf7a4f7f999d19443497554,
              type: 2}
        performanceOptions:
          isEnabled: 1
          entityPerCoroutine: 20
        honorBuildingIdSetting: 1
        buildingsWithUniqueIds: 1
        moveFeaturePositionTo: 0
        MeshModifiers: []
        GoModifiers: []
        presetFeatureType: 4
        _maskValue: 0
        selectedTypes: 
      - coreOptions:
          sourceId: 
          isActive: 0
          sublayerName: Height_Restrictions
          geometryType: 0
          layerName: height-restrictions-in-london-322h6u
          snapToTerrain: 1
          combineMeshes: 0
        lineGeometryOptions:
          Width: 1
        filterOptions:
          _selectedLayerName: height-restrictions-in-london-322h6u
          filters: []
          combinerType: 0
        extrusionOptions:
          _selectedLayerName: 2011_Greenbelt-322fxi
          extrusionType: 0
          extrusionGeometryType: 0
          propertyName: height
          propertyDescription: Number
          minimumHeight: 0
          maximumHeight: 1
          extrusionScaleFactor: 1
        colliderOptions:
          colliderType: 0
        materialOptions:
          style: 0
          texturingType: 0
          materials:
          - Materials:
            - {fileID: 0}
          - Materials:
            - {fileID: 0}
          atlasInfo: {fileID: 0}
          lightStyleOpacity: 1
          darkStyleOpacity: 1
          colorStyleColor: {r: 0.20784314, g: 0.5647059, b: 0.43137255, a: 1}
          samplePalettes: 0
          colorPalette: {fileID: 0}
          customStyleOptions:
            texturingType: 0
            materials:
            - Materials:
              - {fileID: 0}
            - Materials:
              - {fileID: 0}
            atlasInfo: {fileID: 11400000, guid: 414754d7155df47beb52ca117a774f21,
              type: 2}
            colorPalette: {fileID: 11400000, guid: 57bdfa37edf7a4f7f999d19443497554,
              type: 2}
        performanceOptions:
          isEnabled: 1
          entityPerCoroutine: 20
        honorBuildingIdSetting: 0
        buildingsWithUniqueIds: 1
        moveFeaturePositionTo: 0
        MeshModifiers: []
        GoModifiers:
        - {fileID: 11400000, guid: 7403f497958a30841963928d840f791b, type: 2}
        - {fileID: 11400000, guid: 69c9fbc203d6e934ea944041d43ea709, type: 2}
        presetFeatureType: 4
        _maskValue: 0
        selectedTypes: 
      - coreOptions:
          sourceId: 
          isActive: 0
          sublayerName: Avg_Road_Width
          geometryType: 1
          layerName: RoadLink_wgs-543ffq
          snapToTerrain: 1
          combineMeshes: 0
        lineGeometryOptions:
          Width: 1
        filterOptions:
          _selectedLayerName: RoadLink_wgs-543ffq
          filters: []
          combinerType: 0
        extrusionOptions:
          _selectedLayerName: RoadLink_wgs-543ffq
          extrusionType: 0
          extrusionGeometryType: 0
          propertyName: height
          propertyDescription: Number
          minimumHeight: 0
          maximumHeight: 1
          extrusionScaleFactor: 1
        colliderOptions:
          colliderType: 0
        materialOptions:
          style: 7
          texturingType: 0
          materials:
          - Materials:
            - {fileID: 0}
          - Materials:
            - {fileID: 0}
          atlasInfo: {fileID: 0}
          lightStyleOpacity: 1
          darkStyleOpacity: 1
          colorStyleColor: {r: 0.5660378, g: 0.5660378, b: 0.5660378, a: 1}
          samplePalettes: 0
          colorPalette: {fileID: 0}
          customStyleOptions:
            texturingType: 0
            materials:
            - Materials:
              - {fileID: 0}
            - Materials:
              - {fileID: 0}
            atlasInfo: {fileID: 11400000, guid: 414754d7155df47beb52ca117a774f21,
              type: 2}
            colorPalette: {fileID: 11400000, guid: 57bdfa37edf7a4f7f999d19443497554,
              type: 2}
        performanceOptions:
          isEnabled: 1
          entityPerCoroutine: 20
        honorBuildingIdSetting: 0
        buildingsWithUniqueIds: 1
        moveFeaturePositionTo: 0
        MeshModifiers:
        - {fileID: 11400000, guid: a47226eb2a9783d4494c3ca14696f7d0, type: 2}
        GoModifiers:
        - {fileID: 11400000, guid: 69c9fbc203d6e934ea944041d43ea709, type: 2}
        - {fileID: 11400000, guid: 77ede8012f2b2fc47bae13879a7c2a45, type: 2}
        presetFeatureType: 4
        _maskValue: 0
        selectedTypes: 
      - coreOptions:
          sourceId: 
          isActive: 0
          sublayerName: Road_Directionality
          geometryType: 1
          layerName: RoadLink_wgs-543ffq
          snapToTerrain: 1
          combineMeshes: 0
        lineGeometryOptions:
          Width: 4
        filterOptions:
          _selectedLayerName: RoadLink_wgs-543ffq
          filters: []
          combinerType: 0
        extrusionOptions:
          _selectedLayerName: RoadLink_wgs-543ffq
          extrusionType: 5
          extrusionGeometryType: 1
          propertyName: height
          propertyDescription: Number
          minimumHeight: 0
          maximumHeight: 0.1
          extrusionScaleFactor: 1
        colliderOptions:
          colliderType: 0
        materialOptions:
          style: 7
          texturingType: 0
          materials:
          - Materials:
            - {fileID: 0}
          - Materials:
            - {fileID: 0}
          atlasInfo: {fileID: 0}
          lightStyleOpacity: 1
          darkStyleOpacity: 1
          colorStyleColor: {r: 0, g: 1, b: 1, a: 1}
          samplePalettes: 0
          colorPalette: {fileID: 0}
          customStyleOptions:
            texturingType: 0
            materials:
            - Materials:
              - {fileID: 0}
            - Materials:
              - {fileID: 0}
            atlasInfo: {fileID: 11400000, guid: 414754d7155df47beb52ca117a774f21,
              type: 2}
            colorPalette: {fileID: 11400000, guid: 57bdfa37edf7a4f7f999d19443497554,
              type: 2}
        performanceOptions:
          isEnabled: 1
          entityPerCoroutine: 20
        honorBuildingIdSetting: 0
        buildingsWithUniqueIds: 1
        moveFeaturePositionTo: 0
        MeshModifiers:
        - {fileID: 11400000, guid: d31b2cb2a75a54d5bb6402fe0bd8c6cf, type: 2}
        - {fileID: 11400000, guid: 1ea5fdf71feffd747acbdd283d0784c6, type: 2}
        - {fileID: 11400000, guid: 51f99d677d3e0eb439d2967d1187478a, type: 2}
        GoModifiers:
        - {fileID: 11400000, guid: 69c9fbc203d6e934ea944041d43ea709, type: 2}
        - {fileID: 11400000, guid: 49358b473c86d6a4f80dc525624f9c69, type: 2}
        presetFeatureType: 4
        _maskValue: 0
        selectedTypes: 
      - coreOptions:
          sourceId: 
          isActive: 0
          sublayerName: Average_Road_Width
          geometryType: 0
          layerName: RoadLinkPoints_wgs
          snapToTerrain: 1
          combineMeshes: 0
        lineGeometryOptions:
          Width: 1
        filterOptions:
          _selectedLayerName: RoadLinkPoints_wgs
          filters: []
          combinerType: 0
        extrusionOptions:
          _selectedLayerName: RoadLink_wgs-543ffq
          extrusionType: 0
          extrusionGeometryType: 0
          propertyName: height
          propertyDescription: Number
          minimumHeight: 0
          maximumHeight: 1
          extrusionScaleFactor: 1
        colliderOptions:
          colliderType: 0
        materialOptions:
          style: 0
          texturingType: 0
          materials:
          - Materials:
            - {fileID: 0}
          - Materials:
            - {fileID: 0}
          atlasInfo: {fileID: 0}
          lightStyleOpacity: 1
          darkStyleOpacity: 1
          colorStyleColor: {r: 0, g: 1, b: 1, a: 1}
          samplePalettes: 0
          colorPalette: {fileID: 0}
          customStyleOptions:
            texturingType: 0
            materials:
            - Materials:
              - {fileID: 0}
            - Materials:
              - {fileID: 0}
            atlasInfo: {fileID: 11400000, guid: 414754d7155df47beb52ca117a774f21,
              type: 2}
            colorPalette: {fileID: 11400000, guid: 57bdfa37edf7a4f7f999d19443497554,
              type: 2}
        performanceOptions:
          isEnabled: 1
          entityPerCoroutine: 20
        honorBuildingIdSetting: 0
        buildingsWithUniqueIds: 1
        moveFeaturePositionTo: 0
        MeshModifiers: []
        GoModifiers:
        - {fileID: 11400000, guid: 69c9fbc203d6e934ea944041d43ea709, type: 2}
        - {fileID: 11400000, guid: eef39cac6afe8b04b85f8583f96f510c, type: 2}
        - {fileID: 11400000, guid: a6f122d792c24234fa605338d0469851, type: 2}
        presetFeatureType: 4
        _maskValue: 0
        selectedTypes: 
      - coreOptions:
          sourceId: 
          isActive: 0
          sublayerName: Restrictions_for_Vehicles
          geometryType: 0
          layerName: Highways_RestrictionsForVehic-6c1dd8
          snapToTerrain: 1
          combineMeshes: 0
        lineGeometryOptions:
          Width: 1
        filterOptions:
          _selectedLayerName: Highways_RestrictionsForVehic-6c1dd8
          filters: []
          combinerType: 0
        extrusionOptions:
          _selectedLayerName: RoadLink_wgs-543ffq
          extrusionType: 0
          extrusionGeometryType: 0
          propertyName: height
          propertyDescription: Number
          minimumHeight: 0
          maximumHeight: 1
          extrusionScaleFactor: 1
        colliderOptions:
          colliderType: 0
        materialOptions:
          style: 0
          texturingType: 0
          materials:
          - Materials:
            - {fileID: 0}
          - Materials:
            - {fileID: 0}
          atlasInfo: {fileID: 0}
          lightStyleOpacity: 1
          darkStyleOpacity: 1
          colorStyleColor: {r: 0, g: 1, b: 1, a: 1}
          samplePalettes: 0
          colorPalette: {fileID: 0}
          customStyleOptions:
            texturingType: 0
            materials:
            - Materials:
              - {fileID: 0}
            - Materials:
              - {fileID: 0}
            atlasInfo: {fileID: 11400000, guid: 414754d7155df47beb52ca117a774f21,
              type: 2}
            colorPalette: {fileID: 11400000, guid: 57bdfa37edf7a4f7f999d19443497554,
              type: 2}
        performanceOptions:
          isEnabled: 1
          entityPerCoroutine: 20
        honorBuildingIdSetting: 0
        buildingsWithUniqueIds: 0
        moveFeaturePositionTo: 0
        MeshModifiers: []
        GoModifiers:
        - {fileID: 11400000, guid: 69c9fbc203d6e934ea944041d43ea709, type: 2}
        - {fileID: 11400000, guid: fcdebac76f9d3d544bb860da79813e55, type: 2}
        presetFeatureType: 4
        _maskValue: 0
        selectedTypes: 
      - coreOptions:
          sourceId: 
          isActive: 0
          sublayerName: Pedestrian_Roads_and_Paths
          geometryType: 1
          layerName: PathLink_wgs-8eov9o
          snapToTerrain: 1
          combineMeshes: 0
        lineGeometryOptions:
          Width: 1
        filterOptions:
          _selectedLayerName: PathLink_wgs-8eov9o
          filters: []
          combinerType: 0
        extrusionOptions:
          _selectedLayerName: PathLink_wgs-8eov9o
          extrusionType: 5
          extrusionGeometryType: 0
          propertyName: height
          propertyDescription: Unavailable in Selected Layer.
          minimumHeight: 0
          maximumHeight: 0.2
          extrusionScaleFactor: 1
        colliderOptions:
          colliderType: 0
        materialOptions:
          style: 7
          texturingType: 0
          materials:
          - Materials:
            - {fileID: 0}
          - Materials:
            - {fileID: 0}
          atlasInfo: {fileID: 0}
          lightStyleOpacity: 1
          darkStyleOpacity: 1
          colorStyleColor: {r: 0, g: 1, b: 0, a: 1}
          samplePalettes: 0
          colorPalette: {fileID: 0}
          customStyleOptions:
            texturingType: 0
            materials:
            - Materials:
              - {fileID: 0}
            - Materials:
              - {fileID: 0}
            atlasInfo: {fileID: 11400000, guid: 414754d7155df47beb52ca117a774f21,
              type: 2}
            colorPalette: {fileID: 11400000, guid: 57bdfa37edf7a4f7f999d19443497554,
              type: 2}
        performanceOptions:
          isEnabled: 1
          entityPerCoroutine: 20
        honorBuildingIdSetting: 0
        buildingsWithUniqueIds: 1
        moveFeaturePositionTo: 0
        MeshModifiers:
        - {fileID: 11400000, guid: d31b2cb2a75a54d5bb6402fe0bd8c6cf, type: 2}
        GoModifiers: []
        presetFeatureType: 4
        _maskValue: 0
        selectedTypes: 
      - coreOptions:
          sourceId: 
          isActive: 0
          sublayerName: Natural_Environment
          geometryType: 2
          layerName: Natural_Environment_bng-7a2sma
          snapToTerrain: 1
          combineMeshes: 0
        lineGeometryOptions:
          Width: 1
        filterOptions:
          _selectedLayerName: Natural_Environment_bng-7a2sma
          filters: []
          combinerType: 0
        extrusionOptions:
          _selectedLayerName: Natural_Environment_bng-7a2sma
          extrusionType: 5
          extrusionGeometryType: 0
          propertyName: height
          propertyDescription: Unavailable in Selected Layer.
          minimumHeight: 0
          maximumHeight: 0.2
          extrusionScaleFactor: 1
        colliderOptions:
          colliderType: 0
        materialOptions:
          style: 7
          texturingType: 0
          materials:
          - Materials:
            - {fileID: 0}
          - Materials:
            - {fileID: 0}
          atlasInfo: {fileID: 0}
          lightStyleOpacity: 1
          darkStyleOpacity: 1
          colorStyleColor: {r: 0.81960785, g: 0.9019608, b: 0.63529414, a: 1}
          samplePalettes: 0
          colorPalette: {fileID: 0}
          customStyleOptions:
            texturingType: 0
            materials:
            - Materials:
              - {fileID: 0}
            - Materials:
              - {fileID: 0}
            atlasInfo: {fileID: 11400000, guid: 414754d7155df47beb52ca117a774f21,
              type: 2}
            colorPalette: {fileID: 11400000, guid: 57bdfa37edf7a4f7f999d19443497554,
              type: 2}
        performanceOptions:
          isEnabled: 1
          entityPerCoroutine: 20
        honorBuildingIdSetting: 1
        buildingsWithUniqueIds: 0
        moveFeaturePositionTo: 0
        MeshModifiers: []
        GoModifiers: []
        presetFeatureType: 4
        _maskValue: 0
        selectedTypes: 
      - coreOptions:
          sourceId: 
          isActive: 0
          sublayerName: Land_Structures
          geometryType: 2
          layerName: Land_struct_BNG-64cwnn
          snapToTerrain: 1
          combineMeshes: 0
        lineGeometryOptions:
          Width: 1
        filterOptions:
          _selectedLayerName: Land_struct_BNG-64cwnn
          filters: []
          combinerType: 0
        extrusionOptions:
          _selectedLayerName: Land_struct_BNG-64cwnn
          extrusionType: 5
          extrusionGeometryType: 0
          propertyName: height
          propertyDescription: Unavailable in Selected Layer.
          minimumHeight: 0
          maximumHeight: 0.2
          extrusionScaleFactor: 1
        colliderOptions:
          colliderType: 0
        materialOptions:
          style: 7
          texturingType: 0
          materials:
          - Materials:
            - {fileID: 0}
          - Materials:
            - {fileID: 0}
          atlasInfo: {fileID: 0}
          lightStyleOpacity: 1
          darkStyleOpacity: 1
          colorStyleColor: {r: 0.72925043, g: 0, b: 1, a: 1}
          samplePalettes: 0
          colorPalette: {fileID: 0}
          customStyleOptions:
            texturingType: 0
            materials:
            - Materials:
              - {fileID: 0}
            - Materials:
              - {fileID: 0}
            atlasInfo: {fileID: 11400000, guid: 414754d7155df47beb52ca117a774f21,
              type: 2}
            colorPalette: {fileID: 11400000, guid: 57bdfa37edf7a4f7f999d19443497554,
              type: 2}
        performanceOptions:
          isEnabled: 1
          entityPerCoroutine: 20
        honorBuildingIdSetting: 1
        buildingsWithUniqueIds: 0
        moveFeaturePositionTo: 0
        MeshModifiers: []
        GoModifiers:
        - {fileID: 11400000, guid: 5149fd4ecbe1bdf4f8a584c16b097e5b, type: 2}
        presetFeatureType: 4
        _maskValue: 0
        selectedTypes: 
      - coreOptions:
          sourceId: 
          isActive: 0
          sublayerName: Rail_Lines
          geometryType: 2
          layerName: Rail_OS_bng-dww1f5
          snapToTerrain: 1
          combineMeshes: 0
        lineGeometryOptions:
          Width: 1
        filterOptions:
          _selectedLayerName: Rail_OS_bng-dww1f5
          filters: []
          combinerType: 0
        extrusionOptions:
          _selectedLayerName: Rail_OS_bng-dww1f5
          extrusionType: 5
          extrusionGeometryType: 0
          propertyName: height
          propertyDescription: Unavailable in Selected Layer.
          minimumHeight: 0
          maximumHeight: 1
          extrusionScaleFactor: 1
        colliderOptions:
          colliderType: 0
        materialOptions:
          style: 7
          texturingType: 0
          materials:
          - Materials:
            - {fileID: 0}
          - Materials:
            - {fileID: 0}
          atlasInfo: {fileID: 0}
          lightStyleOpacity: 1
          darkStyleOpacity: 1
          colorStyleColor: {r: 0.38679248, g: 0.38679248, b: 0.38679248, a: 1}
          samplePalettes: 0
          colorPalette: {fileID: 0}
          customStyleOptions:
            texturingType: 0
            materials:
            - Materials:
              - {fileID: 0}
            - Materials:
              - {fileID: 0}
            atlasInfo: {fileID: 11400000, guid: 414754d7155df47beb52ca117a774f21,
              type: 2}
            colorPalette: {fileID: 11400000, guid: 57bdfa37edf7a4f7f999d19443497554,
              type: 2}
        performanceOptions:
          isEnabled: 1
          entityPerCoroutine: 20
        honorBuildingIdSetting: 1
        buildingsWithUniqueIds: 0
        moveFeaturePositionTo: 0
        MeshModifiers: []
        GoModifiers: []
        presetFeatureType: 4
        _maskValue: 0
        selectedTypes: 
      locationPrefabList: []
  _tileProvider: {fileID: 0}
--- !u!114 &8701796058670177074
MonoBehaviour:
  m_ObjectHideFlags: 0
  m_CorrespondingSourceObject: {fileID: 0}
  m_PrefabInstance: {fileID: 0}
  m_PrefabAsset: {fileID: 0}
  m_GameObject: {fileID: 8701796058670177073}
  m_Enabled: 1
  m_EditorHideFlags: 0
  m_Script: {fileID: 11500000, guid: 981138be3a7c9bb47a21af4b80d358e5, type: 3}
  m_Name: 
  m_EditorClassIdentifier: 
  bufferRadius: 500
  clipMaterial: {fileID: 2100000, guid: 71e0123f6021c3b48ada59599b1d93af, type: 2}
  togglePrefab: {fileID: 643, guid: 2074821e0e7c21842b736743ca66bbef, type: 3}
  geodataParent: {fileID: 0}
  contextParent: {fileID: 0}
  goodGrowthParent: {fileID: 0}
  ProtectionParent: {fileID: 0}
  planningServer: https://maps.london.gov.uk/gla/rest/services/apps/planning_data_map_03/MapServer/
  airQualityServer: https://maps.london.gov.uk/gla/rest/services/apps/Air_Quality_map_service_01/MapServer/
--- !u!114 &3538291659260152499
MonoBehaviour:
  m_ObjectHideFlags: 0
  m_CorrespondingSourceObject: {fileID: 0}
  m_PrefabInstance: {fileID: 0}
  m_PrefabAsset: {fileID: 0}
  m_GameObject: {fileID: 8701796058670177073}
  m_Enabled: 1
  m_EditorHideFlags: 0
  m_Script: {fileID: 11500000, guid: 5a3088f26b0277a4b8c44ca9b06f7ba0, type: 3}
  m_Name: 
  m_EditorClassIdentifier: 
  treeNames:
  - Alder
  - Apple
  - Beech
  - Birch
  - Cherry
  - Cypress
  - Ash
  - Maple
  - Oak
  - Pine
  - Plane
  - Poplar
  - Willow
  - Hawthorn
  - Hazel
  - Elm
  - Other
  - Black_Locust
  - Lime
  - Hornbeam
  - Pear
  - Whitebeam
  - Chestnut
