%YAML 1.1
%TAG !u! tag:unity3d.com,2011:
--- !u!114 &11400000
MonoBehaviour:
  m_ObjectHideFlags: 0
  m_CorrespondingSourceObject: {fileID: 0}
  m_PrefabInstance: {fileID: 0}
  m_PrefabAsset: {fileID: 0}
  m_GameObject: {fileID: 0}
  m_Enabled: 1
  m_EditorHideFlags: 0
  m_Script: {fileID: 11500000, guid: e601f7207d4455f469a3ebf63dffa77d, type: 3}
  m_Name: PM10  Bar Chart Value Sender
  m_EditorClassIdentifier: 
  Active: 1
  datasetName: PM10
  parameter1: Year
  parameter2: Total
  domainStart: 0
  domainEnd: 30
