%YAML 1.1
%TAG !u! tag:unity3d.com,2011:
--- !u!114 &11400000
MonoBehaviour:
  m_ObjectHideFlags: 0
  m_CorrespondingSourceObject: {fileID: 0}
  m_PrefabInstance: {fileID: 0}
  m_PrefabAsset: {fileID: 0}
  m_GameObject: {fileID: 0}
  m_Enabled: 1
  m_EditorHideFlags: 0
  m_Script: {fileID: 11500000, guid: dd8aacc1880ff504d9531b4d61c86458, type: 3}
  m_Name: RailStation PrefabModifier
  m_EditorClassIdentifier: 
  Active: 1
  _options:
    prefab: {fileID: 2841313191866867564, guid: 053d351331f492c4a898c11a1c969531,
      type: 3}
    scaleDownWithWorld: 1
