%YAML 1.1
%TAG !u! tag:unity3d.com,2011:
--- !u!114 &11400000
MonoBehaviour:
  m_ObjectHideFlags: 0
  m_CorrespondingSourceObject: {fileID: 0}
  m_PrefabInstance: {fileID: 0}
  m_PrefabAsset: {fileID: 0}
  m_GameObject: {fileID: 0}
  m_Enabled: 1
  m_EditorHideFlags: 0
  m_Script: {fileID: 11500000, guid: 539ad801d8fb13d48ac37cf2fe7026b0, type: 3}
  m_Name: Road Directionality Material Modifier
  m_EditorClassIdentifier: 
  Active: 1
  _options:
    style: 7
    texturingType: 0
    materials:
    - Materials:
      - {fileID: 0}
    - Materials:
      - {fileID: 0}
    atlasInfo: {fileID: 0}
    lightStyleOpacity: 1
    darkStyleOpacity: 1
    colorStyleColor: {r: 1, g: 1, b: 1, a: 1}
    samplePalettes: 0
    colorPalette: {fileID: 0}
    customStyleOptions:
      texturingType: 0
      materials:
      - Materials:
        - {fileID: 0}
      - Materials:
        - {fileID: 0}
      atlasInfo: {fileID: 0}
      colorPalette: {fileID: 0}
  VisualisationType: 2
  feature: Road_Directionality
  parameter: directiona
  material: {fileID: 2100000, guid: 7c3d550b25627084ebf6e7ddff68f197, type: 2}
  gradient:
    serializedVersion: 2
    key0: {r: 1, g: 1, b: 1, a: 1}
    key1: {r: 1, g: 1, b: 1, a: 1}
    key2: {r: 0, g: 0, b: 0, a: 0}
    key3: {r: 0, g: 0, b: 0, a: 0}
    key4: {r: 0, g: 0, b: 0, a: 0}
    key5: {r: 0, g: 0, b: 0, a: 0}
    key6: {r: 0, g: 0, b: 0, a: 0}
    key7: {r: 0, g: 0, b: 0, a: 0}
    ctime0: 0
    ctime1: 65535
    ctime2: 0
    ctime3: 0
    ctime4: 0
    ctime5: 0
    ctime6: 0
    ctime7: 0
    atime0: 0
    atime1: 65535
    atime2: 0
    atime3: 0
    atime4: 0
    atime5: 0
    atime6: 0
    atime7: 0
    m_Mode: 0
    m_NumColorKeys: 2
    m_NumAlphaKeys: 2
  materials:
  - {fileID: 2100000, guid: f8d8fb40af587d94f97c840e300bde49, type: 2}
  - {fileID: 2100000, guid: aa67cef2dd18f24409cbeb0913be7a9f, type: 2}
  - {fileID: 2100000, guid: af935792be0b7174ba4530e38ed4b90d, type: 2}
  conditions:
  - bothDirections
  - inOppositeDirection
  - inDirection
